{"current_page": 115, "data": [{"id": 12780, "name": "Miningbtcfxtraders", "short_description": "Based on our experience and/or the warnings of official regulatory bodies, this company, and/or some of its practices, were flagged as a scam/fraud.", "review": "", "fca_link": "https://www.fca.org.uk/news/warnings/miningbtcfxtradersonline", "logo": "", "screenshot": "", "created_at": "2022-05-10T11:00:00.000000Z", "updated_at": "2022-05-10T11:00:00.000000Z", "website": "www.miningbtcfxtraders.online", "imposter": false, "copycat": false}, {"id": 12781, "name": "Cryptofxfastminers", "short_description": "Based on our experience and/or the warnings of official regulatory bodies, this company, and/or some of its practices, were flagged as a scam/fraud.", "review": "", "fca_link": "https://www.fca.org.uk/news/warnings/cryptofxfastminersonline", "logo": "", "screenshot": "", "created_at": "2022-05-10T11:00:00.000000Z", "updated_at": "2022-05-10T11:00:00.000000Z", "website": "www.cryptofxfastminers.online", "imposter": false, "copycat": false}, {"id": 12782, "name": "Talk-Talk", "short_description": "Based on our experience and/or the warnings of official regulatory bodies, this company, and/or some of its practices, were flagged as a scam/fraud.", "review": "", "fca_link": "https://www.fca.org.uk/news/warnings/talk-talknet-clone-firm-clone-fca-authorised-firm", "logo": "", "screenshot": "", "created_at": "2022-05-09T11:00:00.000000Z", "updated_at": "2022-05-09T11:00:00.000000Z", "website": "www.talk-talk.net", "imposter": false, "copycat": false}, {"id": 12783, "name": "Easytrade", "short_description": "Based on our experience and/or the warnings of official regulatory bodies, this company, and/or some of its practices, were flagged as a scam/fraud.", "review": "", "fca_link": "https://www.fca.org.uk/news/warnings/easytradeio", "logo": "", "screenshot": "", "created_at": "2022-05-09T11:00:00.000000Z", "updated_at": "2022-05-09T11:00:00.000000Z", "website": "www.EasyTrade.io", "imposter": false, "copycat": false}, {"id": 12784, "name": "Safebtccompany", "short_description": "Based on our experience and/or the warnings of official regulatory bodies, this company, and/or some of its practices, were flagged as a scam/fraud.", "review": "", "fca_link": "https://www.fca.org.uk/news/warnings/safebtccompany-clone-fca-authorised-firm", "logo": "", "screenshot": "", "created_at": "2022-05-09T11:00:00.000000Z", "updated_at": "2022-05-09T11:00:00.000000Z", "website": "safebtccompany.com, safebtccompany.business, safebtc.company", "imposter": false, "copycat": false}, {"id": 12785, "name": "Globelfx", "short_description": "Based on our experience and/or the warnings of official regulatory bodies, this company, and/or some of its practices, were flagged as a scam/fraud.", "review": "", "fca_link": "https://www.fca.org.uk/news/warnings/globelfx", "logo": "", "screenshot": "", "created_at": "2022-05-09T11:00:00.000000Z", "updated_at": "2022-05-09T11:00:00.000000Z", "website": "https://globelfx.com/", "imposter": false, "copycat": false}, {"id": 12786, "name": "Bank London The", "short_description": "Based on our experience and/or the warnings of official regulatory bodies, this company, and/or some of its practices, were flagged as a scam/fraud.", "review": "", "fca_link": "https://www.fca.org.uk/news/warnings/bank-london-clone-fca-authorised-firm", "logo": "", "screenshot": "", "created_at": "2022-05-09T11:00:00.000000Z", "updated_at": "2022-05-09T11:00:00.000000Z", "website": "www.thebanklondon.uk, www.thebanklondon.co.uk", "imposter": false, "copycat": false}, {"id": 12787, "name": "Kufin Limited", "short_description": "Based on our experience and/or the warnings of official regulatory bodies, this company, and/or some of its practices, were flagged as a scam/fraud.", "review": "", "fca_link": "https://www.fca.org.uk/news/warnings/kufin-limited", "logo": "", "screenshot": "", "created_at": "2022-05-09T11:00:00.000000Z", "updated_at": "2022-05-09T11:00:00.000000Z", "website": "www.kufinlimited.com", "imposter": false, "copycat": false}, {"id": 12788, "name": "Broker Crypto", "short_description": "Based on our experience and/or the warnings of official regulatory bodies, this company, and/or some of its practices, were flagged as a scam/fraud.", "review": "", "fca_link": "https://www.fca.org.uk/news/warnings/crypto-broker", "logo": "", "screenshot": "", "created_at": "2022-05-06T11:00:00.000000Z", "updated_at": "2022-05-06T11:00:00.000000Z", "website": "https://cryptobroker.ltd/", "imposter": false, "copycat": false}, {"id": 12789, "name": "Crypto Invest Maker", "short_description": "Based on our experience and/or the warnings of official regulatory bodies, this company, and/or some of its practices, were flagged as a scam/fraud.", "review": "", "fca_link": "https://www.fca.org.uk/news/warnings/crypto-maker-invest", "logo": "", "screenshot": "", "created_at": "2022-05-06T11:00:00.000000Z", "updated_at": "2022-05-06T11:00:00.000000Z", "website": "https://cryptomakerinvest.com", "imposter": false, "copycat": false}, {"id": 12790, "name": "Lyxor Pro", "short_description": "Based on our experience and/or the warnings of official regulatory bodies, this company, and/or some of its practices, were flagged as a scam/fraud.", "review": "", "fca_link": "https://www.fca.org.uk/news/warnings/lyxor-pro-clone-fca-authorised-firm", "logo": "", "screenshot": "", "created_at": "2022-05-06T11:00:00.000000Z", "updated_at": "2022-05-06T11:00:00.000000Z", "website": "www.lyxorpro.com", "imposter": false, "copycat": false}, {"id": 12791, "name": "Advisors Highsmith Llc Miller", "short_description": "Based on our experience and/or the warnings of official regulatory bodies, this company, and/or some of its practices, were flagged as a scam/fraud.", "review": "", "fca_link": "https://www.fca.org.uk/news/warnings/highsmith-miller-advisors-llc", "logo": "", "screenshot": "", "created_at": "2022-05-05T11:00:00.000000Z", "updated_at": "2022-05-05T11:00:00.000000Z", "website": "", "imposter": false, "copycat": false}, {"id": 12792, "name": "Coins Crypto Traders", "short_description": "Based on our experience and/or the warnings of official regulatory bodies, this company, and/or some of its practices, were flagged as a scam/fraud.", "review": "", "fca_link": "https://www.fca.org.uk/news/warnings/crypto-coins-traders", "logo": "", "screenshot": "", "created_at": "2022-05-05T11:00:00.000000Z", "updated_at": "2022-05-05T11:00:00.000000Z", "website": "www.cryptocoins-traders.com", "imposter": false, "copycat": false}, {"id": 12793, "name": "Bank Cryptominers", "short_description": "Based on our experience and/or the warnings of official regulatory bodies, this company, and/or some of its practices, were flagged as a scam/fraud.", "review": "", "fca_link": "https://www.fca.org.uk/news/warnings/cryptominers-bank", "logo": "", "screenshot": "", "created_at": "2022-05-05T11:00:00.000000Z", "updated_at": "2022-05-05T11:00:00.000000Z", "website": "https://cryptominersbank.com/", "imposter": false, "copycat": false}, {"id": 12794, "name": "Expertbinarytrade", "short_description": "Based on our experience and/or the warnings of official regulatory bodies, this company, and/or some of its practices, were flagged as a scam/fraud.", "review": "", "fca_link": "https://www.fca.org.uk/news/warnings/expertbinarytrade", "logo": "", "screenshot": "", "created_at": "2022-05-04T11:00:00.000000Z", "updated_at": "2022-05-04T11:00:00.000000Z", "website": "www.cryptofxbinary.com", "imposter": false, "copycat": false}, {"id": 12795, "name": "Varietyfx", "short_description": "Based on our experience and/or the warnings of official regulatory bodies, this company, and/or some of its practices, were flagged as a scam/fraud.", "review": "", "fca_link": "https://www.fca.org.uk/news/warnings/varietyfx", "logo": "", "screenshot": "", "created_at": "2022-05-04T11:00:00.000000Z", "updated_at": "2022-05-04T11:00:00.000000Z", "website": "www.cradlefx.com, www.varietyfx.net", "imposter": false, "copycat": false}, {"id": 12796, "name": "Cryptoprimetrading", "short_description": "Based on our experience and/or the warnings of official regulatory bodies, this company, and/or some of its practices, were flagged as a scam/fraud.", "review": "", "fca_link": "https://www.fca.org.uk/news/warnings/cryptoprimetrading", "logo": "", "screenshot": "", "created_at": "2022-05-04T11:00:00.000000Z", "updated_at": "2022-05-04T11:00:00.000000Z", "website": "www.cryptoprimetrading.com", "imposter": false, "copycat": false}, {"id": 12797, "name": "Kurdistanforex Ltd", "short_description": "Based on our experience and/or the warnings of official regulatory bodies, this company, and/or some of its practices, were flagged as a scam/fraud.", "review": "", "fca_link": "https://www.fca.org.uk/news/warnings/kurdistanforex-ltd", "logo": "", "screenshot": "", "created_at": "2022-05-04T11:00:00.000000Z", "updated_at": "2022-05-04T11:00:00.000000Z", "website": "www.kurdistanforex.com", "imposter": false, "copycat": false}, {"id": 12798, "name": "Capital Metagold", "short_description": "Based on our experience and/or the warnings of official regulatory bodies, this company, and/or some of its practices, were flagged as a scam/fraud.", "review": "", "fca_link": "https://www.fca.org.uk/news/warnings/metagold-capital", "logo": "", "screenshot": "", "created_at": "2022-05-04T11:00:00.000000Z", "updated_at": "2022-05-04T11:00:00.000000Z", "website": "www.metagoldcapital.com", "imposter": false, "copycat": false}, {"id": 12799, "name": "Capitals Ltd Prb", "short_description": "Based on our experience and/or the warnings of official regulatory bodies, this company, and/or some of its practices, were flagged as a scam/fraud.", "review": "", "fca_link": "https://www.fca.org.uk/news/warnings/prb-capitals-ltd", "logo": "", "screenshot": "", "created_at": "2022-05-04T11:00:00.000000Z", "updated_at": "2022-05-06T11:00:00.000000Z", "website": "www.prbcapitals.com, www.prbcapitalltd.com", "imposter": false, "copycat": false}, {"id": 12800, "name": "Capital Daimon Partners", "short_description": "Based on our experience and/or the warnings of official regulatory bodies, this company, and/or some of its practices, were flagged as a scam/fraud.", "review": "", "fca_link": "https://www.fca.org.uk/news/warnings/daimon-capital-partners", "logo": "", "screenshot": "", "created_at": "2022-05-04T11:00:00.000000Z", "updated_at": "2022-05-04T11:00:00.000000Z", "website": "https://daimoncapital.com/", "imposter": false, "copycat": false}, {"id": 12801, "name": "Alpha Alphaforexprolimited Forex Limited Pro", "short_description": "Based on our experience and/or the warnings of official regulatory bodies, this company, and/or some of its practices, were flagged as a scam/fraud.", "review": "", "fca_link": "https://www.fca.org.uk/news/warnings/alpha-forex-pro-limited-alphaforexprolimited-clone-fca-authorised-firms", "logo": "", "screenshot": "", "created_at": "2022-05-04T11:00:00.000000Z", "updated_at": "2022-05-04T11:00:00.000000Z", "website": "www.alphaforexpro.net", "imposter": false, "copycat": false}, {"id": 12802, "name": "Lexington Plus", "short_description": "Based on our experience and/or the warnings of official regulatory bodies, this company, and/or some of its practices, were flagged as a scam/fraud.", "review": "", "fca_link": "https://www.fca.org.uk/news/warnings/lexington-plus", "logo": "", "screenshot": "", "created_at": "2022-05-03T11:00:00.000000Z", "updated_at": "2022-05-03T11:00:00.000000Z", "website": "www.lexingtonplus.com", "imposter": false, "copycat": false}, {"id": 12803, "name": "Capital Financial Management Trust", "short_description": "Based on our experience and/or the warnings of official regulatory bodies, this company, and/or some of its practices, were flagged as a scam/fraud.", "review": "", "fca_link": "https://www.fca.org.uk/news/warnings/capital-trust-financial-management-clone-fca-authorised-firm", "logo": "", "screenshot": "", "created_at": "2022-05-03T11:00:00.000000Z", "updated_at": "2022-05-03T11:00:00.000000Z", "website": "https://capitaltrustfinancialmgt.com/", "imposter": false, "copycat": false}, {"id": 12804, "name": "Llc Point-Benowitz Pointe-Benowitz", "short_description": "Based on our experience and/or the warnings of official regulatory bodies, this company, and/or some of its practices, were flagged as a scam/fraud.", "review": "", "fca_link": "https://www.fca.org.uk/news/warnings/pointe-benowitz-llc-point-benowitz", "logo": "", "screenshot": "", "created_at": "2022-05-03T11:00:00.000000Z", "updated_at": "2022-05-24T11:00:00.000000Z", "website": "www.pointe-benowitz.com", "imposter": false, "copycat": false}], "first_page_url": "https://api.payback-ltd.com/api/blacklist?page=1", "from": 2851, "last_page": 486, "last_page_url": "https://api.payback-ltd.com/api/blacklist?page=486", "links": [{"url": "https://api.payback-ltd.com/api/blacklist?page=114", "label": "&laquo; Previous", "active": false}, {"url": "https://api.payback-ltd.com/api/blacklist?page=1", "label": "1", "active": false}, {"url": "https://api.payback-ltd.com/api/blacklist?page=2", "label": "2", "active": false}, {"url": null, "label": "...", "active": false}, {"url": "https://api.payback-ltd.com/api/blacklist?page=112", "label": "112", "active": false}, {"url": "https://api.payback-ltd.com/api/blacklist?page=113", "label": "113", "active": false}, {"url": "https://api.payback-ltd.com/api/blacklist?page=114", "label": "114", "active": false}, {"url": "https://api.payback-ltd.com/api/blacklist?page=115", "label": "115", "active": true}, {"url": "https://api.payback-ltd.com/api/blacklist?page=116", "label": "116", "active": false}, {"url": "https://api.payback-ltd.com/api/blacklist?page=117", "label": "117", "active": false}, {"url": "https://api.payback-ltd.com/api/blacklist?page=118", "label": "118", "active": false}, {"url": null, "label": "...", "active": false}, {"url": "https://api.payback-ltd.com/api/blacklist?page=485", "label": "485", "active": false}, {"url": "https://api.payback-ltd.com/api/blacklist?page=486", "label": "486", "active": false}, {"url": "https://api.payback-ltd.com/api/blacklist?page=116", "label": "Next &raquo;", "active": false}], "next_page_url": "https://api.payback-ltd.com/api/blacklist?page=116", "path": "https://api.payback-ltd.com/api/blacklist", "per_page": 25, "prev_page_url": "https://api.payback-ltd.com/api/blacklist?page=114", "to": 2875, "total": 12140}