{"current_page": 86, "data": [{"id": 12055, "name": "Glovefx Trade", "short_description": "Based on our experience and/or the warnings of official regulatory bodies, this company, and/or some of its practices, were flagged as a scam/fraud.", "review": "", "fca_link": "https://www.fca.org.uk/news/warnings/glovefx-trade", "logo": "", "screenshot": "", "created_at": "2022-11-24T12:00:00.000000Z", "updated_at": "2022-11-24T12:00:00.000000Z", "website": "www.glovefxtrade.com", "imposter": false, "copycat": false}, {"id": 12056, "name": "Exchangeincome", "short_description": "Based on our experience and/or the warnings of official regulatory bodies, this company, and/or some of its practices, were flagged as a scam/fraud.", "review": "", "fca_link": "https://www.fca.org.uk/news/warnings/exchangeincomenet", "logo": "", "screenshot": "", "created_at": "2022-11-24T12:00:00.000000Z", "updated_at": "2022-11-24T12:00:00.000000Z", "website": "www.exchangeincome.net", "imposter": false, "copycat": false}, {"id": 12057, "name": "Fxfortrade Ltd", "short_description": "Based on our experience and/or the warnings of official regulatory bodies, this company, and/or some of its practices, were flagged as a scam/fraud.", "review": "", "fca_link": "https://www.fca.org.uk/news/warnings/fxfortrade-ltd-clone-fca-authorised-firm", "logo": "", "screenshot": "", "created_at": "2022-11-24T12:00:00.000000Z", "updated_at": "2022-11-24T12:00:00.000000Z", "website": "www.fxfortrade.com, www.facebook.com/FXFORTRADE, www.instagram.com/fx_fortrade", "imposter": false, "copycat": false}, {"id": 12058, "name": "Financialrecoverysolutions", "short_description": "Based on our experience and/or the warnings of official regulatory bodies, this company, and/or some of its practices, were flagged as a scam/fraud.", "review": "", "fca_link": "https://www.fca.org.uk/news/warnings/financialrecoverysolutionsco-clone-fca-authorised-firm", "logo": "", "screenshot": "", "created_at": "2022-11-24T12:00:00.000000Z", "updated_at": "2022-12-08T12:00:00.000000Z", "website": "www.financialrecoverysolutions.co", "imposter": false, "copycat": false}, {"id": 12059, "name": "Cryptocoindeskfx", "short_description": "Based on our experience and/or the warnings of official regulatory bodies, this company, and/or some of its practices, were flagged as a scam/fraud.", "review": "", "fca_link": "https://www.fca.org.uk/news/warnings/cryptocoindeskfx", "logo": "", "screenshot": "", "created_at": "2022-11-24T12:00:00.000000Z", "updated_at": "2022-11-24T12:00:00.000000Z", "website": "www.cryptocoindeskfx.com", "imposter": false, "copycat": false}, {"id": 12060, "name": "Cryptocurrencyfxmining", "short_description": "Based on our experience and/or the warnings of official regulatory bodies, this company, and/or some of its practices, were flagged as a scam/fraud.", "review": "", "fca_link": "https://www.fca.org.uk/news/warnings/cryptocurrencyfxmining", "logo": "", "screenshot": "", "created_at": "2022-11-24T12:00:00.000000Z", "updated_at": "2022-11-24T12:00:00.000000Z", "website": "www.cryptocurrencyfxmining.com", "imposter": false, "copycat": false}, {"id": 12061, "name": "Activfxtrade", "short_description": "Based on our experience and/or the warnings of official regulatory bodies, this company, and/or some of its practices, were flagged as a scam/fraud.", "review": "", "fca_link": "https://www.fca.org.uk/news/warnings/activfxtrade", "logo": "", "screenshot": "", "created_at": "2022-11-24T12:00:00.000000Z", "updated_at": "2022-11-24T12:00:00.000000Z", "website": "https://activfxtrade.com/", "imposter": false, "copycat": false}, {"id": 12062, "name": "And Capital Cooperhouse Fund Inc Management", "short_description": "Based on our experience and/or the warnings of official regulatory bodies, this company, and/or some of its practices, were flagged as a scam/fraud.", "review": "", "fca_link": "https://www.fca.org.uk/news/warnings/cooperhouse-capital-and-fund-management-inc", "logo": "", "screenshot": "", "created_at": "2022-11-24T12:00:00.000000Z", "updated_at": "2022-11-30T12:00:00.000000Z", "website": "www.cooperhousecapfundmgt.com", "imposter": false, "copycat": false}, {"id": 12063, "name": "Network Zeon", "short_description": "Based on our experience and/or the warnings of official regulatory bodies, this company, and/or some of its practices, were flagged as a scam/fraud.", "review": "", "fca_link": "https://www.fca.org.uk/news/warnings/zeon-network", "logo": "", "screenshot": "", "created_at": "2022-11-24T12:00:00.000000Z", "updated_at": "2022-11-24T12:00:00.000000Z", "website": "https://zeon.network/", "imposter": false, "copycat": false}, {"id": 12064, "name": "Global Investment Orion", "short_description": "Based on our experience and/or the warnings of official regulatory bodies, this company, and/or some of its practices, were flagged as a scam/fraud.", "review": "", "fca_link": "https://www.fca.org.uk/news/warnings/orion-global-investment", "logo": "", "screenshot": "", "created_at": "2022-11-24T12:00:00.000000Z", "updated_at": "2022-11-24T12:00:00.000000Z", "website": "https://orionglobalinvest.ltd/", "imposter": false, "copycat": false}, {"id": 12065, "name": "Capital Investments Trust", "short_description": "Based on our experience and/or the warnings of official regulatory bodies, this company, and/or some of its practices, were flagged as a scam/fraud.", "review": "", "fca_link": "https://www.fca.org.uk/news/warnings/capital-trust-investments", "logo": "", "screenshot": "", "created_at": "2022-11-24T12:00:00.000000Z", "updated_at": "2022-11-24T12:00:00.000000Z", "website": "www.capitaltrust-investments.com/", "imposter": false, "copycat": false}, {"id": 12066, "name": "Df Dfmarkets Markets", "short_description": "Based on our experience and/or the warnings of official regulatory bodies, this company, and/or some of its practices, were flagged as a scam/fraud.", "review": "", "fca_link": "https://www.fca.org.uk/news/warnings/df-markets-dfmarketsuk", "logo": "", "screenshot": "", "created_at": "2022-11-23T12:00:00.000000Z", "updated_at": "2022-11-23T12:00:00.000000Z", "website": "https://dfmarkets.uk", "imposter": false, "copycat": false}, {"id": 12067, "name": "Firstcrystalbank", "short_description": "Based on our experience and/or the warnings of official regulatory bodies, this company, and/or some of its practices, were flagged as a scam/fraud.", "review": "", "fca_link": "https://www.fca.org.uk/news/warnings/firstcrystalbank", "logo": "", "screenshot": "", "created_at": "2022-11-23T12:00:00.000000Z", "updated_at": "2022-11-23T12:00:00.000000Z", "website": "https://firstcrystalbank.com/", "imposter": false, "copycat": false}, {"id": 12068, "name": "Spotinvest", "short_description": "Based on our experience and/or the warnings of official regulatory bodies, this company, and/or some of its practices, were flagged as a scam/fraud.", "review": "", "fca_link": "https://www.fca.org.uk/news/warnings/spotinvest-clone-fca-authorised-firm", "logo": "", "screenshot": "", "created_at": "2022-11-23T12:00:00.000000Z", "updated_at": "2023-02-09T12:00:00.000000Z", "website": "www.spotinvest.com", "imposter": false, "copycat": false}, {"id": 12069, "name": "Assests Capital Zenith", "short_description": "Based on our experience and/or the warnings of official regulatory bodies, this company, and/or some of its practices, were flagged as a scam/fraud.", "review": "", "fca_link": "https://www.fca.org.uk/news/warnings/zenith-capital-assests", "logo": "", "screenshot": "", "created_at": "2022-11-23T12:00:00.000000Z", "updated_at": "2022-11-23T12:00:00.000000Z", "website": "https://zenithinvestmentsglobal.com/", "imposter": false, "copycat": false}, {"id": 12070, "name": "Stock-Invests", "short_description": "Based on our experience and/or the warnings of official regulatory bodies, this company, and/or some of its practices, were flagged as a scam/fraud.", "review": "", "fca_link": "https://www.fca.org.uk/news/warnings/stock-investscom", "logo": "", "screenshot": "", "created_at": "2022-11-23T12:00:00.000000Z", "updated_at": "2022-11-23T12:00:00.000000Z", "website": "http://stock-invests.com/", "imposter": false, "copycat": false}, {"id": 12071, "name": "Investments Market Stock Us", "short_description": "Based on our experience and/or the warnings of official regulatory bodies, this company, and/or some of its practices, were flagged as a scam/fraud.", "review": "", "fca_link": "https://www.fca.org.uk/news/warnings/us-stock-market-investments", "logo": "", "screenshot": "", "created_at": "2022-11-23T12:00:00.000000Z", "updated_at": "2022-11-23T12:00:00.000000Z", "website": "https://usstockmarketinvestment.com/", "imposter": false, "copycat": false}, {"id": 12072, "name": "Brokers Fx Legacy", "short_description": "Based on our experience and/or the warnings of official regulatory bodies, this company, and/or some of its practices, were flagged as a scam/fraud.", "review": "", "fca_link": "https://www.fca.org.uk/news/warnings/legacy-fx-brokers", "logo": "", "screenshot": "", "created_at": "2022-11-23T12:00:00.000000Z", "updated_at": "2022-11-23T12:00:00.000000Z", "website": "http://legacyfxbrokers.net/", "imposter": false, "copycat": false}, {"id": 12073, "name": "Bravofxtrade", "short_description": "Based on our experience and/or the warnings of official regulatory bodies, this company, and/or some of its practices, were flagged as a scam/fraud.", "review": "", "fca_link": "https://www.fca.org.uk/news/warnings/bravofxtrade", "logo": "", "screenshot": "", "created_at": "2022-11-23T12:00:00.000000Z", "updated_at": "2022-11-23T12:00:00.000000Z", "website": "https://bravofxtrade.online/", "imposter": false, "copycat": false}, {"id": 12074, "name": "Cryp Fx Land", "short_description": "Based on our experience and/or the warnings of official regulatory bodies, this company, and/or some of its practices, were flagged as a scam/fraud.", "review": "", "fca_link": "https://www.fca.org.uk/news/warnings/fx-cryp-land", "logo": "", "screenshot": "", "created_at": "2022-11-23T12:00:00.000000Z", "updated_at": "2022-11-23T12:00:00.000000Z", "website": "https://fxcrypland.com/", "imposter": false, "copycat": false}, {"id": 12075, "name": "Epentomia", "short_description": "Based on our experience and/or the warnings of official regulatory bodies, this company, and/or some of its practices, were flagged as a scam/fraud.", "review": "", "fca_link": "https://www.fca.org.uk/news/warnings/epentomia", "logo": "", "screenshot": "", "created_at": "2022-11-23T12:00:00.000000Z", "updated_at": "2022-11-23T12:00:00.000000Z", "website": "www.eptfx.exchange", "imposter": false, "copycat": false}, {"id": 12076, "name": "Beanstox Investment Unified", "short_description": "Based on our experience and/or the warnings of official regulatory bodies, this company, and/or some of its practices, were flagged as a scam/fraud.", "review": "", "fca_link": "https://www.fca.org.uk/news/warnings/beanstox-unified-investment", "logo": "", "screenshot": "", "created_at": "2022-11-23T12:00:00.000000Z", "updated_at": "2022-11-23T12:00:00.000000Z", "website": "https://beanstoxunifiedinvest.com/", "imposter": false, "copycat": false}, {"id": 12077, "name": "Fxmarketspace Ltd", "short_description": "Based on our experience and/or the warnings of official regulatory bodies, this company, and/or some of its practices, were flagged as a scam/fraud.", "review": "", "fca_link": "https://www.fca.org.uk/news/warnings/fxmarketspace-ltd", "logo": "", "screenshot": "", "created_at": "2022-11-23T12:00:00.000000Z", "updated_at": "2022-11-23T12:00:00.000000Z", "website": "www.fxmarketslimited.com", "imposter": false, "copycat": false}, {"id": 12078, "name": "Assetglobal Investments", "short_description": "Based on our experience and/or the warnings of official regulatory bodies, this company, and/or some of its practices, were flagged as a scam/fraud.", "review": "", "fca_link": "https://www.fca.org.uk/news/warnings/assetglobal-investments", "logo": "", "screenshot": "", "created_at": "2022-11-23T12:00:00.000000Z", "updated_at": "2022-11-23T12:00:00.000000Z", "website": "www.assetglobal.org", "imposter": false, "copycat": false}, {"id": 12079, "name": "Capittal Partner", "short_description": "Based on our experience and/or the warnings of official regulatory bodies, this company, and/or some of its practices, were flagged as a scam/fraud.", "review": "", "fca_link": "https://www.fca.org.uk/news/warnings/capittal-partner", "logo": "", "screenshot": "", "created_at": "2022-11-23T12:00:00.000000Z", "updated_at": "2022-11-23T12:00:00.000000Z", "website": "www.capittalpartner.io", "imposter": false, "copycat": false}], "first_page_url": "https://api.payback-ltd.com/api/blacklist?page=1", "from": 2126, "last_page": 486, "last_page_url": "https://api.payback-ltd.com/api/blacklist?page=486", "links": [{"url": "https://api.payback-ltd.com/api/blacklist?page=85", "label": "&laquo; Previous", "active": false}, {"url": "https://api.payback-ltd.com/api/blacklist?page=1", "label": "1", "active": false}, {"url": "https://api.payback-ltd.com/api/blacklist?page=2", "label": "2", "active": false}, {"url": null, "label": "...", "active": false}, {"url": "https://api.payback-ltd.com/api/blacklist?page=83", "label": "83", "active": false}, {"url": "https://api.payback-ltd.com/api/blacklist?page=84", "label": "84", "active": false}, {"url": "https://api.payback-ltd.com/api/blacklist?page=85", "label": "85", "active": false}, {"url": "https://api.payback-ltd.com/api/blacklist?page=86", "label": "86", "active": true}, {"url": "https://api.payback-ltd.com/api/blacklist?page=87", "label": "87", "active": false}, {"url": "https://api.payback-ltd.com/api/blacklist?page=88", "label": "88", "active": false}, {"url": "https://api.payback-ltd.com/api/blacklist?page=89", "label": "89", "active": false}, {"url": null, "label": "...", "active": false}, {"url": "https://api.payback-ltd.com/api/blacklist?page=485", "label": "485", "active": false}, {"url": "https://api.payback-ltd.com/api/blacklist?page=486", "label": "486", "active": false}, {"url": "https://api.payback-ltd.com/api/blacklist?page=87", "label": "Next &raquo;", "active": false}], "next_page_url": "https://api.payback-ltd.com/api/blacklist?page=87", "path": "https://api.payback-ltd.com/api/blacklist", "per_page": 25, "prev_page_url": "https://api.payback-ltd.com/api/blacklist?page=85", "to": 2150, "total": 12140}