{"current_page": 72, "data": [{"id": 11705, "name": "Global Market Sort", "short_description": "Based on our experience and/or the warnings of official regulatory bodies, this company, and/or some of its practices, were flagged as a scam/fraud.", "review": "", "fca_link": "https://www.fca.org.uk/news/warnings/sort-global-market", "logo": "", "screenshot": "", "created_at": "2023-01-16T12:00:00.000000Z", "updated_at": "2023-01-16T12:00:00.000000Z", "website": "www.sortglobalmarket.live", "imposter": false, "copycat": false}, {"id": 11706, "name": "Goldcoin Investment", "short_description": "Based on our experience and/or the warnings of official regulatory bodies, this company, and/or some of its practices, were flagged as a scam/fraud.", "review": "", "fca_link": "https://www.fca.org.uk/news/warnings/goldcoin-investment", "logo": "", "screenshot": "", "created_at": "2023-01-16T12:00:00.000000Z", "updated_at": "2023-01-16T12:00:00.000000Z", "website": "www.goldcoininvestment.co", "imposter": false, "copycat": false}, {"id": 11707, "name": "Accessfx247 Tradepro", "short_description": "Based on our experience and/or the warnings of official regulatory bodies, this company, and/or some of its practices, were flagged as a scam/fraud.", "review": "", "fca_link": "https://www.fca.org.uk/news/warnings/accessfx247-tradepro", "logo": "", "screenshot": "", "created_at": "2023-01-16T12:00:00.000000Z", "updated_at": "2023-01-16T12:00:00.000000Z", "website": "www.accessfx-247tradepro.com", "imposter": false, "copycat": false}, {"id": 11708, "name": "Global Mkt Trade", "short_description": "Based on our experience and/or the warnings of official regulatory bodies, this company, and/or some of its practices, were flagged as a scam/fraud.", "review": "", "fca_link": "https://www.fca.org.uk/news/warnings/global-trade-mkt", "logo": "", "screenshot": "", "created_at": "2023-01-16T12:00:00.000000Z", "updated_at": "2023-01-16T12:00:00.000000Z", "website": "www.globaltrademkts.com", "imposter": false, "copycat": false}, {"id": 11709, "name": "Bluehub Prime", "short_description": "Based on our experience and/or the warnings of official regulatory bodies, this company, and/or some of its practices, were flagged as a scam/fraud.", "review": "", "fca_link": "https://www.fca.org.uk/news/warnings/bluehub-prime", "logo": "", "screenshot": "", "created_at": "2023-01-16T12:00:00.000000Z", "updated_at": "2023-01-16T12:00:00.000000Z", "website": "www.bluehubprime.com", "imposter": false, "copycat": false}, {"id": 11710, "name": "Experttrades247", "short_description": "Based on our experience and/or the warnings of official regulatory bodies, this company, and/or some of its practices, were flagged as a scam/fraud.", "review": "", "fca_link": "https://www.fca.org.uk/news/warnings/experttrades247", "logo": "", "screenshot": "", "created_at": "2023-01-16T12:00:00.000000Z", "updated_at": "2023-01-16T12:00:00.000000Z", "website": "www.experttrades247.com", "imposter": false, "copycat": false}, {"id": 11711, "name": "Cisco Global Markets", "short_description": "Based on our experience and/or the warnings of official regulatory bodies, this company, and/or some of its practices, were flagged as a scam/fraud.", "review": "", "fca_link": "https://www.fca.org.uk/news/warnings/cisco-global-markets", "logo": "", "screenshot": "", "created_at": "2023-01-16T12:00:00.000000Z", "updated_at": "2023-03-20T12:00:00.000000Z", "website": "https://ciscoglobalmarkets.com/, https://cics-global.com/", "imposter": false, "copycat": false}, {"id": 11712, "name": "Crypto Extreme Hub", "short_description": "Based on our experience and/or the warnings of official regulatory bodies, this company, and/or some of its practices, were flagged as a scam/fraud.", "review": "", "fca_link": "https://www.fca.org.uk/news/warnings/extreme-crypto-hub", "logo": "", "screenshot": "", "created_at": "2023-01-16T12:00:00.000000Z", "updated_at": "2023-01-17T12:00:00.000000Z", "website": "www.extremecryptohub.com", "imposter": false, "copycat": false}, {"id": 11713, "name": "Market Stock Super", "short_description": "Based on our experience and/or the warnings of official regulatory bodies, this company, and/or some of its practices, were flagged as a scam/fraud.", "review": "", "fca_link": "https://www.fca.org.uk/news/warnings/super-stock-market", "logo": "", "screenshot": "", "created_at": "2023-01-16T12:00:00.000000Z", "updated_at": "2023-01-16T12:00:00.000000Z", "website": "www.superstockmarket.com", "imposter": false, "copycat": false}, {"id": 11714, "name": "Crypto Experts Traders", "short_description": "Based on our experience and/or the warnings of official regulatory bodies, this company, and/or some of its practices, were flagged as a scam/fraud.", "review": "", "fca_link": "https://www.fca.org.uk/news/warnings/crypto-experts-traders", "logo": "", "screenshot": "", "created_at": "2023-01-16T12:00:00.000000Z", "updated_at": "2023-01-16T12:00:00.000000Z", "website": "www.cryptoexpertstraders.com", "imposter": false, "copycat": false}, {"id": 11715, "name": "Gatebits", "short_description": "Based on our experience and/or the warnings of official regulatory bodies, this company, and/or some of its practices, were flagged as a scam/fraud.", "review": "", "fca_link": "https://www.fca.org.uk/news/warnings/gatebits-clone-fca-authorised-firm", "logo": "", "screenshot": "", "created_at": "2023-01-13T12:00:00.000000Z", "updated_at": "2023-01-13T12:00:00.000000Z", "website": "www.gatebits.com", "imposter": false, "copycat": false}, {"id": 11716, "name": "Agility-Coins", "short_description": "Based on our experience and/or the warnings of official regulatory bodies, this company, and/or some of its practices, were flagged as a scam/fraud.", "review": "", "fca_link": "https://www.fca.org.uk/news/warnings/agility-coinsonline", "logo": "", "screenshot": "", "created_at": "2023-01-13T12:00:00.000000Z", "updated_at": "2023-01-13T12:00:00.000000Z", "website": "www.agility-coins.online", "imposter": false, "copycat": false}, {"id": 11717, "name": "Medifinancelimited", "short_description": "Based on our experience and/or the warnings of official regulatory bodies, this company, and/or some of its practices, were flagged as a scam/fraud.", "review": "", "fca_link": "https://www.fca.org.uk/news/warnings/medifinancelimitedcom-clone-fca-authorised-firm", "logo": "", "screenshot": "", "created_at": "2023-01-13T12:00:00.000000Z", "updated_at": "2023-03-10T12:00:00.000000Z", "website": "www.medifinancelimited.com", "imposter": false, "copycat": false}, {"id": 11718, "name": "Fxgross Trading", "short_description": "Based on our experience and/or the warnings of official regulatory bodies, this company, and/or some of its practices, were flagged as a scam/fraud.", "review": "", "fca_link": "https://www.fca.org.uk/news/warnings/fxgross-trading", "logo": "", "screenshot": "", "created_at": "2023-01-13T12:00:00.000000Z", "updated_at": "2023-01-13T12:00:00.000000Z", "website": "www.fxgross.com", "imposter": false, "copycat": false}, {"id": 11719, "name": "Loans Rabbit", "short_description": "Based on our experience and/or the warnings of official regulatory bodies, this company, and/or some of its practices, were flagged as a scam/fraud.", "review": "", "fca_link": "https://www.fca.org.uk/news/warnings/rabbit-loans", "logo": "", "screenshot": "", "created_at": "2023-01-13T12:00:00.000000Z", "updated_at": "2023-01-13T12:00:00.000000Z", "website": "www.rabbit-loans.com", "imposter": false, "copycat": false}, {"id": 11720, "name": "Elite-Firm", "short_description": "Based on our experience and/or the warnings of official regulatory bodies, this company, and/or some of its practices, were flagged as a scam/fraud.", "review": "", "fca_link": "https://www.fca.org.uk/news/warnings/elite-firm", "logo": "", "screenshot": "", "created_at": "2023-01-13T12:00:00.000000Z", "updated_at": "2023-01-13T12:00:00.000000Z", "website": "https://elite-firm.com", "imposter": false, "copycat": false}, {"id": 11721, "name": "C-Market Trade", "short_description": "Based on our experience and/or the warnings of official regulatory bodies, this company, and/or some of its practices, were flagged as a scam/fraud.", "review": "", "fca_link": "https://www.fca.org.uk/news/warnings/c-market-trade", "logo": "", "screenshot": "", "created_at": "2023-01-13T12:00:00.000000Z", "updated_at": "2023-01-13T12:00:00.000000Z", "website": "www.c-markettrade.com", "imposter": false, "copycat": false}, {"id": 11722, "name": "Mit Mit-Ic Trading", "short_description": "Based on our experience and/or the warnings of official regulatory bodies, this company, and/or some of its practices, were flagged as a scam/fraud.", "review": "", "fca_link": "https://www.fca.org.uk/news/warnings/mit-trading-mit-ic", "logo": "", "screenshot": "", "created_at": "2023-01-12T12:00:00.000000Z", "updated_at": "2023-01-12T12:00:00.000000Z", "website": "www.mit-ic.net", "imposter": false, "copycat": false}, {"id": 11723, "name": "Nftventures-Capital", "short_description": "Based on our experience and/or the warnings of official regulatory bodies, this company, and/or some of its practices, were flagged as a scam/fraud.", "review": "", "fca_link": "https://www.fca.org.uk/news/warnings/nftventures-capital", "logo": "", "screenshot": "", "created_at": "2023-01-12T12:00:00.000000Z", "updated_at": "2023-01-18T12:00:00.000000Z", "website": "https://nftventures-capital.com", "imposter": false, "copycat": false}, {"id": 11724, "name": "Fx Pro Trading", "short_description": "Based on our experience and/or the warnings of official regulatory bodies, this company, and/or some of its practices, were flagged as a scam/fraud.", "review": "", "fca_link": "https://www.fca.org.uk/news/warnings/pro-fx-trading", "logo": "", "screenshot": "", "created_at": "2023-01-12T12:00:00.000000Z", "updated_at": "2023-01-12T12:00:00.000000Z", "website": "https://profx-trade.com", "imposter": false, "copycat": false}, {"id": 11725, "name": "Capital Finance United", "short_description": "Based on our experience and/or the warnings of official regulatory bodies, this company, and/or some of its practices, were flagged as a scam/fraud.", "review": "", "fca_link": "https://www.fca.org.uk/news/warnings/united-capital-finance", "logo": "", "screenshot": "", "created_at": "2023-01-12T12:00:00.000000Z", "updated_at": "2023-01-12T12:00:00.000000Z", "website": "www.ucf-uk.com", "imposter": false, "copycat": false}, {"id": 11726, "name": "U Wealins", "short_description": "Based on our experience and/or the warnings of official regulatory bodies, this company, and/or some of its practices, were flagged as a scam/fraud.", "review": "", "fca_link": "https://www.fca.org.uk/news/warnings/wealins-uk-clone-fca-authorised-firm", "logo": "", "screenshot": "", "created_at": "2023-01-12T12:00:00.000000Z", "updated_at": "2023-01-12T12:00:00.000000Z", "website": "www.winsurer.co.uk", "imposter": false, "copycat": false}, {"id": 11727, "name": "Bank Bherma Trust", "short_description": "Based on our experience and/or the warnings of official regulatory bodies, this company, and/or some of its practices, were flagged as a scam/fraud.", "review": "", "fca_link": "https://www.fca.org.uk/news/warnings/bherma-trust-bank", "logo": "", "screenshot": "", "created_at": "2023-01-12T12:00:00.000000Z", "updated_at": "2023-01-12T12:00:00.000000Z", "website": "www.bhermatrustedbks.com", "imposter": false, "copycat": false}, {"id": 11728, "name": "Bank Equity Global", "short_description": "Based on our experience and/or the warnings of official regulatory bodies, this company, and/or some of its practices, were flagged as a scam/fraud.", "review": "", "fca_link": "https://www.fca.org.uk/news/warnings/equity-global-bank", "logo": "", "screenshot": "", "created_at": "2023-01-12T12:00:00.000000Z", "updated_at": "2023-01-12T12:00:00.000000Z", "website": "www.equityinvestmentfinance.com", "imposter": false, "copycat": false}, {"id": 11729, "name": "Huze Trade", "short_description": "Based on our experience and/or the warnings of official regulatory bodies, this company, and/or some of its practices, were flagged as a scam/fraud.", "review": "", "fca_link": "https://www.fca.org.uk/news/warnings/trade-huze-1", "logo": "", "screenshot": "", "created_at": "2023-01-12T12:00:00.000000Z", "updated_at": "2023-01-12T12:00:00.000000Z", "website": "www.tradehuze.com", "imposter": false, "copycat": false}], "first_page_url": "https://api.payback-ltd.com/api/blacklist?page=1", "from": 1776, "last_page": 486, "last_page_url": "https://api.payback-ltd.com/api/blacklist?page=486", "links": [{"url": "https://api.payback-ltd.com/api/blacklist?page=71", "label": "&laquo; Previous", "active": false}, {"url": "https://api.payback-ltd.com/api/blacklist?page=1", "label": "1", "active": false}, {"url": "https://api.payback-ltd.com/api/blacklist?page=2", "label": "2", "active": false}, {"url": null, "label": "...", "active": false}, {"url": "https://api.payback-ltd.com/api/blacklist?page=69", "label": "69", "active": false}, {"url": "https://api.payback-ltd.com/api/blacklist?page=70", "label": "70", "active": false}, {"url": "https://api.payback-ltd.com/api/blacklist?page=71", "label": "71", "active": false}, {"url": "https://api.payback-ltd.com/api/blacklist?page=72", "label": "72", "active": true}, {"url": "https://api.payback-ltd.com/api/blacklist?page=73", "label": "73", "active": false}, {"url": "https://api.payback-ltd.com/api/blacklist?page=74", "label": "74", "active": false}, {"url": "https://api.payback-ltd.com/api/blacklist?page=75", "label": "75", "active": false}, {"url": null, "label": "...", "active": false}, {"url": "https://api.payback-ltd.com/api/blacklist?page=485", "label": "485", "active": false}, {"url": "https://api.payback-ltd.com/api/blacklist?page=486", "label": "486", "active": false}, {"url": "https://api.payback-ltd.com/api/blacklist?page=73", "label": "Next &raquo;", "active": false}], "next_page_url": "https://api.payback-ltd.com/api/blacklist?page=73", "path": "https://api.payback-ltd.com/api/blacklist", "per_page": 25, "prev_page_url": "https://api.payback-ltd.com/api/blacklist?page=71", "to": 1800, "total": 12140}