{"current_page": 90, "data": [{"id": 12155, "name": "Crypto Currency Mega Profit", "short_description": "Based on our experience and/or the warnings of official regulatory bodies, this company, and/or some of its practices, were flagged as a scam/fraud.", "review": "", "fca_link": "https://www.fca.org.uk/news/warnings/mega-profit-crypto-currency", "logo": "", "screenshot": "", "created_at": "2022-11-04T12:00:00.000000Z", "updated_at": "2022-11-04T12:00:00.000000Z", "website": "www.megaprofitcryptocurrency.com", "imposter": false, "copycat": false}, {"id": 12156, "name": "Discovery Finance", "short_description": "Based on our experience and/or the warnings of official regulatory bodies, this company, and/or some of its practices, were flagged as a scam/fraud.", "review": "", "fca_link": "https://www.fca.org.uk/news/warnings/discovery-finance", "logo": "", "screenshot": "", "created_at": "2022-11-03T12:00:00.000000Z", "updated_at": "2023-01-30T12:00:00.000000Z", "website": "https://www.discoveryfinance.me/", "imposter": false, "copycat": false}, {"id": 12157, "name": "Smi Trade", "short_description": "Based on our experience and/or the warnings of official regulatory bodies, this company, and/or some of its practices, were flagged as a scam/fraud.", "review": "", "fca_link": "https://www.fca.org.uk/news/warnings/smi-trade", "logo": "", "screenshot": "", "created_at": "2022-11-03T12:00:00.000000Z", "updated_at": "2022-11-03T12:00:00.000000Z", "website": "https://smitrade.com/en-us/home/index.html", "imposter": false, "copycat": false}, {"id": 12158, "name": "Crypto Earners Prime", "short_description": "Based on our experience and/or the warnings of official regulatory bodies, this company, and/or some of its practices, were flagged as a scam/fraud.", "review": "", "fca_link": "https://www.fca.org.uk/news/warnings/prime-crypto-earners", "logo": "", "screenshot": "", "created_at": "2022-11-03T12:00:00.000000Z", "updated_at": "2022-11-03T12:00:00.000000Z", "website": "https://primecryptoearners.com/", "imposter": false, "copycat": false}, {"id": 12159, "name": "Invest Primecycles", "short_description": "Based on our experience and/or the warnings of official regulatory bodies, this company, and/or some of its practices, were flagged as a scam/fraud.", "review": "", "fca_link": "https://www.fca.org.uk/news/warnings/primecycles-invest", "logo": "", "screenshot": "", "created_at": "2022-11-03T12:00:00.000000Z", "updated_at": "2022-11-03T12:00:00.000000Z", "website": "https://primecyclesinvest.com/", "imposter": false, "copycat": false}, {"id": 12160, "name": "Bityield Investment", "short_description": "Based on our experience and/or the warnings of official regulatory bodies, this company, and/or some of its practices, were flagged as a scam/fraud.", "review": "", "fca_link": "https://www.fca.org.uk/news/warnings/bityield-investment", "logo": "", "screenshot": "", "created_at": "2022-11-03T12:00:00.000000Z", "updated_at": "2022-11-03T12:00:00.000000Z", "website": "https://bityieldinvestment.com/", "imposter": false, "copycat": false}, {"id": 12161, "name": "Investments Stacks", "short_description": "Based on our experience and/or the warnings of official regulatory bodies, this company, and/or some of its practices, were flagged as a scam/fraud.", "review": "", "fca_link": "https://www.fca.org.uk/news/warnings/stacks-investments", "logo": "", "screenshot": "", "created_at": "2022-11-03T12:00:00.000000Z", "updated_at": "2022-11-03T12:00:00.000000Z", "website": "www.stacksinvestments.pro", "imposter": false, "copycat": false}, {"id": 12162, "name": "Bank Guaranty One", "short_description": "Based on our experience and/or the warnings of official regulatory bodies, this company, and/or some of its practices, were flagged as a scam/fraud.", "review": "", "fca_link": "https://www.fca.org.uk/news/warnings/one-guaranty-bank", "logo": "", "screenshot": "", "created_at": "2022-11-02T12:00:00.000000Z", "updated_at": "2022-11-02T12:00:00.000000Z", "website": "www.oneguarantybank.com", "imposter": false, "copycat": false}, {"id": 12163, "name": "Llc Romos", "short_description": "Based on our experience and/or the warnings of official regulatory bodies, this company, and/or some of its practices, were flagged as a scam/fraud.", "review": "", "fca_link": "https://www.fca.org.uk/news/warnings/romos-llc", "logo": "", "screenshot": "", "created_at": "2022-11-02T12:00:00.000000Z", "updated_at": "2022-11-02T12:00:00.000000Z", "website": "https://www.romosllc.com/", "imposter": false, "copycat": false}, {"id": 12164, "name": "Inc Mastertradeplusfx", "short_description": "Based on our experience and/or the warnings of official regulatory bodies, this company, and/or some of its practices, were flagged as a scam/fraud.", "review": "", "fca_link": "https://www.fca.org.uk/news/warnings/mastertradeplusfx-inc", "logo": "", "screenshot": "", "created_at": "2022-11-02T12:00:00.000000Z", "updated_at": "2022-11-02T12:00:00.000000Z", "website": "https://mastertradeplusfx.com/", "imposter": false, "copycat": false}, {"id": 12165, "name": "Fx Global Icapital", "short_description": "Based on our experience and/or the warnings of official regulatory bodies, this company, and/or some of its practices, were flagged as a scam/fraud.", "review": "", "fca_link": "https://www.fca.org.uk/news/warnings/icapital-global-fx", "logo": "", "screenshot": "", "created_at": "2022-11-02T12:00:00.000000Z", "updated_at": "2022-11-02T12:00:00.000000Z", "website": "https://icapitalglobfx.com/", "imposter": false, "copycat": false}, {"id": 12166, "name": "Htb Investment", "short_description": "Based on our experience and/or the warnings of official regulatory bodies, this company, and/or some of its practices, were flagged as a scam/fraud.", "review": "", "fca_link": "https://www.fca.org.uk/news/warnings/htb-investment", "logo": "", "screenshot": "", "created_at": "2022-11-02T12:00:00.000000Z", "updated_at": "2022-11-02T12:00:00.000000Z", "website": "https://www.htbinvestment.com/", "imposter": false, "copycat": false}, {"id": 12167, "name": "Bank International Metrol", "short_description": "Based on our experience and/or the warnings of official regulatory bodies, this company, and/or some of its practices, were flagged as a scam/fraud.", "review": "", "fca_link": "https://www.fca.org.uk/news/warnings/metrol-international-bank", "logo": "", "screenshot": "", "created_at": "2022-11-02T12:00:00.000000Z", "updated_at": "2022-11-02T12:00:00.000000Z", "website": "https://metrolintlbank.com/", "imposter": false, "copycat": false}, {"id": 12168, "name": "Fundingfx", "short_description": "Based on our experience and/or the warnings of official regulatory bodies, this company, and/or some of its practices, were flagged as a scam/fraud.", "review": "", "fca_link": "https://www.fca.org.uk/news/warnings/fundingfx", "logo": "", "screenshot": "", "created_at": "2022-11-02T12:00:00.000000Z", "updated_at": "2022-11-02T12:00:00.000000Z", "website": "https://www.fundingfx.co.uk/", "imposter": false, "copycat": false}, {"id": 12169, "name": "Ltd Seaf Seafltd", "short_description": "Based on our experience and/or the warnings of official regulatory bodies, this company, and/or some of its practices, were flagged as a scam/fraud.", "review": "", "fca_link": "https://www.fca.org.uk/news/warnings/seaf-ltd-seafltdcouk", "logo": "", "screenshot": "", "created_at": "2022-11-02T12:00:00.000000Z", "updated_at": "2022-11-02T12:00:00.000000Z", "website": "www.seafltd.co.uk", "imposter": false, "copycat": false}, {"id": 12170, "name": "Asset City Financial Management", "short_description": "Based on our experience and/or the warnings of official regulatory bodies, this company, and/or some of its practices, were flagged as a scam/fraud.", "review": "", "fca_link": "https://www.fca.org.uk/news/warnings/city-financial-asset-management", "logo": "", "screenshot": "", "created_at": "2022-11-01T12:00:00.000000Z", "updated_at": "2022-11-01T12:00:00.000000Z", "website": "www.cityfinancialassetmanagement.com", "imposter": false, "copycat": false}, {"id": 12171, "name": "Retrofxprofit", "short_description": "Based on our experience and/or the warnings of official regulatory bodies, this company, and/or some of its practices, were flagged as a scam/fraud.", "review": "", "fca_link": "https://www.fca.org.uk/news/warnings/retrofxprofit", "logo": "", "screenshot": "", "created_at": "2022-11-01T12:00:00.000000Z", "updated_at": "2022-11-01T12:00:00.000000Z", "website": "www.retrofxprofit.com", "imposter": false, "copycat": false}, {"id": 12172, "name": "Loyalfxmarket", "short_description": "Based on our experience and/or the warnings of official regulatory bodies, this company, and/or some of its practices, were flagged as a scam/fraud.", "review": "", "fca_link": "https://www.fca.org.uk/news/warnings/loyalfxmarket", "logo": "", "screenshot": "", "created_at": "2022-11-01T12:00:00.000000Z", "updated_at": "2022-11-01T12:00:00.000000Z", "website": "www.loyalfxmarkets.com", "imposter": false, "copycat": false}, {"id": 12173, "name": "Traders Win Win4trader", "short_description": "Based on our experience and/or the warnings of official regulatory bodies, this company, and/or some of its practices, were flagged as a scam/fraud.", "review": "", "fca_link": "https://www.fca.org.uk/news/warnings/win-traders-win4trader-clone-fca-authorised-firm", "logo": "", "screenshot": "", "created_at": "2022-11-01T12:00:00.000000Z", "updated_at": "2023-08-16T11:00:00.000000Z", "website": "https://win4traders.co/, https://win-traders.com", "imposter": false, "copycat": false}, {"id": 12174, "name": "Cryptofxtrading", "short_description": "Based on our experience and/or the warnings of official regulatory bodies, this company, and/or some of its practices, were flagged as a scam/fraud.", "review": "", "fca_link": "https://www.fca.org.uk/news/warnings/cryptofxtrading-0", "logo": "", "screenshot": "", "created_at": "2022-11-01T12:00:00.000000Z", "updated_at": "2022-11-01T12:00:00.000000Z", "website": "www.cryptofxtradingcompany.com/", "imposter": false, "copycat": false}, {"id": 12175, "name": "Fxmarket365", "short_description": "Based on our experience and/or the warnings of official regulatory bodies, this company, and/or some of its practices, were flagged as a scam/fraud.", "review": "", "fca_link": "https://www.fca.org.uk/news/warnings/fxmarket365", "logo": "", "screenshot": "", "created_at": "2022-11-01T12:00:00.000000Z", "updated_at": "2022-11-01T12:00:00.000000Z", "website": "https://fxmarket365.com/", "imposter": false, "copycat": false}, {"id": 12176, "name": "Elitetradecapitalfx Ltd", "short_description": "Based on our experience and/or the warnings of official regulatory bodies, this company, and/or some of its practices, were flagged as a scam/fraud.", "review": "", "fca_link": "https://www.fca.org.uk/news/warnings/elitetradecapitalfxcom-ltd", "logo": "", "screenshot": "", "created_at": "2022-11-01T12:00:00.000000Z", "updated_at": "2022-11-01T12:00:00.000000Z", "website": "https://elitetradecapitalfx.com/", "imposter": false, "copycat": false}, {"id": 12177, "name": "Digital Funds Investment", "short_description": "Based on our experience and/or the warnings of official regulatory bodies, this company, and/or some of its practices, were flagged as a scam/fraud.", "review": "", "fca_link": "https://www.fca.org.uk/news/warnings/digital-funds-investment", "logo": "", "screenshot": "", "created_at": "2022-11-01T12:00:00.000000Z", "updated_at": "2022-11-01T12:00:00.000000Z", "website": "https://digitalfinvest.com/", "imposter": false, "copycat": false}, {"id": 12178, "name": "Defi Koin Market", "short_description": "Based on our experience and/or the warnings of official regulatory bodies, this company, and/or some of its practices, were flagged as a scam/fraud.", "review": "", "fca_link": "https://www.fca.org.uk/news/warnings/defi-koin-market", "logo": "", "screenshot": "", "created_at": "2022-11-01T12:00:00.000000Z", "updated_at": "2022-11-01T12:00:00.000000Z", "website": "https://defikoinmarket.com/", "imposter": false, "copycat": false}, {"id": 12179, "name": "Dfx Investment Platform", "short_description": "Based on our experience and/or the warnings of official regulatory bodies, this company, and/or some of its practices, were flagged as a scam/fraud.", "review": "", "fca_link": "https://www.fca.org.uk/news/warnings/dfx-investment-platform", "logo": "", "screenshot": "", "created_at": "2022-11-01T12:00:00.000000Z", "updated_at": "2022-11-01T12:00:00.000000Z", "website": "http://dfxivpltfm.com/", "imposter": false, "copycat": false}], "first_page_url": "https://api.payback-ltd.com/api/blacklist?page=1", "from": 2226, "last_page": 486, "last_page_url": "https://api.payback-ltd.com/api/blacklist?page=486", "links": [{"url": "https://api.payback-ltd.com/api/blacklist?page=89", "label": "&laquo; Previous", "active": false}, {"url": "https://api.payback-ltd.com/api/blacklist?page=1", "label": "1", "active": false}, {"url": "https://api.payback-ltd.com/api/blacklist?page=2", "label": "2", "active": false}, {"url": null, "label": "...", "active": false}, {"url": "https://api.payback-ltd.com/api/blacklist?page=87", "label": "87", "active": false}, {"url": "https://api.payback-ltd.com/api/blacklist?page=88", "label": "88", "active": false}, {"url": "https://api.payback-ltd.com/api/blacklist?page=89", "label": "89", "active": false}, {"url": "https://api.payback-ltd.com/api/blacklist?page=90", "label": "90", "active": true}, {"url": "https://api.payback-ltd.com/api/blacklist?page=91", "label": "91", "active": false}, {"url": "https://api.payback-ltd.com/api/blacklist?page=92", "label": "92", "active": false}, {"url": "https://api.payback-ltd.com/api/blacklist?page=93", "label": "93", "active": false}, {"url": null, "label": "...", "active": false}, {"url": "https://api.payback-ltd.com/api/blacklist?page=485", "label": "485", "active": false}, {"url": "https://api.payback-ltd.com/api/blacklist?page=486", "label": "486", "active": false}, {"url": "https://api.payback-ltd.com/api/blacklist?page=91", "label": "Next &raquo;", "active": false}], "next_page_url": "https://api.payback-ltd.com/api/blacklist?page=91", "path": "https://api.payback-ltd.com/api/blacklist", "per_page": 25, "prev_page_url": "https://api.payback-ltd.com/api/blacklist?page=89", "to": 2250, "total": 12140}