{"current_page": 76, "data": [{"id": 11805, "name": "Jek Trade", "short_description": "Based on our experience and/or the warnings of official regulatory bodies, this company, and/or some of its practices, were flagged as a scam/fraud.", "review": "", "fca_link": "https://www.fca.org.uk/news/warnings/jek-trade", "logo": "", "screenshot": "", "created_at": "2022-12-30T12:00:00.000000Z", "updated_at": "2023-10-16T11:00:00.000000Z", "website": "www.jektrade.com", "imposter": false, "copycat": false}, {"id": 11806, "name": "Crypto Expert Miners", "short_description": "Based on our experience and/or the warnings of official regulatory bodies, this company, and/or some of its practices, were flagged as a scam/fraud.", "review": "", "fca_link": "https://www.fca.org.uk/news/warnings/expert-crypto-miners", "logo": "", "screenshot": "", "created_at": "2022-12-30T12:00:00.000000Z", "updated_at": "2022-12-30T12:00:00.000000Z", "website": "www.expertcrypto-miners.com", "imposter": false, "copycat": false}, {"id": 11807, "name": "Egow Investments", "short_description": "Based on our experience and/or the warnings of official regulatory bodies, this company, and/or some of its practices, were flagged as a scam/fraud.", "review": "", "fca_link": "https://www.fca.org.uk/news/warnings/egow-investments-egowio", "logo": "", "screenshot": "", "created_at": "2022-12-30T12:00:00.000000Z", "updated_at": "2022-12-30T12:00:00.000000Z", "website": "https://egow.io/", "imposter": false, "copycat": false}, {"id": 11808, "name": "Group International Limited Standard Union", "short_description": "Based on our experience and/or the warnings of official regulatory bodies, this company, and/or some of its practices, were flagged as a scam/fraud.", "review": "", "fca_link": "https://www.fca.org.uk/news/warnings/union-standard-international-group-limited", "logo": "", "screenshot": "", "created_at": "2022-12-29T12:00:00.000000Z", "updated_at": "2022-12-29T12:00:00.000000Z", "website": "www.usgfx.co.uk, www.usgfx.global", "imposter": false, "copycat": false}, {"id": 11809, "name": "Tradeglobfx", "short_description": "Based on our experience and/or the warnings of official regulatory bodies, this company, and/or some of its practices, were flagged as a scam/fraud.", "review": "", "fca_link": "https://www.fca.org.uk/news/warnings/tradeglobfx", "logo": "", "screenshot": "", "created_at": "2022-12-29T12:00:00.000000Z", "updated_at": "2022-12-29T12:00:00.000000Z", "website": "https://tradeglobfx.com", "imposter": false, "copycat": false}, {"id": 11810, "name": "Bit-Tradex", "short_description": "Based on our experience and/or the warnings of official regulatory bodies, this company, and/or some of its practices, were flagged as a scam/fraud.", "review": "", "fca_link": "https://www.fca.org.uk/news/warnings/bit-tradex", "logo": "", "screenshot": "", "created_at": "2022-12-29T12:00:00.000000Z", "updated_at": "2022-12-29T12:00:00.000000Z", "website": "https://bit-tradex.org", "imposter": false, "copycat": false}, {"id": 11811, "name": "Nexpoint-Global", "short_description": "Based on our experience and/or the warnings of official regulatory bodies, this company, and/or some of its practices, were flagged as a scam/fraud.", "review": "", "fca_link": "https://www.fca.org.uk/news/warnings/nexpoint-global", "logo": "", "screenshot": "", "created_at": "2022-12-29T12:00:00.000000Z", "updated_at": "2022-12-29T12:00:00.000000Z", "website": "www.nexpoint-global.com", "imposter": false, "copycat": false}, {"id": 11812, "name": "Avalon-Brand", "short_description": "Based on our experience and/or the warnings of official regulatory bodies, this company, and/or some of its practices, were flagged as a scam/fraud.", "review": "", "fca_link": "https://www.fca.org.uk/news/warnings/avalon-brand", "logo": "", "screenshot": "", "created_at": "2022-12-29T12:00:00.000000Z", "updated_at": "2023-10-19T11:00:00.000000Z", "website": "https://avalon-brand.com", "imposter": false, "copycat": false}, {"id": 11813, "name": "Nexglobal Nexglobal-Cop", "short_description": "Based on our experience and/or the warnings of official regulatory bodies, this company, and/or some of its practices, were flagged as a scam/fraud.", "review": "", "fca_link": "https://www.fca.org.uk/news/warnings/nexglobal-nexglobal-copcom", "logo": "", "screenshot": "", "created_at": "2022-12-29T12:00:00.000000Z", "updated_at": "2022-12-29T12:00:00.000000Z", "website": "https://nexglobal-cop.com", "imposter": false, "copycat": false}, {"id": 11814, "name": "Crypto Keystone", "short_description": "Based on our experience and/or the warnings of official regulatory bodies, this company, and/or some of its practices, were flagged as a scam/fraud.", "review": "", "fca_link": "https://www.fca.org.uk/news/warnings/keystone-crypto", "logo": "", "screenshot": "", "created_at": "2022-12-29T12:00:00.000000Z", "updated_at": "2022-12-29T12:00:00.000000Z", "website": "https://keystonecrypto.com", "imposter": false, "copycat": false}, {"id": 11815, "name": "Tophoodfxtrade247", "short_description": "Based on our experience and/or the warnings of official regulatory bodies, this company, and/or some of its practices, were flagged as a scam/fraud.", "review": "", "fca_link": "https://www.fca.org.uk/news/warnings/tophoodfxtrade247", "logo": "", "screenshot": "", "created_at": "2022-12-28T12:00:00.000000Z", "updated_at": "2022-12-28T12:00:00.000000Z", "website": "www.tophoodfxtrade-247.com", "imposter": false, "copycat": false}, {"id": 11816, "name": "Options Webster", "short_description": "Based on our experience and/or the warnings of official regulatory bodies, this company, and/or some of its practices, were flagged as a scam/fraud.", "review": "", "fca_link": "https://www.fca.org.uk/news/warnings/webster-options", "logo": "", "screenshot": "", "created_at": "2022-12-28T12:00:00.000000Z", "updated_at": "2022-12-28T12:00:00.000000Z", "website": "www.websteroptions.com", "imposter": false, "copycat": false}, {"id": 11817, "name": "Etradesoption", "short_description": "Based on our experience and/or the warnings of official regulatory bodies, this company, and/or some of its practices, were flagged as a scam/fraud.", "review": "", "fca_link": "https://www.fca.org.uk/news/warnings/etradesoption", "logo": "", "screenshot": "", "created_at": "2022-12-28T12:00:00.000000Z", "updated_at": "2022-12-28T12:00:00.000000Z", "website": "www.etradesoption.com", "imposter": false, "copycat": false}, {"id": 11818, "name": "Extreme-Access", "short_description": "Based on our experience and/or the warnings of official regulatory bodies, this company, and/or some of its practices, were flagged as a scam/fraud.", "review": "", "fca_link": "https://www.fca.org.uk/news/warnings/extreme-accessltd", "logo": "", "screenshot": "", "created_at": "2022-12-28T12:00:00.000000Z", "updated_at": "2022-12-28T12:00:00.000000Z", "website": "https://extreme-access.ltd/", "imposter": false, "copycat": false}, {"id": 11819, "name": "Holdings Stakes Stakesholdings", "short_description": "Based on our experience and/or the warnings of official regulatory bodies, this company, and/or some of its practices, were flagged as a scam/fraud.", "review": "", "fca_link": "https://www.fca.org.uk/news/warnings/stakes-holdings-stakesholdingsnet", "logo": "", "screenshot": "", "created_at": "2022-12-28T12:00:00.000000Z", "updated_at": "2022-12-28T12:00:00.000000Z", "website": "https://stakesholdings.net/", "imposter": false, "copycat": false}, {"id": 11820, "name": "Profit-Miners", "short_description": "Based on our experience and/or the warnings of official regulatory bodies, this company, and/or some of its practices, were flagged as a scam/fraud.", "review": "", "fca_link": "https://www.fca.org.uk/news/warnings/profit-minersinfo-profit-miners", "logo": "", "screenshot": "", "created_at": "2022-12-28T12:00:00.000000Z", "updated_at": "2023-02-16T12:00:00.000000Z", "website": "https://profit-miners.info/, https://profitminers.org", "imposter": false, "copycat": false}, {"id": 11821, "name": "Express Furureview Fx-Capital", "short_description": "Based on our experience and/or the warnings of official regulatory bodies, this company, and/or some of its practices, were flagged as a scam/fraud.", "review": "", "fca_link": "https://www.fca.org.uk/news/warnings/fx-capital-furureview-express", "logo": "", "screenshot": "", "created_at": "2022-12-28T12:00:00.000000Z", "updated_at": "2022-12-28T12:00:00.000000Z", "website": "https://fx-capital.co.uk/", "imposter": false, "copycat": false}, {"id": 11822, "name": "Exorfxstrade", "short_description": "Based on our experience and/or the warnings of official regulatory bodies, this company, and/or some of its practices, were flagged as a scam/fraud.", "review": "", "fca_link": "https://www.fca.org.uk/news/warnings/exorfxstrade", "logo": "", "screenshot": "", "created_at": "2022-12-28T12:00:00.000000Z", "updated_at": "2022-12-28T12:00:00.000000Z", "website": "www.exorfxstrade.com", "imposter": false, "copycat": false}, {"id": 11823, "name": " Bamsgrove Car Junction Ltd Sales", "short_description": "Based on our experience and/or the warnings of official regulatory bodies, this company, and/or some of its practices, were flagged as a scam/fraud.", "review": "", "fca_link": "https://www.fca.org.uk/news/warnings/junction-1-car-sales-ltd-bamsgrove", "logo": "", "screenshot": "", "created_at": "2022-12-28T12:00:00.000000Z", "updated_at": "2022-12-28T12:00:00.000000Z", "website": "www.junction-1-car-sales-bromsgrove.business.site", "imposter": false, "copycat": false}, {"id": 11824, "name": "Global Recovery Recovery-Global", "short_description": "Based on our experience and/or the warnings of official regulatory bodies, this company, and/or some of its practices, were flagged as a scam/fraud.", "review": "", "fca_link": "https://www.fca.org.uk/news/warnings/recovery-global-https-recovery-globalcom", "logo": "", "screenshot": "", "created_at": "2022-12-23T12:00:00.000000Z", "updated_at": "2022-12-23T12:00:00.000000Z", "website": "www.recovery-global.com", "imposter": false, "copycat": false}, {"id": 11825, "name": "Uni-Co", "short_description": "Based on our experience and/or the warnings of official regulatory bodies, this company, and/or some of its practices, were flagged as a scam/fraud.", "review": "", "fca_link": "https://www.fca.org.uk/news/warnings/uni-co-uni-coorg", "logo": "", "screenshot": "", "created_at": "2022-12-23T12:00:00.000000Z", "updated_at": "2022-12-23T12:00:00.000000Z", "website": "www.uni-co.org", "imposter": false, "copycat": false}, {"id": 11826, "name": "Skylerfinbank", "short_description": "Based on our experience and/or the warnings of official regulatory bodies, this company, and/or some of its practices, were flagged as a scam/fraud.", "review": "", "fca_link": "https://www.fca.org.uk/news/warnings/skylerfinbank", "logo": "", "screenshot": "", "created_at": "2022-12-23T12:00:00.000000Z", "updated_at": "2022-12-23T12:00:00.000000Z", "website": "www.skylerfinbank.com", "imposter": false, "copycat": false}, {"id": 11827, "name": "Accessfx Fx Multitrades", "short_description": "Based on our experience and/or the warnings of official regulatory bodies, this company, and/or some of its practices, were flagged as a scam/fraud.", "review": "", "fca_link": "https://www.fca.org.uk/news/warnings/fx-multitrades-accessfx-multitrades", "logo": "", "screenshot": "", "created_at": "2022-12-22T12:00:00.000000Z", "updated_at": "2023-02-03T12:00:00.000000Z", "website": "https://fxmultitrades.com/, https://fxmultitrade.com, https://accessfxmultitrades.com", "imposter": false, "copycat": false}, {"id": 11828, "name": "Fx Square", "short_description": "Based on our experience and/or the warnings of official regulatory bodies, this company, and/or some of its practices, were flagged as a scam/fraud.", "review": "", "fca_link": "https://www.fca.org.uk/news/warnings/square-fx", "logo": "", "screenshot": "", "created_at": "2022-12-22T12:00:00.000000Z", "updated_at": "2022-12-22T12:00:00.000000Z", "website": "https://squarefx.uk/", "imposter": false, "copycat": false}, {"id": 11829, "name": "Upgradedtradefx", "short_description": "Based on our experience and/or the warnings of official regulatory bodies, this company, and/or some of its practices, were flagged as a scam/fraud.", "review": "", "fca_link": "https://www.fca.org.uk/news/warnings/upgradedtradefx", "logo": "", "screenshot": "", "created_at": "2022-12-22T12:00:00.000000Z", "updated_at": "2022-12-22T12:00:00.000000Z", "website": "www.upgradedtradefx.com", "imposter": false, "copycat": false}], "first_page_url": "https://api.payback-ltd.com/api/blacklist?page=1", "from": 1876, "last_page": 486, "last_page_url": "https://api.payback-ltd.com/api/blacklist?page=486", "links": [{"url": "https://api.payback-ltd.com/api/blacklist?page=75", "label": "&laquo; Previous", "active": false}, {"url": "https://api.payback-ltd.com/api/blacklist?page=1", "label": "1", "active": false}, {"url": "https://api.payback-ltd.com/api/blacklist?page=2", "label": "2", "active": false}, {"url": null, "label": "...", "active": false}, {"url": "https://api.payback-ltd.com/api/blacklist?page=73", "label": "73", "active": false}, {"url": "https://api.payback-ltd.com/api/blacklist?page=74", "label": "74", "active": false}, {"url": "https://api.payback-ltd.com/api/blacklist?page=75", "label": "75", "active": false}, {"url": "https://api.payback-ltd.com/api/blacklist?page=76", "label": "76", "active": true}, {"url": "https://api.payback-ltd.com/api/blacklist?page=77", "label": "77", "active": false}, {"url": "https://api.payback-ltd.com/api/blacklist?page=78", "label": "78", "active": false}, {"url": "https://api.payback-ltd.com/api/blacklist?page=79", "label": "79", "active": false}, {"url": null, "label": "...", "active": false}, {"url": "https://api.payback-ltd.com/api/blacklist?page=485", "label": "485", "active": false}, {"url": "https://api.payback-ltd.com/api/blacklist?page=486", "label": "486", "active": false}, {"url": "https://api.payback-ltd.com/api/blacklist?page=77", "label": "Next &raquo;", "active": false}], "next_page_url": "https://api.payback-ltd.com/api/blacklist?page=77", "path": "https://api.payback-ltd.com/api/blacklist", "per_page": 25, "prev_page_url": "https://api.payback-ltd.com/api/blacklist?page=75", "to": 1900, "total": 12140}