{"current_page": 119, "data": [{"id": 12880, "name": "Luxnordicwm", "short_description": "Based on our experience and/or the warnings of official regulatory bodies, this company, and/or some of its practices, were flagged as a scam/fraud.", "review": "", "fca_link": "https://www.fca.org.uk/news/warnings/wwwluxnordicwmcom-clone-fca-authorised-firm", "logo": "", "screenshot": "", "created_at": "2022-04-06T11:00:00.000000Z", "updated_at": "2022-04-06T11:00:00.000000Z", "website": "www.luxnordicwm.com", "imposter": false, "copycat": false}, {"id": 12881, "name": "Dpi Financial Services", "short_description": "Based on our experience and/or the warnings of official regulatory bodies, this company, and/or some of its practices, were flagged as a scam/fraud.", "review": "", "fca_link": "https://www.fca.org.uk/news/warnings/dpi-financial-services-clone-authorised-representative", "logo": "", "screenshot": "", "created_at": "2022-04-06T11:00:00.000000Z", "updated_at": "2022-04-06T11:00:00.000000Z", "website": "https://dpifinancialservices.co.uk/", "imposter": false, "copycat": false}, {"id": 12882, "name": "Generale Societe Societe-Generale Societegenerale", "short_description": "Based on our experience and/or the warnings of official regulatory bodies, this company, and/or some of its practices, were flagged as a scam/fraud.", "review": "", "fca_link": "https://www.fca.org.uk/news/warnings/societe-generale-societegeneraledecom-societe-generaleonline-clone-eea-authorised-firm-details", "logo": "", "screenshot": "", "created_at": "2022-04-06T11:00:00.000000Z", "updated_at": "2022-05-24T11:00:00.000000Z", "website": "", "imposter": false, "copycat": false}, {"id": 12883, "name": "Investments Keller", "short_description": "Based on our experience and/or the warnings of official regulatory bodies, this company, and/or some of its practices, were flagged as a scam/fraud.", "review": "", "fca_link": "https://www.fca.org.uk/news/warnings/keller-investments-clone-fca-authorised-firm", "logo": "", "screenshot": "", "created_at": "2022-04-06T11:00:00.000000Z", "updated_at": "2022-04-06T11:00:00.000000Z", "website": "www.kellerinvestmentsllp.com", "imposter": false, "copycat": false}, {"id": 12884, "name": "Kionfx Trade", "short_description": "Based on our experience and/or the warnings of official regulatory bodies, this company, and/or some of its practices, were flagged as a scam/fraud.", "review": "", "fca_link": "https://www.fca.org.uk/news/warnings/kionfx-trade", "logo": "", "screenshot": "", "created_at": "2022-04-06T11:00:00.000000Z", "updated_at": "2022-04-07T11:00:00.000000Z", "website": "https://kionfxtrade.com/", "imposter": false, "copycat": false}, {"id": 12885, "name": "Expertfxtrades", "short_description": "Based on our experience and/or the warnings of official regulatory bodies, this company, and/or some of its practices, were flagged as a scam/fraud.", "review": "", "fca_link": "https://www.fca.org.uk/news/warnings/expertfxtrades", "logo": "", "screenshot": "", "created_at": "2022-04-06T11:00:00.000000Z", "updated_at": "2022-04-07T11:00:00.000000Z", "website": "https://expertfxtrades.online/", "imposter": false, "copycat": false}, {"id": 12886, "name": "Bitrun Crypto Mining", "short_description": "Based on our experience and/or the warnings of official regulatory bodies, this company, and/or some of its practices, were flagged as a scam/fraud.", "review": "", "fca_link": "https://www.fca.org.uk/news/warnings/bitrun-crypto-mining", "logo": "", "screenshot": "", "created_at": "2022-04-06T11:00:00.000000Z", "updated_at": "2022-04-07T11:00:00.000000Z", "website": "https://bitruncryptomining.com/", "imposter": false, "copycat": false}, {"id": 12887, "name": "Acquisition Sw", "short_description": "Based on our experience and/or the warnings of official regulatory bodies, this company, and/or some of its practices, were flagged as a scam/fraud.", "review": "", "fca_link": "https://www.fca.org.uk/news/warnings/sw-acquisition", "logo": "", "screenshot": "", "created_at": "2022-04-06T11:00:00.000000Z", "updated_at": "2022-10-03T11:00:00.000000Z", "website": "https://swaquisition.com/", "imposter": false, "copycat": false}, {"id": 12888, "name": "Etradefxlive", "short_description": "Based on our experience and/or the warnings of official regulatory bodies, this company, and/or some of its practices, were flagged as a scam/fraud.", "review": "", "fca_link": "https://www.fca.org.uk/news/warnings/etradefxlive", "logo": "", "screenshot": "", "created_at": "2022-04-05T11:00:00.000000Z", "updated_at": "2022-04-05T11:00:00.000000Z", "website": "https://etradefxlive.com/", "imposter": false, "copycat": false}, {"id": 12889, "name": "Crypto Option View", "short_description": "Based on our experience and/or the warnings of official regulatory bodies, this company, and/or some of its practices, were flagged as a scam/fraud.", "review": "", "fca_link": "https://www.fca.org.uk/news/warnings/crypto-view-option", "logo": "", "screenshot": "", "created_at": "2022-04-05T11:00:00.000000Z", "updated_at": "2022-04-05T11:00:00.000000Z", "website": "https://cryptoviewoption.com/", "imposter": false, "copycat": false}, {"id": 12890, "name": "Fx Pro Signals", "short_description": "Based on our experience and/or the warnings of official regulatory bodies, this company, and/or some of its practices, were flagged as a scam/fraud.", "review": "", "fca_link": "https://www.fca.org.uk/news/warnings/fx-signals-pro", "logo": "", "screenshot": "", "created_at": "2022-04-05T11:00:00.000000Z", "updated_at": "2022-04-05T11:00:00.000000Z", "website": "https://fx-signalspro.com/", "imposter": false, "copycat": false}, {"id": 12891, "name": "Fxautotradepro", "short_description": "Based on our experience and/or the warnings of official regulatory bodies, this company, and/or some of its practices, were flagged as a scam/fraud.", "review": "", "fca_link": "https://www.fca.org.uk/news/warnings/fxautotradepro", "logo": "", "screenshot": "", "created_at": "2022-04-05T11:00:00.000000Z", "updated_at": "2022-04-06T11:00:00.000000Z", "website": "www.fxautotradepro.com", "imposter": false, "copycat": false}, {"id": 12892, "name": "Fergofx", "short_description": "Based on our experience and/or the warnings of official regulatory bodies, this company, and/or some of its practices, were flagged as a scam/fraud.", "review": "", "fca_link": "https://www.fca.org.uk/news/warnings/fergofx", "logo": "", "screenshot": "", "created_at": "2022-04-05T11:00:00.000000Z", "updated_at": "2022-04-06T11:00:00.000000Z", "website": "www.fergofx.com", "imposter": false, "copycat": false}, {"id": 12893, "name": "Fxsmartchaintrade", "short_description": "Based on our experience and/or the warnings of official regulatory bodies, this company, and/or some of its practices, were flagged as a scam/fraud.", "review": "", "fca_link": "https://www.fca.org.uk/news/warnings/fxsmartchaintrade", "logo": "", "screenshot": "", "created_at": "2022-04-05T11:00:00.000000Z", "updated_at": "2022-04-06T11:00:00.000000Z", "website": "www.fxsmartchaintrade.com", "imposter": false, "copycat": false}, {"id": 12894, "name": "Inc Octafx", "short_description": "Based on our experience and/or the warnings of official regulatory bodies, this company, and/or some of its practices, were flagged as a scam/fraud.", "review": "", "fca_link": "https://www.fca.org.uk/news/warnings/octafx-inc", "logo": "", "screenshot": "", "created_at": "2022-04-05T11:00:00.000000Z", "updated_at": "2022-04-06T11:00:00.000000Z", "website": "www.octafxinc.com", "imposter": false, "copycat": false}, {"id": 12895, "name": "Fxoptionmininghub", "short_description": "Based on our experience and/or the warnings of official regulatory bodies, this company, and/or some of its practices, were flagged as a scam/fraud.", "review": "", "fca_link": "https://www.fca.org.uk/news/warnings/fxoptionmininghub", "logo": "", "screenshot": "", "created_at": "2022-04-04T11:00:00.000000Z", "updated_at": "2022-04-04T11:00:00.000000Z", "website": "https://fx0ptionmininghub.com/", "imposter": false, "copycat": false}, {"id": 12896, "name": "Community Espana Fx Trade", "short_description": "Based on our experience and/or the warnings of official regulatory bodies, this company, and/or some of its practices, were flagged as a scam/fraud.", "review": "", "fca_link": "https://www.fca.org.uk/news/warnings/fx-trade-espana-community", "logo": "", "screenshot": "", "created_at": "2022-04-04T11:00:00.000000Z", "updated_at": "2022-04-04T11:00:00.000000Z", "website": "https://fxtradeespanacom.com/", "imposter": false, "copycat": false}, {"id": 12897, "name": "Beta Fx Trade", "short_description": "Based on our experience and/or the warnings of official regulatory bodies, this company, and/or some of its practices, were flagged as a scam/fraud.", "review": "", "fca_link": "https://www.fca.org.uk/news/warnings/beta-fx-trade", "logo": "", "screenshot": "", "created_at": "2022-04-04T11:00:00.000000Z", "updated_at": "2022-04-05T11:00:00.000000Z", "website": "https://betafxtrade.com/", "imposter": false, "copycat": false}, {"id": 12898, "name": "Sugexcryptopro", "short_description": "Based on our experience and/or the warnings of official regulatory bodies, this company, and/or some of its practices, were flagged as a scam/fraud.", "review": "", "fca_link": "https://www.fca.org.uk/news/warnings/sugexcryptopro", "logo": "", "screenshot": "", "created_at": "2022-04-04T11:00:00.000000Z", "updated_at": "2022-04-05T11:00:00.000000Z", "website": "https://sugexcryptopro.net/", "imposter": false, "copycat": false}, {"id": 12899, "name": "Committe Financial Indemnity", "short_description": "Based on our experience and/or the warnings of official regulatory bodies, this company, and/or some of its practices, were flagged as a scam/fraud.", "review": "", "fca_link": "https://www.fca.org.uk/news/warnings/financial-indemnity-committe", "logo": "", "screenshot": "", "created_at": "2022-04-01T11:00:00.000000Z", "updated_at": "2022-04-01T11:00:00.000000Z", "website": "www.ficommitte.com", "imposter": false, "copycat": false}, {"id": 12900, "name": "Ecofxglobal", "short_description": "Based on our experience and/or the warnings of official regulatory bodies, this company, and/or some of its practices, were flagged as a scam/fraud.", "review": "", "fca_link": "https://www.fca.org.uk/news/warnings/ecofxglobal", "logo": "", "screenshot": "", "created_at": "2022-04-01T11:00:00.000000Z", "updated_at": "2022-04-01T11:00:00.000000Z", "website": "www.ecofxglobal.com", "imposter": false, "copycat": false}, {"id": 12901, "name": "Camfx Trade", "short_description": "Based on our experience and/or the warnings of official regulatory bodies, this company, and/or some of its practices, were flagged as a scam/fraud.", "review": "", "fca_link": "https://www.fca.org.uk/news/warnings/camfx-trade", "logo": "", "screenshot": "", "created_at": "2022-04-01T11:00:00.000000Z", "updated_at": "2022-04-01T11:00:00.000000Z", "website": "www.camfxtrade.com", "imposter": false, "copycat": false}, {"id": 12902, "name": "Bright Fx Trading", "short_description": "Based on our experience and/or the warnings of official regulatory bodies, this company, and/or some of its practices, were flagged as a scam/fraud.", "review": "", "fca_link": "https://www.fca.org.uk/news/warnings/bright-fx-trading", "logo": "", "screenshot": "", "created_at": "2022-04-01T11:00:00.000000Z", "updated_at": "2022-04-01T11:00:00.000000Z", "website": "www.brightfxtrading.online", "imposter": false, "copycat": false}, {"id": 12903, "name": "Coin Crypto Rocket", "short_description": "Based on our experience and/or the warnings of official regulatory bodies, this company, and/or some of its practices, were flagged as a scam/fraud.", "review": "", "fca_link": "https://www.fca.org.uk/news/warnings/crypto-rocket-coin", "logo": "", "screenshot": "", "created_at": "2022-04-01T11:00:00.000000Z", "updated_at": "2022-05-17T11:00:00.000000Z", "website": "www.cryptorocketcoin.com, www.cryptorocketcoins.com", "imposter": false, "copycat": false}, {"id": 12904, "name": "Azoptions", "short_description": "Based on our experience and/or the warnings of official regulatory bodies, this company, and/or some of its practices, were flagged as a scam/fraud.", "review": "", "fca_link": "https://www.fca.org.uk/news/warnings/azoptions-clone-fca-authorised-firm", "logo": "", "screenshot": "", "created_at": "2022-03-31T11:00:00.000000Z", "updated_at": "2022-03-31T11:00:00.000000Z", "website": "www.azoptions.net", "imposter": false, "copycat": false}], "first_page_url": "https://api.payback-ltd.com/api/blacklist?page=1", "from": 2951, "last_page": 486, "last_page_url": "https://api.payback-ltd.com/api/blacklist?page=486", "links": [{"url": "https://api.payback-ltd.com/api/blacklist?page=118", "label": "&laquo; Previous", "active": false}, {"url": "https://api.payback-ltd.com/api/blacklist?page=1", "label": "1", "active": false}, {"url": "https://api.payback-ltd.com/api/blacklist?page=2", "label": "2", "active": false}, {"url": null, "label": "...", "active": false}, {"url": "https://api.payback-ltd.com/api/blacklist?page=116", "label": "116", "active": false}, {"url": "https://api.payback-ltd.com/api/blacklist?page=117", "label": "117", "active": false}, {"url": "https://api.payback-ltd.com/api/blacklist?page=118", "label": "118", "active": false}, {"url": "https://api.payback-ltd.com/api/blacklist?page=119", "label": "119", "active": true}, {"url": "https://api.payback-ltd.com/api/blacklist?page=120", "label": "120", "active": false}, {"url": "https://api.payback-ltd.com/api/blacklist?page=121", "label": "121", "active": false}, {"url": "https://api.payback-ltd.com/api/blacklist?page=122", "label": "122", "active": false}, {"url": null, "label": "...", "active": false}, {"url": "https://api.payback-ltd.com/api/blacklist?page=485", "label": "485", "active": false}, {"url": "https://api.payback-ltd.com/api/blacklist?page=486", "label": "486", "active": false}, {"url": "https://api.payback-ltd.com/api/blacklist?page=120", "label": "Next &raquo;", "active": false}], "next_page_url": "https://api.payback-ltd.com/api/blacklist?page=120", "path": "https://api.payback-ltd.com/api/blacklist", "per_page": 25, "prev_page_url": "https://api.payback-ltd.com/api/blacklist?page=118", "to": 2975, "total": 12140}