{"current_page": 71, "data": [{"id": 11680, "name": "NaslsportlineInsurer", "short_description": "Based on our experience and/or the warnings of official regulatory bodies, this company, and/or some of its practices, were flagged as a scam/fraud.", "review": "", "fca_link": "https://www.fca.org.uk/news/warnings/naslsportlineinsurercom-clone-fca-authorised-firm", "logo": "", "screenshot": "", "created_at": "2023-01-20T12:00:00.000000Z", "updated_at": "2023-01-20T12:00:00.000000Z", "website": "", "imposter": false, "copycat": false}, {"id": 11681, "name": "Roifx", "short_description": "Based on our experience and/or the warnings of official regulatory bodies, this company, and/or some of its practices, were flagged as a scam/fraud.", "review": "", "fca_link": "https://www.fca.org.uk/news/warnings/roifx", "logo": "", "screenshot": "", "created_at": "2023-01-20T12:00:00.000000Z", "updated_at": "2023-09-13T11:00:00.000000Z", "website": "www.roifxtrader.com, https://www.roifx-trader.uk/, https://www.roitrader.uk", "imposter": false, "copycat": false}, {"id": 11682, "name": "Capital Fx24 Swift", "short_description": "Based on our experience and/or the warnings of official regulatory bodies, this company, and/or some of its practices, were flagged as a scam/fraud.", "review": "", "fca_link": "https://www.fca.org.uk/news/warnings/swift-capital-fx24", "logo": "", "screenshot": "", "created_at": "2023-01-19T12:00:00.000000Z", "updated_at": "2023-01-19T12:00:00.000000Z", "website": "www.swiftcapitalsfx24.com", "imposter": false, "copycat": false}, {"id": 11683, "name": "Crypto Geniuse", "short_description": "Based on our experience and/or the warnings of official regulatory bodies, this company, and/or some of its practices, were flagged as a scam/fraud.", "review": "", "fca_link": "https://www.fca.org.uk/news/warnings/crypto-geniuse", "logo": "", "screenshot": "", "created_at": "2023-01-19T12:00:00.000000Z", "updated_at": "2023-01-19T12:00:00.000000Z", "website": "WWW.CRYPTOGNIUSES.COM", "imposter": false, "copycat": false}, {"id": 11684, "name": "Index Market Profit", "short_description": "Based on our experience and/or the warnings of official regulatory bodies, this company, and/or some of its practices, were flagged as a scam/fraud.", "review": "", "fca_link": "https://www.fca.org.uk/news/warnings/profit-index-market", "logo": "", "screenshot": "", "created_at": "2023-01-19T12:00:00.000000Z", "updated_at": "2023-01-19T12:00:00.000000Z", "website": "www.profitindexmarket.com", "imposter": false, "copycat": false}, {"id": 11685, "name": "Index Profit Traders", "short_description": "Based on our experience and/or the warnings of official regulatory bodies, this company, and/or some of its practices, were flagged as a scam/fraud.", "review": "", "fca_link": "https://www.fca.org.uk/news/warnings/profit-index-traders", "logo": "", "screenshot": "", "created_at": "2023-01-19T12:00:00.000000Z", "updated_at": "2023-01-19T12:00:00.000000Z", "website": "www.profitindextraders.com", "imposter": false, "copycat": false}, {"id": 11686, "name": "Crypto Fx Index", "short_description": "Based on our experience and/or the warnings of official regulatory bodies, this company, and/or some of its practices, were flagged as a scam/fraud.", "review": "", "fca_link": "https://www.fca.org.uk/news/warnings/crypto-fx-index", "logo": "", "screenshot": "", "created_at": "2023-01-19T12:00:00.000000Z", "updated_at": "2023-01-19T12:00:00.000000Z", "website": "www.raelot.com", "imposter": false, "copycat": false}, {"id": 11687, "name": "Ependy Si Smart", "short_description": "Based on our experience and/or the warnings of official regulatory bodies, this company, and/or some of its practices, were flagged as a scam/fraud.", "review": "", "fca_link": "https://www.fca.org.uk/news/warnings/smart-ependy-si", "logo": "", "screenshot": "", "created_at": "2023-01-19T12:00:00.000000Z", "updated_at": "2023-01-19T12:00:00.000000Z", "website": "www.smartependysi.com", "imposter": false, "copycat": false}, {"id": 11688, "name": "Finder Fixed Income", "short_description": "Based on our experience and/or the warnings of official regulatory bodies, this company, and/or some of its practices, were flagged as a scam/fraud.", "review": "", "fca_link": "https://www.fca.org.uk/news/warnings/fixed-income-finder", "logo": "", "screenshot": "", "created_at": "2023-01-19T12:00:00.000000Z", "updated_at": "2023-01-19T12:00:00.000000Z", "website": "https://fixedincomefinder.com", "imposter": false, "copycat": false}, {"id": 11689, "name": "Exchange Markets X", "short_description": "Based on our experience and/or the warnings of official regulatory bodies, this company, and/or some of its practices, were flagged as a scam/fraud.", "review": "", "fca_link": "https://www.fca.org.uk/news/warnings/exchange-x-markets", "logo": "", "screenshot": "", "created_at": "2023-01-19T12:00:00.000000Z", "updated_at": "2023-01-19T12:00:00.000000Z", "website": "www.exchangexmarkets.com", "imposter": false, "copycat": false}, {"id": 11690, "name": "Binakfx", "short_description": "Based on our experience and/or the warnings of official regulatory bodies, this company, and/or some of its practices, were flagged as a scam/fraud.", "review": "", "fca_link": "https://www.fca.org.uk/news/warnings/binakfx", "logo": "", "screenshot": "", "created_at": "2023-01-19T12:00:00.000000Z", "updated_at": "2023-01-19T12:00:00.000000Z", "website": "https://binakfx.com", "imposter": false, "copycat": false}, {"id": 11691, "name": "Crypto Moni Venture", "short_description": "Based on our experience and/or the warnings of official regulatory bodies, this company, and/or some of its practices, were flagged as a scam/fraud.", "review": "", "fca_link": "https://www.fca.org.uk/news/warnings/crypto-venture-moni", "logo": "", "screenshot": "", "created_at": "2023-01-18T12:00:00.000000Z", "updated_at": "2023-01-18T12:00:00.000000Z", "website": "www.crptoventuremoni.org", "imposter": false, "copycat": false}, {"id": 11692, "name": "Exclusive Fx Trade", "short_description": "Based on our experience and/or the warnings of official regulatory bodies, this company, and/or some of its practices, were flagged as a scam/fraud.", "review": "", "fca_link": "https://www.fca.org.uk/news/warnings/exclusive-trade-fx", "logo": "", "screenshot": "", "created_at": "2023-01-18T12:00:00.000000Z", "updated_at": "2023-01-18T12:00:00.000000Z", "website": "https://exclusivetradefx.com/", "imposter": false, "copycat": false}, {"id": 11693, "name": "Activeprotrades Brokers", "short_description": "Based on our experience and/or the warnings of official regulatory bodies, this company, and/or some of its practices, were flagged as a scam/fraud.", "review": "", "fca_link": "https://www.fca.org.uk/news/warnings/activeprotrades-activeprotrades-brokers", "logo": "", "screenshot": "", "created_at": "2023-01-18T12:00:00.000000Z", "updated_at": "2023-01-18T12:00:00.000000Z", "website": "https://activeprotrades.com/", "imposter": false, "copycat": false}, {"id": 11694, "name": "Bluefoxinvestment", "short_description": "Based on our experience and/or the warnings of official regulatory bodies, this company, and/or some of its practices, were flagged as a scam/fraud.", "review": "", "fca_link": "https://www.fca.org.uk/news/warnings/bluefoxinvestment", "logo": "", "screenshot": "", "created_at": "2023-01-18T12:00:00.000000Z", "updated_at": "2023-01-18T12:00:00.000000Z", "website": "www.bluefoxinvestment.com", "imposter": false, "copycat": false}, {"id": 11695, "name": "Amarinvest Ltd", "short_description": "Based on our experience and/or the warnings of official regulatory bodies, this company, and/or some of its practices, were flagged as a scam/fraud.", "review": "", "fca_link": "https://www.fca.org.uk/news/warnings/amarinvest-ltd", "logo": "", "screenshot": "", "created_at": "2023-01-18T12:00:00.000000Z", "updated_at": "2023-01-18T12:00:00.000000Z", "website": "www.amarinvestltd.com", "imposter": false, "copycat": false}, {"id": 11696, "name": "European Investment", "short_description": "Based on our experience and/or the warnings of official regulatory bodies, this company, and/or some of its practices, were flagged as a scam/fraud.", "review": "", "fca_link": "https://www.fca.org.uk/news/warnings/european-investment", "logo": "", "screenshot": "", "created_at": "2023-01-18T12:00:00.000000Z", "updated_at": "2023-01-19T12:00:00.000000Z", "website": "www.european-investment.pro", "imposter": false, "copycat": false}, {"id": 11697, "name": "Limited Lost Wallet", "short_description": "Based on our experience and/or the warnings of official regulatory bodies, this company, and/or some of its practices, were flagged as a scam/fraud.", "review": "", "fca_link": "https://www.fca.org.uk/news/warnings/lost-wallet-limited", "logo": "", "screenshot": "", "created_at": "2023-01-17T12:00:00.000000Z", "updated_at": "2023-01-17T12:00:00.000000Z", "website": "www.lostwallet.co.uk", "imposter": false, "copycat": false}, {"id": 11698, "name": "Top-Miner", "short_description": "Based on our experience and/or the warnings of official regulatory bodies, this company, and/or some of its practices, were flagged as a scam/fraud.", "review": "", "fca_link": "https://www.fca.org.uk/news/warnings/top-miner", "logo": "", "screenshot": "", "created_at": "2023-01-17T12:00:00.000000Z", "updated_at": "2023-01-17T12:00:00.000000Z", "website": "www.top-miner.net", "imposter": false, "copycat": false}, {"id": 11699, "name": "Apexmarketltd", "short_description": "Based on our experience and/or the warnings of official regulatory bodies, this company, and/or some of its practices, were flagged as a scam/fraud.", "review": "", "fca_link": "https://www.fca.org.uk/news/warnings/apexmarketltd", "logo": "", "screenshot": "", "created_at": "2023-01-17T12:00:00.000000Z", "updated_at": "2023-01-17T12:00:00.000000Z", "website": "www.apexmarketltd.com", "imposter": false, "copycat": false}, {"id": 11700, "name": "Bank Centrahoma Stone", "short_description": "Based on our experience and/or the warnings of official regulatory bodies, this company, and/or some of its practices, were flagged as a scam/fraud.", "review": "", "fca_link": "https://www.fca.org.uk/news/warnings/centrahoma-stone-bank", "logo": "", "screenshot": "", "created_at": "2023-01-17T12:00:00.000000Z", "updated_at": "2023-01-17T12:00:00.000000Z", "website": "www.centrahomastonebank.com", "imposter": false, "copycat": false}, {"id": 11701, "name": "Capital Elite Invest", "short_description": "Based on our experience and/or the warnings of official regulatory bodies, this company, and/or some of its practices, were flagged as a scam/fraud.", "review": "", "fca_link": "https://www.fca.org.uk/news/warnings/elite-capital-invest", "logo": "", "screenshot": "", "created_at": "2023-01-17T12:00:00.000000Z", "updated_at": "2023-01-17T12:00:00.000000Z", "website": "www.elitecapitalinvest.info", "imposter": false, "copycat": false}, {"id": 11702, "name": "Fxcfstraders", "short_description": "Based on our experience and/or the warnings of official regulatory bodies, this company, and/or some of its practices, were flagged as a scam/fraud.", "review": "", "fca_link": "https://www.fca.org.uk/news/warnings/fxcfstraders", "logo": "", "screenshot": "", "created_at": "2023-01-17T12:00:00.000000Z", "updated_at": "2023-01-17T12:00:00.000000Z", "website": "www.fxcfstraders.co.uk", "imposter": false, "copycat": false}, {"id": 11703, "name": "Amtop Global Ig Limited Ltd Markets", "short_description": "Based on our experience and/or the warnings of official regulatory bodies, this company, and/or some of its practices, were flagged as a scam/fraud.", "review": "", "fca_link": "https://www.fca.org.uk/news/warnings/amtop-markets-ltd-ig-global-limited-clone-fca-authorised-firm", "logo": "", "screenshot": "", "created_at": "2023-01-17T12:00:00.000000Z", "updated_at": "2023-01-17T12:00:00.000000Z", "website": "www.amtopwd.com, www.amtoppd.com, www.ig-global.vip, www.igmmarketstrading.com", "imposter": false, "copycat": false}, {"id": 11704, "name": "Crypto-Smartchains", "short_description": "Based on our experience and/or the warnings of official regulatory bodies, this company, and/or some of its practices, were flagged as a scam/fraud.", "review": "", "fca_link": "https://www.fca.org.uk/news/warnings/crypto-smartchains", "logo": "", "screenshot": "", "created_at": "2023-01-16T12:00:00.000000Z", "updated_at": "2023-01-16T12:00:00.000000Z", "website": "www.crypto-smartchains.com", "imposter": false, "copycat": false}], "first_page_url": "https://api.payback-ltd.com/api/blacklist?page=1", "from": 1751, "last_page": 486, "last_page_url": "https://api.payback-ltd.com/api/blacklist?page=486", "links": [{"url": "https://api.payback-ltd.com/api/blacklist?page=70", "label": "&laquo; Previous", "active": false}, {"url": "https://api.payback-ltd.com/api/blacklist?page=1", "label": "1", "active": false}, {"url": "https://api.payback-ltd.com/api/blacklist?page=2", "label": "2", "active": false}, {"url": null, "label": "...", "active": false}, {"url": "https://api.payback-ltd.com/api/blacklist?page=68", "label": "68", "active": false}, {"url": "https://api.payback-ltd.com/api/blacklist?page=69", "label": "69", "active": false}, {"url": "https://api.payback-ltd.com/api/blacklist?page=70", "label": "70", "active": false}, {"url": "https://api.payback-ltd.com/api/blacklist?page=71", "label": "71", "active": true}, {"url": "https://api.payback-ltd.com/api/blacklist?page=72", "label": "72", "active": false}, {"url": "https://api.payback-ltd.com/api/blacklist?page=73", "label": "73", "active": false}, {"url": "https://api.payback-ltd.com/api/blacklist?page=74", "label": "74", "active": false}, {"url": null, "label": "...", "active": false}, {"url": "https://api.payback-ltd.com/api/blacklist?page=485", "label": "485", "active": false}, {"url": "https://api.payback-ltd.com/api/blacklist?page=486", "label": "486", "active": false}, {"url": "https://api.payback-ltd.com/api/blacklist?page=72", "label": "Next &raquo;", "active": false}], "next_page_url": "https://api.payback-ltd.com/api/blacklist?page=72", "path": "https://api.payback-ltd.com/api/blacklist", "per_page": 25, "prev_page_url": "https://api.payback-ltd.com/api/blacklist?page=70", "to": 1775, "total": 12140}