{"current_page": 39, "data": [{"id": 10880, "name": "Connect Immediate", "short_description": "Based on our experience and/or the warnings of official regulatory bodies, this company, and/or some of its practices, were flagged as a scam/fraud.", "review": "", "fca_link": "https://www.fca.org.uk/news/warnings/immediate-connect", "logo": "", "screenshot": "", "created_at": "2023-06-14T11:00:00.000000Z", "updated_at": "2023-06-14T11:00:00.000000Z", "website": "immediate-connect.com, immediateconnect.org", "imposter": false, "copycat": false}, {"id": 10881, "name": " Diversified Diversify Fund Llc Management Wealth", "short_description": "Based on our experience and/or the warnings of official regulatory bodies, this company, and/or some of its practices, were flagged as a scam/fraud.", "review": "", "fca_link": "https://www.fca.org.uk/news/warnings/diversified-wealth-fund-management-llc-diversify-wealth-fund-management-llc", "logo": "", "screenshot": "", "created_at": "2023-06-13T11:00:00.000000Z", "updated_at": "2023-06-16T11:00:00.000000Z", "website": "www.diversifiedwealthfund.com", "imposter": false, "copycat": false}, {"id": 10882, "name": "Bank British Technology", "short_description": "Based on our experience and/or the warnings of official regulatory bodies, this company, and/or some of its practices, were flagged as a scam/fraud.", "review": "", "fca_link": "https://www.fca.org.uk/news/warnings/british-technology-bank", "logo": "", "screenshot": "", "created_at": "2023-06-13T11:00:00.000000Z", "updated_at": "2023-06-13T11:00:00.000000Z", "website": "https://btb.org.uk/home-en", "imposter": false, "copycat": false}, {"id": 10883, "name": "Ltd Motor Sales Smart Smartmotorsales", "short_description": "Based on our experience and/or the warnings of official regulatory bodies, this company, and/or some of its practices, were flagged as a scam/fraud.", "review": "", "fca_link": "https://www.fca.org.uk/news/warnings/smart-motor-sales-ltd-smartmotorsalescouk", "logo": "", "screenshot": "", "created_at": "2023-06-13T11:00:00.000000Z", "updated_at": "2023-06-13T11:00:00.000000Z", "website": "www.smartmotorsales.co.uk", "imposter": false, "copycat": false}, {"id": 10884, "name": "Trex247option", "short_description": "Based on our experience and/or the warnings of official regulatory bodies, this company, and/or some of its practices, were flagged as a scam/fraud.", "review": "", "fca_link": "https://www.fca.org.uk/news/warnings/trex247option", "logo": "", "screenshot": "", "created_at": "2023-06-13T11:00:00.000000Z", "updated_at": "2023-06-13T11:00:00.000000Z", "website": "www.trex247option.com", "imposter": false, "copycat": false}, {"id": 10885, "name": "Assets-Investments", "short_description": "Based on our experience and/or the warnings of official regulatory bodies, this company, and/or some of its practices, were flagged as a scam/fraud.", "review": "", "fca_link": "https://www.fca.org.uk/news/warnings/assets-investments", "logo": "", "screenshot": "", "created_at": "2023-06-13T11:00:00.000000Z", "updated_at": "2023-06-13T11:00:00.000000Z", "website": "www.assets-investments.com", "imposter": false, "copycat": false}, {"id": 10886, "name": "Sprintfxexperts", "short_description": "Based on our experience and/or the warnings of official regulatory bodies, this company, and/or some of its practices, were flagged as a scam/fraud.", "review": "", "fca_link": "https://www.fca.org.uk/news/warnings/sprintfxexperts-wwwsprintfxexpertnet", "logo": "", "screenshot": "", "created_at": "2023-06-13T11:00:00.000000Z", "updated_at": "2023-08-30T11:00:00.000000Z", "website": "www.sprintfxexperts.net, www.sprintfxexpert.net", "imposter": false, "copycat": false}, {"id": 10887, "name": "Blocktradefx", "short_description": "Based on our experience and/or the warnings of official regulatory bodies, this company, and/or some of its practices, were flagged as a scam/fraud.", "review": "", "fca_link": "https://www.fca.org.uk/news/warnings/blocktradefx", "logo": "", "screenshot": "", "created_at": "2023-06-13T11:00:00.000000Z", "updated_at": "2023-07-31T11:00:00.000000Z", "website": "www.blocktradefx.live, www.blocktradefx.net", "imposter": false, "copycat": false}, {"id": 10888, "name": "Ultramaxprofit", "short_description": "Based on our experience and/or the warnings of official regulatory bodies, this company, and/or some of its practices, were flagged as a scam/fraud.", "review": "", "fca_link": "https://www.fca.org.uk/news/warnings/ultramaxprofit", "logo": "", "screenshot": "", "created_at": "2023-06-13T11:00:00.000000Z", "updated_at": "2023-06-13T11:00:00.000000Z", "website": "www.ultramaxprofit.com", "imposter": false, "copycat": false}, {"id": 10889, "name": "Globalfxtrading360 Globalfxtradings", "short_description": "Based on our experience and/or the warnings of official regulatory bodies, this company, and/or some of its practices, were flagged as a scam/fraud.", "review": "", "fca_link": "https://www.fca.org.uk/news/warnings/globalfxtradings-globalfxtrading360", "logo": "", "screenshot": "", "created_at": "2023-06-13T11:00:00.000000Z", "updated_at": "2023-09-08T11:00:00.000000Z", "website": "www.globalfxtradings.com, www.globalfxtrading360.com", "imposter": false, "copycat": false}, {"id": 10890, "name": "And Capital Finance Investment Ltd Management", "short_description": "Based on our experience and/or the warnings of official regulatory bodies, this company, and/or some of its practices, were flagged as a scam/fraud.", "review": "", "fca_link": "https://www.fca.org.uk/news/warnings/capital-finance-and-investment-management-ltd-cfim-clone-uk-registered-company", "logo": "", "screenshot": "", "created_at": "2023-06-13T11:00:00.000000Z", "updated_at": "2023-06-26T11:00:00.000000Z", "website": "www.capitalfinanceinvestmgtlimited.com", "imposter": false, "copycat": false}, {"id": 10891, "name": "Financial Group Premier Services", "short_description": "Based on our experience and/or the warnings of official regulatory bodies, this company, and/or some of its practices, were flagged as a scam/fraud.", "review": "", "fca_link": "https://www.fca.org.uk/news/warnings/premier-group-financial-services-clone-uk-registered-company", "logo": "", "screenshot": "", "created_at": "2023-06-13T11:00:00.000000Z", "updated_at": "2023-10-03T11:00:00.000000Z", "website": "www.pgfsltd.com", "imposter": false, "copycat": false}, {"id": 10892, "name": "Cardiff Plc Savings", "short_description": "Based on our experience and/or the warnings of official regulatory bodies, this company, and/or some of its practices, were flagged as a scam/fraud.", "review": "", "fca_link": "https://www.fca.org.uk/news/warnings/cardiff-savings-plc", "logo": "", "screenshot": "", "created_at": "2023-06-13T11:00:00.000000Z", "updated_at": "2023-06-14T11:00:00.000000Z", "website": "www.cardiffsavings.com", "imposter": false, "copycat": false}, {"id": 10893, "name": "Trojantraders", "short_description": "Based on our experience and/or the warnings of official regulatory bodies, this company, and/or some of its practices, were flagged as a scam/fraud.", "review": "", "fca_link": "https://www.fca.org.uk/news/warnings/trojantraders", "logo": "", "screenshot": "", "created_at": "2023-06-12T11:00:00.000000Z", "updated_at": "2023-06-12T11:00:00.000000Z", "website": "www.trojantraders.com", "imposter": false, "copycat": false}, {"id": 10894, "name": "Finexnet", "short_description": "Based on our experience and/or the warnings of official regulatory bodies, this company, and/or some of its practices, were flagged as a scam/fraud.", "review": "", "fca_link": "https://www.fca.org.uk/news/warnings/finexnetcom", "logo": "", "screenshot": "", "created_at": "2023-06-12T11:00:00.000000Z", "updated_at": "2023-06-12T11:00:00.000000Z", "website": "www.finexnet.com", "imposter": false, "copycat": false}, {"id": 10895, "name": "Howardequityholdings", "short_description": "Based on our experience and/or the warnings of official regulatory bodies, this company, and/or some of its practices, were flagged as a scam/fraud.", "review": "", "fca_link": "https://www.fca.org.uk/news/warnings/howardequityholdingscom", "logo": "", "screenshot": "", "created_at": "2023-06-12T11:00:00.000000Z", "updated_at": "2023-06-12T11:00:00.000000Z", "website": "www.howardequityholdings.com", "imposter": false, "copycat": false}, {"id": 10896, "name": "Investment Silverfx", "short_description": "Based on our experience and/or the warnings of official regulatory bodies, this company, and/or some of its practices, were flagged as a scam/fraud.", "review": "", "fca_link": "https://www.fca.org.uk/news/warnings/silverfx-investment", "logo": "", "screenshot": "", "created_at": "2023-06-12T11:00:00.000000Z", "updated_at": "2023-06-12T11:00:00.000000Z", "website": "www.silverfxinvestment.com", "imposter": false, "copycat": false}, {"id": 10897, "name": "Changing Changingdebts Debts", "short_description": "Based on our experience and/or the warnings of official regulatory bodies, this company, and/or some of its practices, were flagged as a scam/fraud.", "review": "", "fca_link": "https://www.fca.org.uk/news/warnings/changing-debts-changingdebtscouk", "logo": "", "screenshot": "", "created_at": "2023-06-12T11:00:00.000000Z", "updated_at": "2023-06-12T11:00:00.000000Z", "website": "www.changingdebts.co.uk", "imposter": false, "copycat": false}, {"id": 10898, "name": "Citibank Citigrps", "short_description": "Based on our experience and/or the warnings of official regulatory bodies, this company, and/or some of its practices, were flagged as a scam/fraud.", "review": "", "fca_link": "https://www.fca.org.uk/news/warnings/citibank-citigrps-clone-fca-authorised-firm", "logo": "", "screenshot": "", "created_at": "2023-06-12T11:00:00.000000Z", "updated_at": "2023-06-12T11:00:00.000000Z", "website": "", "imposter": false, "copycat": false}, {"id": 10899, "name": "Coin Perfect Perfect-Coinx X", "short_description": "Based on our experience and/or the warnings of official regulatory bodies, this company, and/or some of its practices, were flagged as a scam/fraud.", "review": "", "fca_link": "https://www.fca.org.uk/news/warnings/perfect-coin-x-https-perfect-coinxcom", "logo": "", "screenshot": "", "created_at": "2023-06-12T11:00:00.000000Z", "updated_at": "2023-06-12T11:00:00.000000Z", "website": "www.perfect-coinx.com", "imposter": false, "copycat": false}, {"id": 10900, "name": "Brokers Global Insurance Uk", "short_description": "Based on our experience and/or the warnings of official regulatory bodies, this company, and/or some of its practices, were flagged as a scam/fraud.", "review": "", "fca_link": "https://www.fca.org.uk/news/warnings/uk-global-insurance-brokers-clone-fca-authorised-firm", "logo": "", "screenshot": "", "created_at": "2023-06-12T11:00:00.000000Z", "updated_at": "2023-06-12T11:00:00.000000Z", "website": "", "imposter": false, "copycat": false}, {"id": 10901, "name": "Change Debt Support", "short_description": "Based on our experience and/or the warnings of official regulatory bodies, this company, and/or some of its practices, were flagged as a scam/fraud.", "review": "", "fca_link": "https://www.fca.org.uk/news/warnings/change-debt-support-clone-fca-authorised-firm", "logo": "", "screenshot": "", "created_at": "2023-06-12T11:00:00.000000Z", "updated_at": "2023-10-04T11:00:00.000000Z", "website": "www.changedebtsupport.uk", "imposter": false, "copycat": false}, {"id": 10902, "name": "Infinite Prime", "short_description": "Based on our experience and/or the warnings of official regulatory bodies, this company, and/or some of its practices, were flagged as a scam/fraud.", "review": "", "fca_link": "https://www.fca.org.uk/news/warnings/infinite-prime", "logo": "", "screenshot": "", "created_at": "2023-06-12T11:00:00.000000Z", "updated_at": "2023-06-12T11:00:00.000000Z", "website": "www.infiniteprime.org", "imposter": false, "copycat": false}, {"id": 10903, "name": "Infinity Miners", "short_description": "Based on our experience and/or the warnings of official regulatory bodies, this company, and/or some of its practices, were flagged as a scam/fraud.", "review": "", "fca_link": "https://www.fca.org.uk/news/warnings/infinity-miners", "logo": "", "screenshot": "", "created_at": "2023-06-12T11:00:00.000000Z", "updated_at": "2023-06-12T11:00:00.000000Z", "website": "www.infinityminers.net", "imposter": false, "copycat": false}, {"id": 10904, "name": "Asset Giant Globa Globagiantasset", "short_description": "Based on our experience and/or the warnings of official regulatory bodies, this company, and/or some of its practices, were flagged as a scam/fraud.", "review": "", "fca_link": "https://www.fca.org.uk/news/warnings/globa-giant-asset-globagiantasset", "logo": "", "screenshot": "", "created_at": "2023-06-12T11:00:00.000000Z", "updated_at": "2023-07-17T11:00:00.000000Z", "website": "www.globagiantasset.com, www.globagiantasset.org", "imposter": false, "copycat": false}], "first_page_url": "https://api.payback-ltd.com/api/blacklist?page=1", "from": 951, "last_page": 486, "last_page_url": "https://api.payback-ltd.com/api/blacklist?page=486", "links": [{"url": "https://api.payback-ltd.com/api/blacklist?page=38", "label": "&laquo; Previous", "active": false}, {"url": "https://api.payback-ltd.com/api/blacklist?page=1", "label": "1", "active": false}, {"url": "https://api.payback-ltd.com/api/blacklist?page=2", "label": "2", "active": false}, {"url": null, "label": "...", "active": false}, {"url": "https://api.payback-ltd.com/api/blacklist?page=36", "label": "36", "active": false}, {"url": "https://api.payback-ltd.com/api/blacklist?page=37", "label": "37", "active": false}, {"url": "https://api.payback-ltd.com/api/blacklist?page=38", "label": "38", "active": false}, {"url": "https://api.payback-ltd.com/api/blacklist?page=39", "label": "39", "active": true}, {"url": "https://api.payback-ltd.com/api/blacklist?page=40", "label": "40", "active": false}, {"url": "https://api.payback-ltd.com/api/blacklist?page=41", "label": "41", "active": false}, {"url": "https://api.payback-ltd.com/api/blacklist?page=42", "label": "42", "active": false}, {"url": null, "label": "...", "active": false}, {"url": "https://api.payback-ltd.com/api/blacklist?page=485", "label": "485", "active": false}, {"url": "https://api.payback-ltd.com/api/blacklist?page=486", "label": "486", "active": false}, {"url": "https://api.payback-ltd.com/api/blacklist?page=40", "label": "Next &raquo;", "active": false}], "next_page_url": "https://api.payback-ltd.com/api/blacklist?page=40", "path": "https://api.payback-ltd.com/api/blacklist", "per_page": 25, "prev_page_url": "https://api.payback-ltd.com/api/blacklist?page=38", "to": 975, "total": 12140}