{"current_page": 53, "data": [{"id": 11230, "name": "Primesware", "short_description": "Based on our experience and/or the warnings of official regulatory bodies, this company, and/or some of its practices, were flagged as a scam/fraud.", "review": "", "fca_link": "https://www.fca.org.uk/news/warnings/primesware", "logo": "", "screenshot": "", "created_at": "2023-03-29T11:00:00.000000Z", "updated_at": "2023-03-29T11:00:00.000000Z", "website": "www.primesware.com", "imposter": false, "copycat": false}, {"id": 11231, "name": "Airquest Capital Group", "short_description": "Based on our experience and/or the warnings of official regulatory bodies, this company, and/or some of its practices, were flagged as a scam/fraud.", "review": "", "fca_link": "https://www.fca.org.uk/news/warnings/airquest-capital-group", "logo": "", "screenshot": "", "created_at": "2023-03-28T11:00:00.000000Z", "updated_at": "2023-03-28T11:00:00.000000Z", "website": "https://www.airquestcapgroup.com/", "imposter": false, "copycat": false}, {"id": 11232, "name": "Phoenix24", "short_description": "Based on our experience and/or the warnings of official regulatory bodies, this company, and/or some of its practices, were flagged as a scam/fraud.", "review": "", "fca_link": "https://www.fca.org.uk/news/warnings/phoenix24-clone-fca-authorised-firm", "logo": "", "screenshot": "", "created_at": "2023-03-28T11:00:00.000000Z", "updated_at": "2023-03-28T11:00:00.000000Z", "website": "https://phoenix24.io", "imposter": false, "copycat": false}, {"id": 11233, "name": "Belcher Investments Markets", "short_description": "Based on our experience and/or the warnings of official regulatory bodies, this company, and/or some of its practices, were flagged as a scam/fraud.", "review": "", "fca_link": "https://www.fca.org.uk/news/warnings/belcher-investments-markets", "logo": "", "screenshot": "", "created_at": "2023-03-28T11:00:00.000000Z", "updated_at": "2023-03-28T11:00:00.000000Z", "website": "www.belcherinvestment.org", "imposter": false, "copycat": false}, {"id": 11234, "name": "Equity Growth Prime", "short_description": "Based on our experience and/or the warnings of official regulatory bodies, this company, and/or some of its practices, were flagged as a scam/fraud.", "review": "", "fca_link": "https://www.fca.org.uk/news/warnings/prime-growth-equity", "logo": "", "screenshot": "", "created_at": "2023-03-28T11:00:00.000000Z", "updated_at": "2023-03-28T11:00:00.000000Z", "website": "www.primegrowthequity.com", "imposter": false, "copycat": false}, {"id": 11235, "name": "Ag Swissinvestment", "short_description": "Based on our experience and/or the warnings of official regulatory bodies, this company, and/or some of its practices, were flagged as a scam/fraud.", "review": "", "fca_link": "https://www.fca.org.uk/news/warnings/wwwswissinvestment-agcom-clone-fca-authorised-firm", "logo": "", "screenshot": "", "created_at": "2023-03-28T11:00:00.000000Z", "updated_at": "2023-03-28T11:00:00.000000Z", "website": "www.swissinvestment-ag.com", "imposter": false, "copycat": false}, {"id": 11236, "name": "Bond Fixed LG Lg-Investments Rate", "short_description": "Based on our experience and/or the warnings of official regulatory bodies, this company, and/or some of its practices, were flagged as a scam/fraud.", "review": "", "fca_link": "https://www.fca.org.uk/news/warnings/lg-fixed-rate-bond-lg-investmentscouk-clone-fca-authorised-firms", "logo": "", "screenshot": "", "created_at": "2023-03-28T11:00:00.000000Z", "updated_at": "2023-03-28T11:00:00.000000Z", "website": "", "imposter": false, "copycat": false}, {"id": 11237, "name": "Bank Crown Savings", "short_description": "Based on our experience and/or the warnings of official regulatory bodies, this company, and/or some of its practices, were flagged as a scam/fraud.", "review": "", "fca_link": "https://www.fca.org.uk/news/warnings/crown-savings-bank", "logo": "", "screenshot": "", "created_at": "2023-03-27T11:00:00.000000Z", "updated_at": "2023-03-27T11:00:00.000000Z", "website": "www.crownsavingsbk.com", "imposter": false, "copycat": false}, {"id": 11238, "name": "Giant Ifc", "short_description": "Based on our experience and/or the warnings of official regulatory bodies, this company, and/or some of its practices, were flagged as a scam/fraud.", "review": "", "fca_link": "https://www.fca.org.uk/news/warnings/giant-ifc", "logo": "", "screenshot": "", "created_at": "2023-03-27T11:00:00.000000Z", "updated_at": "2023-06-16T11:00:00.000000Z", "website": "www.giantifc.cc, www.giantifc.net", "imposter": false, "copycat": false}, {"id": 11239, "name": "Atlantic Invest Ltd", "short_description": "Based on our experience and/or the warnings of official regulatory bodies, this company, and/or some of its practices, were flagged as a scam/fraud.", "review": "", "fca_link": "https://www.fca.org.uk/news/warnings/atlantic-invest-ltd", "logo": "", "screenshot": "", "created_at": "2023-03-27T11:00:00.000000Z", "updated_at": "2023-03-27T11:00:00.000000Z", "website": "www.atlanticinvesteu.com", "imposter": false, "copycat": false}, {"id": 11240, "name": "Jcrl Lease Limited Vehicle", "short_description": "Based on our experience and/or the warnings of official regulatory bodies, this company, and/or some of its practices, were flagged as a scam/fraud.", "review": "", "fca_link": "https://www.fca.org.uk/news/warnings/jcrl-vehicle-lease-limited-clone-fca-authorised-firm", "logo": "", "screenshot": "", "created_at": "2023-03-27T11:00:00.000000Z", "updated_at": "2023-03-27T11:00:00.000000Z", "website": "www.JCRLVehicleLease.com", "imposter": false, "copycat": false}, {"id": 11241, "name": "Trackfxx", "short_description": "Based on our experience and/or the warnings of official regulatory bodies, this company, and/or some of its practices, were flagged as a scam/fraud.", "review": "", "fca_link": "https://www.fca.org.uk/news/warnings/trackfxx", "logo": "", "screenshot": "", "created_at": "2023-03-24T11:00:00.000000Z", "updated_at": "2023-03-24T11:00:00.000000Z", "website": "https://trackfxx.com", "imposter": false, "copycat": false}, {"id": 11242, "name": "Finance Queen Street", "short_description": "Based on our experience and/or the warnings of official regulatory bodies, this company, and/or some of its practices, were flagged as a scam/fraud.", "review": "", "fca_link": "https://www.fca.org.uk/news/warnings/queen-street-finance-clone-fca-authorised-firm", "logo": "", "screenshot": "", "created_at": "2023-03-24T11:00:00.000000Z", "updated_at": "2023-03-24T11:00:00.000000Z", "website": "", "imposter": false, "copycat": false}, {"id": 11243, "name": "Digital Finance Global", "short_description": "Based on our experience and/or the warnings of official regulatory bodies, this company, and/or some of its practices, were flagged as a scam/fraud.", "review": "", "fca_link": "https://www.fca.org.uk/news/warnings/global-digital-finance", "logo": "", "screenshot": "", "created_at": "2023-03-24T11:00:00.000000Z", "updated_at": "2023-03-24T11:00:00.000000Z", "website": "www.globalfinfx.com", "imposter": false, "copycat": false}, {"id": 11244, "name": "Rolytradings", "short_description": "Based on our experience and/or the warnings of official regulatory bodies, this company, and/or some of its practices, were flagged as a scam/fraud.", "review": "", "fca_link": "https://www.fca.org.uk/news/warnings/rolytradings", "logo": "", "screenshot": "", "created_at": "2023-03-24T11:00:00.000000Z", "updated_at": "2023-03-24T11:00:00.000000Z", "website": "www.rolytradings.net", "imposter": false, "copycat": false}, {"id": 11245, "name": "Bit Zoom Zoom-Bit", "short_description": "Based on our experience and/or the warnings of official regulatory bodies, this company, and/or some of its practices, were flagged as a scam/fraud.", "review": "", "fca_link": "https://www.fca.org.uk/news/warnings/zoom-bit-zoom-bitcom-clone-fca-regulated-firm", "logo": "", "screenshot": "", "created_at": "2023-03-24T11:00:00.000000Z", "updated_at": "2023-03-24T11:00:00.000000Z", "website": "www.zoom-bit.com", "imposter": false, "copycat": false}, {"id": 11246, "name": "Capitals Smart", "short_description": "Based on our experience and/or the warnings of official regulatory bodies, this company, and/or some of its practices, were flagged as a scam/fraud.", "review": "", "fca_link": "https://www.fca.org.uk/news/warnings/smart-capitals", "logo": "", "screenshot": "", "created_at": "2023-03-24T11:00:00.000000Z", "updated_at": "2023-03-24T11:00:00.000000Z", "website": "www.smartcapitals.org", "imposter": false, "copycat": false}, {"id": 11247, "name": "Advice Debt National National-Debt-Advice", "short_description": "Based on our experience and/or the warnings of official regulatory bodies, this company, and/or some of its practices, were flagged as a scam/fraud.", "review": "", "fca_link": "https://www.fca.org.uk/news/warnings/national-debt-advice-national-debt-advicecouk", "logo": "", "screenshot": "", "created_at": "2023-03-24T11:00:00.000000Z", "updated_at": "2023-03-24T11:00:00.000000Z", "website": "www.national-debt-advice.co.uk", "imposter": false, "copycat": false}, {"id": 11248, "name": "Debt Helpline Uk", "short_description": "Based on our experience and/or the warnings of official regulatory bodies, this company, and/or some of its practices, were flagged as a scam/fraud.", "review": "", "fca_link": "https://www.fca.org.uk/news/warnings/uk-debt-helpline", "logo": "", "screenshot": "", "created_at": "2023-03-24T11:00:00.000000Z", "updated_at": "2023-07-25T11:00:00.000000Z", "website": "ukdebthelpline.uk, https://ukdebthelpline.org/", "imposter": false, "copycat": false}, {"id": 11249, "name": "Forex Platform Trade", "short_description": "Based on our experience and/or the warnings of official regulatory bodies, this company, and/or some of its practices, were flagged as a scam/fraud.", "review": "", "fca_link": "https://www.fca.org.uk/news/warnings/forex-trade-platform", "logo": "", "screenshot": "", "created_at": "2023-03-24T11:00:00.000000Z", "updated_at": "2023-03-24T11:00:00.000000Z", "website": "https://forextradeplatform.net/", "imposter": false, "copycat": false}, {"id": 11250, "name": "Globex Trade", "short_description": "Based on our experience and/or the warnings of official regulatory bodies, this company, and/or some of its practices, were flagged as a scam/fraud.", "review": "", "fca_link": "https://www.fca.org.uk/news/warnings/globex-trade", "logo": "", "screenshot": "", "created_at": "2023-03-24T11:00:00.000000Z", "updated_at": "2023-03-24T11:00:00.000000Z", "website": "www.globsextradeltds.com", "imposter": false, "copycat": false}, {"id": 11251, "name": "Chartchampions", "short_description": "Based on our experience and/or the warnings of official regulatory bodies, this company, and/or some of its practices, were flagged as a scam/fraud.", "review": "", "fca_link": "https://www.fca.org.uk/news/warnings/chartchampions", "logo": "", "screenshot": "", "created_at": "2023-03-24T11:00:00.000000Z", "updated_at": "2023-03-24T11:00:00.000000Z", "website": "www.chartchampions.online", "imposter": false, "copycat": false}, {"id": 11252, "name": "Fx Investment Mastery", "short_description": "Based on our experience and/or the warnings of official regulatory bodies, this company, and/or some of its practices, were flagged as a scam/fraud.", "review": "", "fca_link": "https://www.fca.org.uk/news/warnings/investment-mastery-fx", "logo": "", "screenshot": "", "created_at": "2023-03-24T11:00:00.000000Z", "updated_at": "2023-03-24T11:00:00.000000Z", "website": "https://investment-masteryfx.com/", "imposter": false, "copycat": false}, {"id": 11253, "name": "Primestocktrades", "short_description": "Based on our experience and/or the warnings of official regulatory bodies, this company, and/or some of its practices, were flagged as a scam/fraud.", "review": "", "fca_link": "https://www.fca.org.uk/news/warnings/primestocktrades", "logo": "", "screenshot": "", "created_at": "2023-03-24T11:00:00.000000Z", "updated_at": "2023-03-24T11:00:00.000000Z", "website": "https://primestocktrades.com/", "imposter": false, "copycat": false}, {"id": 11254, "name": "Dynamic Investment", "short_description": "Based on our experience and/or the warnings of official regulatory bodies, this company, and/or some of its practices, were flagged as a scam/fraud.", "review": "", "fca_link": "https://www.fca.org.uk/news/warnings/dynamic-investment", "logo": "", "screenshot": "", "created_at": "2023-03-24T11:00:00.000000Z", "updated_at": "2023-03-24T11:00:00.000000Z", "website": "https://dynamicinvesment.online/", "imposter": false, "copycat": false}], "first_page_url": "https://api.payback-ltd.com/api/blacklist?page=1", "from": 1301, "last_page": 486, "last_page_url": "https://api.payback-ltd.com/api/blacklist?page=486", "links": [{"url": "https://api.payback-ltd.com/api/blacklist?page=52", "label": "&laquo; Previous", "active": false}, {"url": "https://api.payback-ltd.com/api/blacklist?page=1", "label": "1", "active": false}, {"url": "https://api.payback-ltd.com/api/blacklist?page=2", "label": "2", "active": false}, {"url": null, "label": "...", "active": false}, {"url": "https://api.payback-ltd.com/api/blacklist?page=50", "label": "50", "active": false}, {"url": "https://api.payback-ltd.com/api/blacklist?page=51", "label": "51", "active": false}, {"url": "https://api.payback-ltd.com/api/blacklist?page=52", "label": "52", "active": false}, {"url": "https://api.payback-ltd.com/api/blacklist?page=53", "label": "53", "active": true}, {"url": "https://api.payback-ltd.com/api/blacklist?page=54", "label": "54", "active": false}, {"url": "https://api.payback-ltd.com/api/blacklist?page=55", "label": "55", "active": false}, {"url": "https://api.payback-ltd.com/api/blacklist?page=56", "label": "56", "active": false}, {"url": null, "label": "...", "active": false}, {"url": "https://api.payback-ltd.com/api/blacklist?page=485", "label": "485", "active": false}, {"url": "https://api.payback-ltd.com/api/blacklist?page=486", "label": "486", "active": false}, {"url": "https://api.payback-ltd.com/api/blacklist?page=54", "label": "Next &raquo;", "active": false}], "next_page_url": "https://api.payback-ltd.com/api/blacklist?page=54", "path": "https://api.payback-ltd.com/api/blacklist", "per_page": 25, "prev_page_url": "https://api.payback-ltd.com/api/blacklist?page=52", "to": 1325, "total": 12140}