{"current_page": 3, "data": [{"id": 9613, "name": "Capital Nexus P", "short_description": "Based on our experience and/or the warnings of official regulatory bodies, this company, and/or some of its practices, were flagged as a scam/fraud.", "review": null, "fca_link": null, "logo": "https://media.payback-ltd.com/images/2023/08/22/image1-184.png", "screenshot": null, "created_at": null, "updated_at": null, "website": "www.nexuspcapital.com", "imposter": false, "copycat": false}, {"id": 9618, "name": "Fte Fx", "short_description": "Based on our experience and/or the warnings of official regulatory bodies, this company, and/or some of its practices, were flagged as a scam/fraud.", "review": null, "fca_link": null, "logo": "https://media.payback-ltd.com/images/2023/08/22/image1-186567cb98ae990b6cb.png", "screenshot": null, "created_at": null, "updated_at": null, "website": "www.ftefxpro.com", "imposter": false, "copycat": false}, {"id": 9621, "name": "Tbfx", "short_description": "Based on our experience and/or the warnings of official regulatory bodies, this company, and/or some of its practices, were flagged as a scam/fraud.", "review": null, "fca_link": null, "logo": "https://media.payback-ltd.com/images/2023/08/22/image1-1c3c59b0dcfce1737.jpg", "screenshot": null, "created_at": null, "updated_at": null, "website": "www.tbfxtrades.com", "imposter": false, "copycat": false}, {"id": 9622, "name": "Cfreserve", "short_description": "Based on our experience and/or the warnings of official regulatory bodies, this company, and/or some of its practices, were flagged as a scam/fraud.", "review": null, "fca_link": null, "logo": "https://media.payback-ltd.com/images/2023/08/22/image1-4351c21233e3c7bb9.jpg", "screenshot": null, "created_at": null, "updated_at": null, "website": "www.cfreserve.com", "imposter": false, "copycat": false}, {"id": 9629, "name": "Fxlinked", "short_description": "Based on our experience and/or the warnings of official regulatory bodies, this company, and/or some of its practices, were flagged as a scam/fraud.", "review": null, "fca_link": null, "logo": "https://media.payback-ltd.com/images/2023/08/22/image1-8.jpg", "screenshot": null, "created_at": null, "updated_at": null, "website": "www.fxlinked.com", "imposter": false, "copycat": false}, {"id": 9633, "name": "Kayafx", "short_description": "Based on our experience and/or the warnings of official regulatory bodies, this company, and/or some of its practices, were flagged as a scam/fraud.", "review": null, "fca_link": null, "logo": "https://media.payback-ltd.com/images/2023/08/22/image1-2840499154af1ce0d0.png", "screenshot": null, "created_at": null, "updated_at": null, "website": "www.kayafx.com", "imposter": false, "copycat": false}, {"id": 9634, "name": "Banc Pt", "short_description": "Based on our experience and/or the warnings of official regulatory bodies, this company, and/or some of its practices, were flagged as a scam/fraud.", "review": null, "fca_link": null, "logo": "https://media.payback-ltd.com/images/2023/08/22/image1-141aaafdade2782a4c.jpg", "screenshot": null, "created_at": null, "updated_at": null, "website": "www.ptbanc.com", "imposter": false, "copycat": false}, {"id": 9636, "name": "Capital Holding Invest Ltd Swiss", "short_description": "Based on our experience and/or the warnings of official regulatory bodies, this company, and/or some of its practices, were flagged as a scam/fraud.", "review": null, "fca_link": null, "logo": "https://media.payback-ltd.com/images/2023/08/22/image1-381854425ead0931dc.png", "screenshot": null, "created_at": null, "updated_at": null, "website": "www.swisscapitalinvest.co.uk", "imposter": false, "copycat": false}, {"id": 9637, "name": "Cfdpremium", "short_description": "Based on our experience and/or the warnings of official regulatory bodies, this company, and/or some of its practices, were flagged as a scam/fraud.", "review": null, "fca_link": null, "logo": "https://media.payback-ltd.com/images/2023/08/22/image1-170953e14ade54fd05.jpg", "screenshot": null, "created_at": null, "updated_at": null, "website": "www.cfdpremium.com", "imposter": false, "copycat": false}, {"id": 9647, "name": "Credotrade", "short_description": "Based on our experience and/or the warnings of official regulatory bodies, this company, and/or some of its practices, were flagged as a scam/fraud.", "review": null, "fca_link": null, "logo": "https://media.payback-ltd.com/images/2023/08/22/image1-51ba3f00402c0f64cd.png", "screenshot": null, "created_at": null, "updated_at": null, "website": "www.credotrade.com", "imposter": false, "copycat": false}, {"id": 9654, "name": "Blue Trading", "short_description": "Based on our experience and/or the warnings of official regulatory bodies, this company, and/or some of its practices, were flagged as a scam/fraud.", "review": null, "fca_link": null, "logo": "https://media.payback-ltd.com/images/2023/08/22/Blue-Trading.md.png", "screenshot": null, "created_at": null, "updated_at": null, "website": "www.bluetrading.com", "imposter": false, "copycat": false}, {"id": 9662, "name": "Maxitrade", "short_description": "Based on our experience and/or the warnings of official regulatory bodies, this company, and/or some of its practices, were flagged as a scam/fraud.", "review": null, "fca_link": null, "logo": "https://media.payback-ltd.com/images/2023/08/22/Maxitrade.png", "screenshot": null, "created_at": null, "updated_at": null, "website": "www.maxitrade.com", "imposter": false, "copycat": false}, {"id": 9706, "name": "Code Quantum", "short_description": "Based on our experience and/or the warnings of official regulatory bodies, this company, and/or some of its practices, were flagged as a scam/fraud.", "review": null, "fca_link": null, "logo": "https://media.payback-ltd.com/images/2023/08/22/image1-13.md.jpg", "screenshot": null, "created_at": null, "updated_at": null, "website": "www.quantumcode.com", "imposter": false, "copycat": false}, {"id": 9730, "name": "Capital Sky", "short_description": "Based on our experience and/or the warnings of official regulatory bodies, this company, and/or some of its practices, were flagged as a scam/fraud.", "review": null, "fca_link": null, "logo": "https://media.payback-ltd.com/images/2023/08/22/image1-29b3634192be7aab34.png", "screenshot": null, "created_at": null, "updated_at": null, "website": "skycapital.cc", "imposter": false, "copycat": false}, {"id": 9740, "name": "Markets Universal", "short_description": "Based on our experience and/or the warnings of official regulatory bodies, this company, and/or some of its practices, were flagged as a scam/fraud.", "review": null, "fca_link": null, "logo": "https://media.payback-ltd.com/images/2023/08/22/image1-4072a245db1efc7084.png", "screenshot": null, "created_at": null, "updated_at": null, "website": "www.umarkets.io", "imposter": false, "copycat": false}, {"id": 9771, "name": "Capitals Stellar", "short_description": "Based on our experience and/or the warnings of official regulatory bodies, this company, and/or some of its practices, were flagged as a scam/fraud.", "review": null, "fca_link": null, "logo": "https://media.payback-ltd.com/images/2023/08/22/image1-75.png", "screenshot": null, "created_at": null, "updated_at": null, "website": "www.stellarcapitals.com", "imposter": false, "copycat": false}, {"id": 9775, "name": "Interactive Trade", "short_description": "Based on our experience and/or the warnings of official regulatory bodies, this company, and/or some of its practices, were flagged as a scam/fraud.", "review": null, "fca_link": null, "logo": "https://media.payback-ltd.com/images/2023/08/22/image1-79.png", "screenshot": null, "created_at": null, "updated_at": null, "website": "www.interactivetrade.com", "imposter": false, "copycat": false}, {"id": 9837, "name": "Coin Elite My", "short_description": "Based on our experience and/or the warnings of official regulatory bodies, this company, and/or some of its practices, were flagged as a scam/fraud.", "review": null, "fca_link": null, "logo": "https://media.payback-ltd.com/images/2023/08/22/image1-13782565ac727f91328.png", "screenshot": null, "created_at": null, "updated_at": null, "website": "www.mycoinelite.com", "imposter": false, "copycat": false}, {"id": 9853, "name": "Parker Prime", "short_description": "Based on our experience and/or the warnings of official regulatory bodies, this company, and/or some of its practices, were flagged as a scam/fraud.", "review": null, "fca_link": null, "logo": "https://media.payback-ltd.com/images/2023/08/22/image1-148.md.png", "screenshot": null, "created_at": null, "updated_at": null, "website": "www.parker-prime.com", "imposter": false, "copycat": false}, {"id": 9882, "name": "Nexus Trade", "short_description": "Based on our experience and/or the warnings of official regulatory bodies, this company, and/or some of its practices, were flagged as a scam/fraud.", "review": null, "fca_link": null, "logo": "https://media.payback-ltd.com/images/2023/08/22/Capture-18af723c6f5d9619c.md.png", "screenshot": null, "created_at": null, "updated_at": null, "website": "nexustradeinc.com", "imposter": false, "copycat": false}, {"id": 10000, "name": "Clive I Iclivetrade Trade", "short_description": "Based on our experience and/or the warnings of official regulatory bodies, this company, and/or some of its practices, were flagged as a scam/fraud.", "review": "", "fca_link": "https://www.fca.org.uk/news/warnings/i-clive-trade-iclivetrade", "logo": "", "screenshot": "", "created_at": "2023-10-26T11:00:00.000000Z", "updated_at": "2023-10-26T11:00:00.000000Z", "website": "https://iclivetrade.com/", "imposter": false, "copycat": false}, {"id": 10001, "name": "Earners Fx Global Globalfxearners", "short_description": "Based on our experience and/or the warnings of official regulatory bodies, this company, and/or some of its practices, were flagged as a scam/fraud.", "review": "", "fca_link": "https://www.fca.org.uk/news/warnings/global-fx-earners-globalfxearners", "logo": "", "screenshot": "", "created_at": "2023-10-26T11:00:00.000000Z", "updated_at": "2023-10-26T11:00:00.000000Z", "website": "https://globalfxearners.com", "imposter": false, "copycat": false}, {"id": 10002, "name": "Btcc Global Limited", "short_description": "Based on our experience and/or the warnings of official regulatory bodies, this company, and/or some of its practices, were flagged as a scam/fraud.", "review": "", "fca_link": "https://www.fca.org.uk/news/warnings/btcc-global-limited-wwwbtcccom", "logo": "", "screenshot": "", "created_at": "2023-10-26T11:00:00.000000Z", "updated_at": "2023-10-26T11:00:00.000000Z", "website": "https://www.btcc.com/en-US", "imposter": false, "copycat": false}, {"id": 10003, "name": "Fx Ultimate Ultimatefxworld World", "short_description": "Based on our experience and/or the warnings of official regulatory bodies, this company, and/or some of its practices, were flagged as a scam/fraud.", "review": "", "fca_link": "https://www.fca.org.uk/news/warnings/ultimate-fx-world-ultimatefxworld", "logo": "", "screenshot": "", "created_at": "2023-10-26T11:00:00.000000Z", "updated_at": "2023-10-26T11:00:00.000000Z", "website": "https://ultimatefxworld.com/", "imposter": false, "copycat": false}, {"id": 10004, "name": "Unity-Trust", "short_description": "Based on our experience and/or the warnings of official regulatory bodies, this company, and/or some of its practices, were flagged as a scam/fraud.", "review": "", "fca_link": "https://www.fca.org.uk/news/warnings/unity-trustcouk-clone-fca-authorised-firm", "logo": "", "screenshot": "", "created_at": "2023-10-26T11:00:00.000000Z", "updated_at": "2023-10-26T11:00:00.000000Z", "website": "https://unity-trust.co.uk/", "imposter": false, "copycat": false}], "first_page_url": "https://api.payback-ltd.com/api/blacklist?page=1", "from": 51, "last_page": 486, "last_page_url": "https://api.payback-ltd.com/api/blacklist?page=486", "links": [{"url": "https://api.payback-ltd.com/api/blacklist?page=2", "label": "&laquo; Previous", "active": false}, {"url": "https://api.payback-ltd.com/api/blacklist?page=1", "label": "1", "active": false}, {"url": "https://api.payback-ltd.com/api/blacklist?page=2", "label": "2", "active": false}, {"url": "https://api.payback-ltd.com/api/blacklist?page=3", "label": "3", "active": true}, {"url": "https://api.payback-ltd.com/api/blacklist?page=4", "label": "4", "active": false}, {"url": "https://api.payback-ltd.com/api/blacklist?page=5", "label": "5", "active": false}, {"url": "https://api.payback-ltd.com/api/blacklist?page=6", "label": "6", "active": false}, {"url": "https://api.payback-ltd.com/api/blacklist?page=7", "label": "7", "active": false}, {"url": "https://api.payback-ltd.com/api/blacklist?page=8", "label": "8", "active": false}, {"url": "https://api.payback-ltd.com/api/blacklist?page=9", "label": "9", "active": false}, {"url": "https://api.payback-ltd.com/api/blacklist?page=10", "label": "10", "active": false}, {"url": null, "label": "...", "active": false}, {"url": "https://api.payback-ltd.com/api/blacklist?page=485", "label": "485", "active": false}, {"url": "https://api.payback-ltd.com/api/blacklist?page=486", "label": "486", "active": false}, {"url": "https://api.payback-ltd.com/api/blacklist?page=4", "label": "Next &raquo;", "active": false}], "next_page_url": "https://api.payback-ltd.com/api/blacklist?page=4", "path": "https://api.payback-ltd.com/api/blacklist", "per_page": 25, "prev_page_url": "https://api.payback-ltd.com/api/blacklist?page=2", "to": 75, "total": 12140}