{"current_page": 102, "data": [{"id": 12455, "name": "Cryptocoin Cryptofx Fx Ultra", "short_description": "Based on our experience and/or the warnings of official regulatory bodies, this company, and/or some of its practices, were flagged as a scam/fraud.", "review": "", "fca_link": "https://www.fca.org.uk/news/warnings/ultra-cryptocoin-fx-ultra-cryptofx", "logo": "", "screenshot": "", "created_at": "2022-09-07T11:00:00.000000Z", "updated_at": "2022-09-07T11:00:00.000000Z", "website": "https://ultracryptocoinfx.com/", "imposter": false, "copycat": false}, {"id": 12456, "name": "Easy Get Loans", "short_description": "Based on our experience and/or the warnings of official regulatory bodies, this company, and/or some of its practices, were flagged as a scam/fraud.", "review": "", "fca_link": "https://www.fca.org.uk/news/warnings/get-easy-loans-clone-fca-authorised-firm", "logo": "", "screenshot": "", "created_at": "2022-09-07T11:00:00.000000Z", "updated_at": "2022-09-07T11:00:00.000000Z", "website": "https://www.geteasyloans.co.nz/", "imposter": false, "copycat": false}, {"id": 12457, "name": " And Law Miller Swanson", "short_description": "Based on our experience and/or the warnings of official regulatory bodies, this company, and/or some of its practices, were flagged as a scam/fraud.", "review": "", "fca_link": "https://www.fca.org.uk/news/warnings/swanson-and-miller-law-swanson-miller-law", "logo": "", "screenshot": "", "created_at": "2022-09-07T11:00:00.000000Z", "updated_at": "2022-09-07T11:00:00.000000Z", "website": "www.swansonandmiller.com", "imposter": false, "copycat": false}, {"id": 12458, "name": "Jkmt Ltd Trading", "short_description": "Based on our experience and/or the warnings of official regulatory bodies, this company, and/or some of its practices, were flagged as a scam/fraud.", "review": "", "fca_link": "https://www.fca.org.uk/news/warnings/jkmt-trading-ltd", "logo": "", "screenshot": "", "created_at": "2022-09-07T11:00:00.000000Z", "updated_at": "2022-11-07T12:00:00.000000Z", "website": "https://www.jkmt.online/, https://www.facebook.com/Javed.Khan.1998", "imposter": false, "copycat": false}, {"id": 12459, "name": "Marketfxm", "short_description": "Based on our experience and/or the warnings of official regulatory bodies, this company, and/or some of its practices, were flagged as a scam/fraud.", "review": "", "fca_link": "https://www.fca.org.uk/news/warnings/marketfxm", "logo": "", "screenshot": "", "created_at": "2022-09-07T11:00:00.000000Z", "updated_at": "2022-09-07T11:00:00.000000Z", "website": "www.marketfxm.com", "imposter": false, "copycat": false}, {"id": 12460, "name": "Fundrise Global", "short_description": "Based on our experience and/or the warnings of official regulatory bodies, this company, and/or some of its practices, were flagged as a scam/fraud.", "review": "", "fca_link": "https://www.fca.org.uk/news/warnings/fundrise-global", "logo": "", "screenshot": "", "created_at": "2022-09-07T11:00:00.000000Z", "updated_at": "2022-09-07T11:00:00.000000Z", "website": "https://fundrise-globalinvest.com/", "imposter": false, "copycat": false}, {"id": 12461, "name": "Group Investment", "short_description": "Based on our experience and/or the warnings of official regulatory bodies, this company, and/or some of its practices, were flagged as a scam/fraud.", "review": "", "fca_link": "https://www.fca.org.uk/news/warnings/investment-group", "logo": "", "screenshot": "", "created_at": "2022-09-06T11:00:00.000000Z", "updated_at": "2022-09-06T11:00:00.000000Z", "website": "https://email.investment-group.co.uk/invest-mail", "imposter": false, "copycat": false}, {"id": 12462, "name": "Fxedge Market Options", "short_description": "Based on our experience and/or the warnings of official regulatory bodies, this company, and/or some of its practices, were flagged as a scam/fraud.", "review": "", "fca_link": "https://www.fca.org.uk/news/warnings/fxedge-options-fxedge-market", "logo": "", "screenshot": "", "created_at": "2022-09-06T11:00:00.000000Z", "updated_at": "2022-09-06T11:00:00.000000Z", "website": "https://fxedgemarket.com/", "imposter": false, "copycat": false}, {"id": 12463, "name": "Online Primemarkets Winnex", "short_description": "Based on our experience and/or the warnings of official regulatory bodies, this company, and/or some of its practices, were flagged as a scam/fraud.", "review": "", "fca_link": "https://www.fca.org.uk/news/warnings/winnex-primemarkets-online", "logo": "", "screenshot": "", "created_at": "2022-09-06T11:00:00.000000Z", "updated_at": "2022-09-07T11:00:00.000000Z", "website": "www.winnex-primemarkets.online", "imposter": false, "copycat": false}, {"id": 12464, "name": "Commission Escrow International Us", "short_description": "Based on our experience and/or the warnings of official regulatory bodies, this company, and/or some of its practices, were flagged as a scam/fraud.", "review": "", "fca_link": "https://www.fca.org.uk/news/warnings/us-international-escrow-commission", "logo": "", "screenshot": "", "created_at": "2022-09-05T11:00:00.000000Z", "updated_at": "2022-09-06T11:00:00.000000Z", "website": "www.usiec.org", "imposter": false, "copycat": false}, {"id": 12465, "name": "Bitfxtradez", "short_description": "Based on our experience and/or the warnings of official regulatory bodies, this company, and/or some of its practices, were flagged as a scam/fraud.", "review": "", "fca_link": "https://www.fca.org.uk/news/warnings/bitfxtradez", "logo": "", "screenshot": "", "created_at": "2022-09-02T11:00:00.000000Z", "updated_at": "2022-09-02T11:00:00.000000Z", "website": "https://bitfxtradez.online/", "imposter": false, "copycat": false}, {"id": 12466, "name": "Ais Insurance", "short_description": "Based on our experience and/or the warnings of official regulatory bodies, this company, and/or some of its practices, were flagged as a scam/fraud.", "review": "", "fca_link": "https://www.fca.org.uk/news/warnings/ais-insurance", "logo": "", "screenshot": "", "created_at": "2022-09-02T11:00:00.000000Z", "updated_at": "2022-09-02T11:00:00.000000Z", "website": "www.aisinsurances.co.uk", "imposter": false, "copycat": false}, {"id": 12467, "name": "Fraud Solutions", "short_description": "Based on our experience and/or the warnings of official regulatory bodies, this company, and/or some of its practices, were flagged as a scam/fraud.", "review": "", "fca_link": "https://www.fca.org.uk/news/warnings/fraud-solutions", "logo": "", "screenshot": "", "created_at": "2022-09-02T11:00:00.000000Z", "updated_at": "2022-09-02T11:00:00.000000Z", "website": "fraud-solutions.net", "imposter": false, "copycat": false}, {"id": 12468, "name": "Loans Multa", "short_description": "Based on our experience and/or the warnings of official regulatory bodies, this company, and/or some of its practices, were flagged as a scam/fraud.", "review": "", "fca_link": "https://www.fca.org.uk/news/warnings/multa-loans-clone-fca-authorised-firm", "logo": "", "screenshot": "", "created_at": "2022-09-02T11:00:00.000000Z", "updated_at": "2023-03-28T11:00:00.000000Z", "website": "", "imposter": false, "copycat": false}, {"id": 12469, "name": "Alexanderdarlow", "short_description": "Based on our experience and/or the warnings of official regulatory bodies, this company, and/or some of its practices, were flagged as a scam/fraud.", "review": "", "fca_link": "https://www.fca.org.uk/news/warnings/alexanderdarlowcom-clone-fca-authorised-firm", "logo": "", "screenshot": "", "created_at": "2022-09-01T11:00:00.000000Z", "updated_at": "2022-09-01T11:00:00.000000Z", "website": "https://alexanderdarlow.com", "imposter": false, "copycat": false}, {"id": 12470, "name": "Equitixincome", "short_description": "Based on our experience and/or the warnings of official regulatory bodies, this company, and/or some of its practices, were flagged as a scam/fraud.", "review": "", "fca_link": "https://www.fca.org.uk/news/warnings/equitixincomecom-clone-fca-authorised-firm", "logo": "", "screenshot": "", "created_at": "2022-09-01T11:00:00.000000Z", "updated_at": "2022-09-01T11:00:00.000000Z", "website": "https://www.equitixincome.com", "imposter": false, "copycat": false}, {"id": 12471, "name": "And Cash You", "short_description": "Based on our experience and/or the warnings of official regulatory bodies, this company, and/or some of its practices, were flagged as a scam/fraud.", "review": "", "fca_link": "https://www.fca.org.uk/news/warnings/cash-and-you", "logo": "", "screenshot": "", "created_at": "2022-08-30T11:00:00.000000Z", "updated_at": "2022-08-30T11:00:00.000000Z", "website": "www.cashandyou.co.uk", "imposter": false, "copycat": false}, {"id": 12472, "name": "Fxguaranteeoptions", "short_description": "Based on our experience and/or the warnings of official regulatory bodies, this company, and/or some of its practices, were flagged as a scam/fraud.", "review": "", "fca_link": "https://www.fca.org.uk/news/warnings/fxguaranteeoptions", "logo": "", "screenshot": "", "created_at": "2022-08-30T11:00:00.000000Z", "updated_at": "2022-08-30T11:00:00.000000Z", "website": "www.fxguaranteeoptions.com", "imposter": false, "copycat": false}, {"id": 12473, "name": "M24 Markets", "short_description": "Based on our experience and/or the warnings of official regulatory bodies, this company, and/or some of its practices, were flagged as a scam/fraud.", "review": "", "fca_link": "https://www.fca.org.uk/news/warnings/m24-markets", "logo": "", "screenshot": "", "created_at": "2022-08-30T11:00:00.000000Z", "updated_at": "2022-08-30T11:00:00.000000Z", "website": "www.m24markets.com", "imposter": false, "copycat": false}, {"id": 12474, "name": "Bitcoin Vault", "short_description": "Based on our experience and/or the warnings of official regulatory bodies, this company, and/or some of its practices, were flagged as a scam/fraud.", "review": "", "fca_link": "https://www.fca.org.uk/news/warnings/bitcoin-vault", "logo": "", "screenshot": "", "created_at": "2022-08-26T11:00:00.000000Z", "updated_at": "2022-08-26T11:00:00.000000Z", "website": "https://bitcoinvault.global/", "imposter": false, "copycat": false}, {"id": 12475, "name": "Claims Direct Uk", "short_description": "Based on our experience and/or the warnings of official regulatory bodies, this company, and/or some of its practices, were flagged as a scam/fraud.", "review": "", "fca_link": "https://www.fca.org.uk/news/warnings/uk-claims-direct", "logo": "", "screenshot": "", "created_at": "2022-08-26T11:00:00.000000Z", "updated_at": "2022-08-26T11:00:00.000000Z", "website": "https://ukclaimsdirect.com/", "imposter": false, "copycat": false}, {"id": 12476, "name": "Holdings Jupiter", "short_description": "Based on our experience and/or the warnings of official regulatory bodies, this company, and/or some of its practices, were flagged as a scam/fraud.", "review": "", "fca_link": "https://www.fca.org.uk/news/warnings/jupiter-holdings-clone-fca-authorised-firm", "logo": "", "screenshot": "", "created_at": "2022-08-26T11:00:00.000000Z", "updated_at": "2022-08-26T11:00:00.000000Z", "website": "www.jupiterholdings.co.uk, www.jupiterholdings.net, www.jupiterholdingsltd.com", "imposter": false, "copycat": false}, {"id": 12477, "name": "Advice Iva", "short_description": "Based on our experience and/or the warnings of official regulatory bodies, this company, and/or some of its practices, were flagged as a scam/fraud.", "review": "", "fca_link": "https://www.fca.org.uk/news/warnings/iva-advice", "logo": "", "screenshot": "", "created_at": "2022-08-25T11:00:00.000000Z", "updated_at": "2022-08-25T11:00:00.000000Z", "website": "https://www.iva-advice.co/", "imposter": false, "copycat": false}, {"id": 12478, "name": "Kqmarketfx", "short_description": "Based on our experience and/or the warnings of official regulatory bodies, this company, and/or some of its practices, were flagged as a scam/fraud.", "review": "", "fca_link": "https://www.fca.org.uk/news/warnings/kqmarketfxcouk-clone-fca-authorised-firm", "logo": "", "screenshot": "", "created_at": "2022-08-25T11:00:00.000000Z", "updated_at": "2022-08-25T11:00:00.000000Z", "website": "www.kqmarketfx.co.uk", "imposter": false, "copycat": false}, {"id": 12479, "name": "Http", "short_description": "Based on our experience and/or the warnings of official regulatory bodies, this company, and/or some of its practices, were flagged as a scam/fraud.", "review": "", "fca_link": "https://www.fca.org.uk/news/warnings/http-wwwilluminatifinancelimitedcom-clone-fca-authorised-firm", "logo": "", "screenshot": "", "created_at": "2022-08-25T11:00:00.000000Z", "updated_at": "2022-08-25T11:00:00.000000Z", "website": "http://www.illuminatifinancelimited.com", "imposter": false, "copycat": false}], "first_page_url": "https://api.payback-ltd.com/api/blacklist?page=1", "from": 2526, "last_page": 486, "last_page_url": "https://api.payback-ltd.com/api/blacklist?page=486", "links": [{"url": "https://api.payback-ltd.com/api/blacklist?page=101", "label": "&laquo; Previous", "active": false}, {"url": "https://api.payback-ltd.com/api/blacklist?page=1", "label": "1", "active": false}, {"url": "https://api.payback-ltd.com/api/blacklist?page=2", "label": "2", "active": false}, {"url": null, "label": "...", "active": false}, {"url": "https://api.payback-ltd.com/api/blacklist?page=99", "label": "99", "active": false}, {"url": "https://api.payback-ltd.com/api/blacklist?page=100", "label": "100", "active": false}, {"url": "https://api.payback-ltd.com/api/blacklist?page=101", "label": "101", "active": false}, {"url": "https://api.payback-ltd.com/api/blacklist?page=102", "label": "102", "active": true}, {"url": "https://api.payback-ltd.com/api/blacklist?page=103", "label": "103", "active": false}, {"url": "https://api.payback-ltd.com/api/blacklist?page=104", "label": "104", "active": false}, {"url": "https://api.payback-ltd.com/api/blacklist?page=105", "label": "105", "active": false}, {"url": null, "label": "...", "active": false}, {"url": "https://api.payback-ltd.com/api/blacklist?page=485", "label": "485", "active": false}, {"url": "https://api.payback-ltd.com/api/blacklist?page=486", "label": "486", "active": false}, {"url": "https://api.payback-ltd.com/api/blacklist?page=103", "label": "Next &raquo;", "active": false}], "next_page_url": "https://api.payback-ltd.com/api/blacklist?page=103", "path": "https://api.payback-ltd.com/api/blacklist", "per_page": 25, "prev_page_url": "https://api.payback-ltd.com/api/blacklist?page=101", "to": 2550, "total": 12140}