{"current_page": 22, "data": [{"id": 10455, "name": "Esfequity Fx", "short_description": "Based on our experience and/or the warnings of official regulatory bodies, this company, and/or some of its practices, were flagged as a scam/fraud.", "review": "", "fca_link": "https://www.fca.org.uk/news/warnings/esfequity-fx", "logo": "", "screenshot": "", "created_at": "2023-09-07T11:00:00.000000Z", "updated_at": "2023-09-07T11:00:00.000000Z", "website": "www.esfequityfx.com", "imposter": false, "copycat": false}, {"id": 10456, "name": "Fresh Freshstart-Uk Help", "short_description": "Based on our experience and/or the warnings of official regulatory bodies, this company, and/or some of its practices, were flagged as a scam/fraud.", "review": "", "fca_link": "https://www.fca.org.uk/news/warnings/fresh-help-freshstart-ukcom", "logo": "", "screenshot": "", "created_at": "2023-09-07T11:00:00.000000Z", "updated_at": "2023-09-07T11:00:00.000000Z", "website": "https://www.freshstart-uk.com/", "imposter": false, "copycat": false}, {"id": 10457, "name": "Fx Trades Unique", "short_description": "Based on our experience and/or the warnings of official regulatory bodies, this company, and/or some of its practices, were flagged as a scam/fraud.", "review": "", "fca_link": "https://www.fca.org.uk/news/warnings/unique-fx-trades", "logo": "", "screenshot": "", "created_at": "2023-09-07T11:00:00.000000Z", "updated_at": "2023-09-07T11:00:00.000000Z", "website": "www.uniquefxtrades.net", "imposter": false, "copycat": false}, {"id": 10458, "name": "Glance Investment Profit", "short_description": "Based on our experience and/or the warnings of official regulatory bodies, this company, and/or some of its practices, were flagged as a scam/fraud.", "review": "", "fca_link": "https://www.fca.org.uk/news/warnings/glance-profit-investment", "logo": "", "screenshot": "", "created_at": "2023-09-07T11:00:00.000000Z", "updated_at": "2023-09-07T11:00:00.000000Z", "website": "www.glaproinv.com", "imposter": false, "copycat": false}, {"id": 10459, "name": "Capizal Trade", "short_description": "Based on our experience and/or the warnings of official regulatory bodies, this company, and/or some of its practices, were flagged as a scam/fraud.", "review": "", "fca_link": "https://www.fca.org.uk/news/warnings/capizal-trade", "logo": "", "screenshot": "", "created_at": "2023-09-07T11:00:00.000000Z", "updated_at": "2023-09-07T11:00:00.000000Z", "website": "www.capizaltrade.com", "imposter": false, "copycat": false}, {"id": 10460, "name": "London-Lawyers", "short_description": "Based on our experience and/or the warnings of official regulatory bodies, this company, and/or some of its practices, were flagged as a scam/fraud.", "review": "", "fca_link": "https://www.fca.org.uk/news/warnings/london-lawyers-london-lawyerscom", "logo": "", "screenshot": "", "created_at": "2023-09-07T11:00:00.000000Z", "updated_at": "2023-09-07T11:00:00.000000Z", "website": "https://london-lawyers.com", "imposter": false, "copycat": false}, {"id": 10461, "name": "Quickoptionsinvestment", "short_description": "Based on our experience and/or the warnings of official regulatory bodies, this company, and/or some of its practices, were flagged as a scam/fraud.", "review": "", "fca_link": "https://www.fca.org.uk/news/warnings/quickoptionsinvestment", "logo": "", "screenshot": "", "created_at": "2023-09-07T11:00:00.000000Z", "updated_at": "2023-09-07T11:00:00.000000Z", "website": "www.quickoptionsinvestment.com", "imposter": false, "copycat": false}, {"id": 10462, "name": "Crypto Field Okx The", "short_description": "Based on our experience and/or the warnings of official regulatory bodies, this company, and/or some of its practices, were flagged as a scam/fraud.", "review": "", "fca_link": "https://www.fca.org.uk/news/warnings/okx-crypto-field", "logo": "", "screenshot": "", "created_at": "2023-09-07T11:00:00.000000Z", "updated_at": "2023-09-07T11:00:00.000000Z", "website": "www.theokxcryptofield.com", "imposter": false, "copycat": false}, {"id": 10463, "name": "Forexkingtradingempire", "short_description": "Based on our experience and/or the warnings of official regulatory bodies, this company, and/or some of its practices, were flagged as a scam/fraud.", "review": "", "fca_link": "https://www.fca.org.uk/news/warnings/forexkingtradingempire", "logo": "", "screenshot": "", "created_at": "2023-09-07T11:00:00.000000Z", "updated_at": "2023-09-07T11:00:00.000000Z", "website": "www.forexkingtradingempire.com", "imposter": false, "copycat": false}, {"id": 10464, "name": "Investments Lamatrade Ltd", "short_description": "Based on our experience and/or the warnings of official regulatory bodies, this company, and/or some of its practices, were flagged as a scam/fraud.", "review": "", "fca_link": "https://www.fca.org.uk/news/warnings/lamatrade-investments-ltd", "logo": "", "screenshot": "", "created_at": "2023-09-07T11:00:00.000000Z", "updated_at": "2023-09-07T11:00:00.000000Z", "website": "www.fxmillion.biz", "imposter": false, "copycat": false}, {"id": 10465, "name": "Fx Miner Net", "short_description": "Based on our experience and/or the warnings of official regulatory bodies, this company, and/or some of its practices, were flagged as a scam/fraud.", "review": "", "fca_link": "https://www.fca.org.uk/news/warnings/net-fx-miner", "logo": "", "screenshot": "", "created_at": "2023-09-06T11:00:00.000000Z", "updated_at": "2023-09-06T11:00:00.000000Z", "website": "www.netfxminer.com", "imposter": false, "copycat": false}, {"id": 10466, "name": "Clefbank", "short_description": "Based on our experience and/or the warnings of official regulatory bodies, this company, and/or some of its practices, were flagged as a scam/fraud.", "review": "", "fca_link": "https://www.fca.org.uk/news/warnings/clefbank", "logo": "", "screenshot": "", "created_at": "2023-09-06T11:00:00.000000Z", "updated_at": "2023-09-06T11:00:00.000000Z", "website": "https://clefbank.com", "imposter": false, "copycat": false}, {"id": 10467, "name": "Ltd Pipsupreme", "short_description": "Based on our experience and/or the warnings of official regulatory bodies, this company, and/or some of its practices, were flagged as a scam/fraud.", "review": "", "fca_link": "https://www.fca.org.uk/news/warnings/pipsupreme-ltd", "logo": "", "screenshot": "", "created_at": "2023-09-06T11:00:00.000000Z", "updated_at": "2023-09-07T11:00:00.000000Z", "website": "www.pipsupreme.com", "imposter": false, "copycat": false}, {"id": 10468, "name": "Quadmarks", "short_description": "Based on our experience and/or the warnings of official regulatory bodies, this company, and/or some of its practices, were flagged as a scam/fraud.", "review": "", "fca_link": "https://www.fca.org.uk/news/warnings/quadmarks", "logo": "", "screenshot": "", "created_at": "2023-09-06T11:00:00.000000Z", "updated_at": "2023-09-07T11:00:00.000000Z", "website": "www.quadmarkstrades.online", "imposter": false, "copycat": false}, {"id": 10469, "name": "Expert Fx Universal", "short_description": "Based on our experience and/or the warnings of official regulatory bodies, this company, and/or some of its practices, were flagged as a scam/fraud.", "review": "", "fca_link": "https://www.fca.org.uk/news/warnings/universal-expert-fx", "logo": "", "screenshot": "", "created_at": "2023-09-05T11:00:00.000000Z", "updated_at": "2023-09-06T11:00:00.000000Z", "website": "www.universalexpertfx.com", "imposter": false, "copycat": false}, {"id": 10470, "name": "Asset Elmwood Finance", "short_description": "Based on our experience and/or the warnings of official regulatory bodies, this company, and/or some of its practices, were flagged as a scam/fraud.", "review": "", "fca_link": "https://www.fca.org.uk/news/warnings/elmwood-asset-finance-clone-fca-authorised-firm", "logo": "", "screenshot": "", "created_at": "2023-09-05T11:00:00.000000Z", "updated_at": "2023-09-05T11:00:00.000000Z", "website": "", "imposter": false, "copycat": false}, {"id": 10471, "name": "Cap Gain Gaincapholdings Holdings", "short_description": "Based on our experience and/or the warnings of official regulatory bodies, this company, and/or some of its practices, were flagged as a scam/fraud.", "review": "", "fca_link": "https://www.fca.org.uk/news/warnings/gain-cap-holdings-gaincapholdingscouk-clone-fca-authorised-firm", "logo": "", "screenshot": "", "created_at": "2023-09-05T11:00:00.000000Z", "updated_at": "2023-09-14T11:00:00.000000Z", "website": "http://www.gaincapholdings.co.uk/", "imposter": false, "copycat": false}, {"id": 10472, "name": "Thefx24trade", "short_description": "Based on our experience and/or the warnings of official regulatory bodies, this company, and/or some of its practices, were flagged as a scam/fraud.", "review": "", "fca_link": "https://www.fca.org.uk/news/warnings/thefx24trade", "logo": "", "screenshot": "", "created_at": "2023-09-05T11:00:00.000000Z", "updated_at": "2023-09-05T11:00:00.000000Z", "website": "https://thefx24.com/", "imposter": false, "copycat": false}, {"id": 10473, "name": "Ethereal Fx Pro", "short_description": "Based on our experience and/or the warnings of official regulatory bodies, this company, and/or some of its practices, were flagged as a scam/fraud.", "review": "", "fca_link": "https://www.fca.org.uk/news/warnings/ethereal-fx-pro", "logo": "", "screenshot": "", "created_at": "2023-09-05T11:00:00.000000Z", "updated_at": "2023-09-05T11:00:00.000000Z", "website": "https://etherealfxpro.com/", "imposter": false, "copycat": false}, {"id": 10474, "name": "Tradefxm", "short_description": "Based on our experience and/or the warnings of official regulatory bodies, this company, and/or some of its practices, were flagged as a scam/fraud.", "review": "", "fca_link": "https://www.fca.org.uk/news/warnings/tradefxm", "logo": "", "screenshot": "", "created_at": "2023-09-05T11:00:00.000000Z", "updated_at": "2023-09-05T11:00:00.000000Z", "website": "https://tforexm.com/", "imposter": false, "copycat": false}, {"id": 10475, "name": "Holding-Loan", "short_description": "Based on our experience and/or the warnings of official regulatory bodies, this company, and/or some of its practices, were flagged as a scam/fraud.", "review": "", "fca_link": "https://www.fca.org.uk/news/warnings/holding-loan", "logo": "", "screenshot": "", "created_at": "2023-09-05T11:00:00.000000Z", "updated_at": "2023-09-05T11:00:00.000000Z", "website": "https://holding-loan.com/", "imposter": false, "copycat": false}, {"id": 10476, "name": "Smartcoinfx", "short_description": "Based on our experience and/or the warnings of official regulatory bodies, this company, and/or some of its practices, were flagged as a scam/fraud.", "review": "", "fca_link": "https://www.fca.org.uk/news/warnings/smartcoinfx", "logo": "", "screenshot": "", "created_at": "2023-09-04T11:00:00.000000Z", "updated_at": "2023-09-04T11:00:00.000000Z", "website": "https://smartcoinfx.com", "imposter": false, "copycat": false}, {"id": 10477, "name": "Octafxelitetrade", "short_description": "Based on our experience and/or the warnings of official regulatory bodies, this company, and/or some of its practices, were flagged as a scam/fraud.", "review": "", "fca_link": "https://www.fca.org.uk/news/warnings/octafxelitetrade", "logo": "", "screenshot": "", "created_at": "2023-09-04T11:00:00.000000Z", "updated_at": "2023-09-04T11:00:00.000000Z", "website": "https://octafxelitetrade.com", "imposter": false, "copycat": false}, {"id": 10478, "name": "Dectrofx", "short_description": "Based on our experience and/or the warnings of official regulatory bodies, this company, and/or some of its practices, were flagged as a scam/fraud.", "review": "", "fca_link": "https://www.fca.org.uk/news/warnings/dectrofx", "logo": "", "screenshot": "", "created_at": "2023-09-04T11:00:00.000000Z", "updated_at": "2023-09-04T11:00:00.000000Z", "website": "https://dectrofx.com/", "imposter": false, "copycat": false}, {"id": 10479, "name": "Auto Crypto Solutions Trading", "short_description": "Based on our experience and/or the warnings of official regulatory bodies, this company, and/or some of its practices, were flagged as a scam/fraud.", "review": "", "fca_link": "https://www.fca.org.uk/news/warnings/auto-crypto-trading-solutions", "logo": "", "screenshot": "", "created_at": "2023-09-04T11:00:00.000000Z", "updated_at": "2023-09-04T11:00:00.000000Z", "website": "https://autocryptotradingsolutions.com/", "imposter": false, "copycat": false}], "first_page_url": "https://api.payback-ltd.com/api/blacklist?page=1", "from": 526, "last_page": 486, "last_page_url": "https://api.payback-ltd.com/api/blacklist?page=486", "links": [{"url": "https://api.payback-ltd.com/api/blacklist?page=21", "label": "&laquo; Previous", "active": false}, {"url": "https://api.payback-ltd.com/api/blacklist?page=1", "label": "1", "active": false}, {"url": "https://api.payback-ltd.com/api/blacklist?page=2", "label": "2", "active": false}, {"url": null, "label": "...", "active": false}, {"url": "https://api.payback-ltd.com/api/blacklist?page=19", "label": "19", "active": false}, {"url": "https://api.payback-ltd.com/api/blacklist?page=20", "label": "20", "active": false}, {"url": "https://api.payback-ltd.com/api/blacklist?page=21", "label": "21", "active": false}, {"url": "https://api.payback-ltd.com/api/blacklist?page=22", "label": "22", "active": true}, {"url": "https://api.payback-ltd.com/api/blacklist?page=23", "label": "23", "active": false}, {"url": "https://api.payback-ltd.com/api/blacklist?page=24", "label": "24", "active": false}, {"url": "https://api.payback-ltd.com/api/blacklist?page=25", "label": "25", "active": false}, {"url": null, "label": "...", "active": false}, {"url": "https://api.payback-ltd.com/api/blacklist?page=485", "label": "485", "active": false}, {"url": "https://api.payback-ltd.com/api/blacklist?page=486", "label": "486", "active": false}, {"url": "https://api.payback-ltd.com/api/blacklist?page=23", "label": "Next &raquo;", "active": false}], "next_page_url": "https://api.payback-ltd.com/api/blacklist?page=23", "path": "https://api.payback-ltd.com/api/blacklist", "per_page": 25, "prev_page_url": "https://api.payback-ltd.com/api/blacklist?page=21", "to": 550, "total": 12140}