{"current_page": 5, "data": [{"id": 10030, "name": "Morgan Msaccounts Stanley", "short_description": "Based on our experience and/or the warnings of official regulatory bodies, this company, and/or some of its practices, were flagged as a scam/fraud.", "review": "", "fca_link": "https://www.fca.org.uk/news/warnings/morgan-stanley-msaccountsuk-clone-fca-authorised-firms", "logo": "", "screenshot": "", "created_at": "2023-10-23T11:00:00.000000Z", "updated_at": "2023-10-23T11:00:00.000000Z", "website": "", "imposter": false, "copycat": false}, {"id": 10031, "name": "Infinitecryptoltd", "short_description": "Based on our experience and/or the warnings of official regulatory bodies, this company, and/or some of its practices, were flagged as a scam/fraud.", "review": "", "fca_link": "https://www.fca.org.uk/news/warnings/infinitecryptoltdcom", "logo": "", "screenshot": "", "created_at": "2023-10-20T11:00:00.000000Z", "updated_at": "2023-10-20T11:00:00.000000Z", "website": "", "imposter": false, "copycat": false}, {"id": 10032, "name": "Capital Global Krost Partners", "short_description": "Based on our experience and/or the warnings of official regulatory bodies, this company, and/or some of its practices, were flagged as a scam/fraud.", "review": "", "fca_link": "https://www.fca.org.uk/news/warnings/krost-global-capital-partners", "logo": "", "screenshot": "", "created_at": "2023-10-20T11:00:00.000000Z", "updated_at": "2023-10-20T11:00:00.000000Z", "website": "www.krostglobalcapital.com", "imposter": false, "copycat": false}, {"id": 10033, "name": "Dowgatewealth-Hk", "short_description": "Based on our experience and/or the warnings of official regulatory bodies, this company, and/or some of its practices, were flagged as a scam/fraud.", "review": "", "fca_link": "https://www.fca.org.uk/news/warnings/dowgatewealth-hkcom-clone-fca-authorised-firm", "logo": "", "screenshot": "", "created_at": "2023-10-20T11:00:00.000000Z", "updated_at": "2023-10-20T11:00:00.000000Z", "website": "https://dowgatewealth-hk.com/", "imposter": false, "copycat": false}, {"id": 10034, "name": "Vertexfinworth", "short_description": "Based on our experience and/or the warnings of official regulatory bodies, this company, and/or some of its practices, were flagged as a scam/fraud.", "review": "", "fca_link": "https://www.fca.org.uk/news/warnings/vertexfinworth", "logo": "", "screenshot": "", "created_at": "2023-10-20T11:00:00.000000Z", "updated_at": "2023-10-20T11:00:00.000000Z", "website": "\u00c2\u00a0https://vertexfinworth.com", "imposter": false, "copycat": false}, {"id": 10035, "name": "Roboxfx", "short_description": "Based on our experience and/or the warnings of official regulatory bodies, this company, and/or some of its practices, were flagged as a scam/fraud.", "review": "", "fca_link": "https://www.fca.org.uk/news/warnings/roboxfx", "logo": "", "screenshot": "", "created_at": "2023-10-20T11:00:00.000000Z", "updated_at": "2023-10-20T11:00:00.000000Z", "website": "www.roboxfx.pro", "imposter": false, "copycat": false}, {"id": 10036, "name": "Bank Commercial Kingsway", "short_description": "Based on our experience and/or the warnings of official regulatory bodies, this company, and/or some of its practices, were flagged as a scam/fraud.", "review": "", "fca_link": "https://www.fca.org.uk/news/warnings/kingsway-commercial-bank", "logo": "", "screenshot": "", "created_at": "2023-10-20T11:00:00.000000Z", "updated_at": "2023-10-20T11:00:00.000000Z", "website": "www.kingswaycommercialbank.com", "imposter": false, "copycat": false}, {"id": 10037, "name": "Rouacryptotrades", "short_description": "Based on our experience and/or the warnings of official regulatory bodies, this company, and/or some of its practices, were flagged as a scam/fraud.", "review": "", "fca_link": "https://www.fca.org.uk/news/warnings/rouacryptotrades", "logo": "", "screenshot": "", "created_at": "2023-10-20T11:00:00.000000Z", "updated_at": "2023-10-20T11:00:00.000000Z", "website": "www.rouacryptotrades.com", "imposter": false, "copycat": false}, {"id": 10038, "name": "Ascending Bull", "short_description": "Based on our experience and/or the warnings of official regulatory bodies, this company, and/or some of its practices, were flagged as a scam/fraud.", "review": "", "fca_link": "https://www.fca.org.uk/news/warnings/ascending-bull", "logo": "", "screenshot": "", "created_at": "2023-10-20T11:00:00.000000Z", "updated_at": "2023-10-20T11:00:00.000000Z", "website": "https://ascendingbull.com/", "imposter": false, "copycat": false}, {"id": 10039, "name": "Instantgrow", "short_description": "Based on our experience and/or the warnings of official regulatory bodies, this company, and/or some of its practices, were flagged as a scam/fraud.", "review": "", "fca_link": "https://www.fca.org.uk/news/warnings/instantgrow", "logo": "", "screenshot": "", "created_at": "2023-10-20T11:00:00.000000Z", "updated_at": "2023-10-20T11:00:00.000000Z", "website": "www.instantgrow.cc", "imposter": false, "copycat": false}, {"id": 10040, "name": "Investments Property Proven", "short_description": "Based on our experience and/or the warnings of official regulatory bodies, this company, and/or some of its practices, were flagged as a scam/fraud.", "review": "", "fca_link": "https://www.fca.org.uk/news/warnings/proven-property-investments", "logo": "", "screenshot": "", "created_at": "2023-10-20T11:00:00.000000Z", "updated_at": "2023-10-20T11:00:00.000000Z", "website": "https://provenpropertyinvestments.com/", "imposter": false, "copycat": false}, {"id": 10041, "name": "Accident Helpline Management", "short_description": "Based on our experience and/or the warnings of official regulatory bodies, this company, and/or some of its practices, were flagged as a scam/fraud.", "review": "", "fca_link": "https://www.fca.org.uk/news/warnings/accident-management-helpline", "logo": "", "screenshot": "", "created_at": "2023-10-20T11:00:00.000000Z", "updated_at": "2023-10-20T11:00:00.000000Z", "website": "accidentmanagementhelpline.com", "imposter": false, "copycat": false}, {"id": 10042, "name": "Bit-Galaxy", "short_description": "Based on our experience and/or the warnings of official regulatory bodies, this company, and/or some of its practices, were flagged as a scam/fraud.", "review": "", "fca_link": "https://www.fca.org.uk/news/warnings/bit-galaxy", "logo": "", "screenshot": "", "created_at": "2023-10-20T11:00:00.000000Z", "updated_at": "2023-10-20T11:00:00.000000Z", "website": "www.bitgalaxy.world", "imposter": false, "copycat": false}, {"id": 10043, "name": "Capital Pro Quaero Quaerocapital", "short_description": "Based on our experience and/or the warnings of official regulatory bodies, this company, and/or some of its practices, were flagged as a scam/fraud.", "review": "", "fca_link": "https://www.fca.org.uk/news/warnings/quaero-capital-pro-quaerocapitalpro-clone-fca-authorised-firm", "logo": "", "screenshot": "", "created_at": "2023-10-19T11:00:00.000000Z", "updated_at": "2023-10-19T11:00:00.000000Z", "website": "https://quaerocapital.pro/", "imposter": false, "copycat": false}, {"id": 10044, "name": "Cryptoinvestment Gain Market", "short_description": "Based on our experience and/or the warnings of official regulatory bodies, this company, and/or some of its practices, were flagged as a scam/fraud.", "review": "", "fca_link": "https://www.fca.org.uk/news/warnings/gain-market-cryptoinvestment", "logo": "", "screenshot": "", "created_at": "2023-10-19T11:00:00.000000Z", "updated_at": "2023-10-19T11:00:00.000000Z", "website": "https://gainmarketcrypinv.com/", "imposter": false, "copycat": false}, {"id": 10045, "name": "Primesgain", "short_description": "Based on our experience and/or the warnings of official regulatory bodies, this company, and/or some of its practices, were flagged as a scam/fraud.", "review": "", "fca_link": "https://www.fca.org.uk/news/warnings/primesgaincom", "logo": "", "screenshot": "", "created_at": "2023-10-19T11:00:00.000000Z", "updated_at": "2023-10-19T11:00:00.000000Z", "website": "https://primesgain.com", "imposter": false, "copycat": false}, {"id": 10046, "name": "Bianchi Customer Emily Service Vontobel", "short_description": "Based on our experience and/or the warnings of official regulatory bodies, this company, and/or some of its practices, were flagged as a scam/fraud.", "review": "", "fca_link": "https://www.fca.org.uk/news/warnings/vontobel-customer-service-emily-bianchi-clone-fca-authorised-firm", "logo": "", "screenshot": "", "created_at": "2023-10-19T11:00:00.000000Z", "updated_at": "2023-10-19T11:00:00.000000Z", "website": "", "imposter": false, "copycat": false}, {"id": 10047, "name": "Perfect-Trade", "short_description": "Based on our experience and/or the warnings of official regulatory bodies, this company, and/or some of its practices, were flagged as a scam/fraud.", "review": "", "fca_link": "https://www.fca.org.uk/news/warnings/perfect-tradebiz", "logo": "", "screenshot": "", "created_at": "2023-10-19T11:00:00.000000Z", "updated_at": "2023-10-19T11:00:00.000000Z", "website": "www.Perfect-trade.biz", "imposter": false, "copycat": false}, {"id": 10048, "name": "Blinaru", "short_description": "Based on our experience and/or the warnings of official regulatory bodies, this company, and/or some of its practices, were flagged as a scam/fraud.", "review": "", "fca_link": "https://www.fca.org.uk/news/warnings/blinaru", "logo": "", "screenshot": "", "created_at": "2023-10-19T11:00:00.000000Z", "updated_at": "2023-10-19T11:00:00.000000Z", "website": "https://blinaru.com/", "imposter": false, "copycat": false}, {"id": 10049, "name": "Dealinvestmentpty", "short_description": "Based on our experience and/or the warnings of official regulatory bodies, this company, and/or some of its practices, were flagged as a scam/fraud.", "review": "", "fca_link": "https://www.fca.org.uk/news/warnings/dealinvestmentptycom", "logo": "", "screenshot": "", "created_at": "2023-10-19T11:00:00.000000Z", "updated_at": "2023-10-19T11:00:00.000000Z", "website": "dealinvestmentpty.com", "imposter": false, "copycat": false}, {"id": 10050, "name": "Cropty", "short_description": "Based on our experience and/or the warnings of official regulatory bodies, this company, and/or some of its practices, were flagged as a scam/fraud.", "review": "", "fca_link": "https://www.fca.org.uk/news/warnings/cropty-wwwcroptyio-wwwcroptycom", "logo": "", "screenshot": "", "created_at": "2023-10-19T11:00:00.000000Z", "updated_at": "2023-10-23T11:00:00.000000Z", "website": "www.cropty.com, www.cropty.io", "imposter": false, "copycat": false}, {"id": 10051, "name": "Smart-Traders", "short_description": "Based on our experience and/or the warnings of official regulatory bodies, this company, and/or some of its practices, were flagged as a scam/fraud.", "review": "", "fca_link": "https://www.fca.org.uk/news/warnings/smart-traderstech", "logo": "", "screenshot": "", "created_at": "2023-10-19T11:00:00.000000Z", "updated_at": "2023-10-19T11:00:00.000000Z", "website": "https://smart-traders.tech/", "imposter": false, "copycat": false}, {"id": 10052, "name": "Bullveer", "short_description": "Based on our experience and/or the warnings of official regulatory bodies, this company, and/or some of its practices, were flagged as a scam/fraud.", "review": "", "fca_link": "https://www.fca.org.uk/news/warnings/bullveer", "logo": "", "screenshot": "", "created_at": "2023-10-19T11:00:00.000000Z", "updated_at": "2023-10-19T11:00:00.000000Z", "website": "https://bullveer.com/", "imposter": false, "copycat": false}, {"id": 10053, "name": "Elifx Ltd Trading", "short_description": "Based on our experience and/or the warnings of official regulatory bodies, this company, and/or some of its practices, were flagged as a scam/fraud.", "review": "", "fca_link": "https://www.fca.org.uk/news/warnings/elifx-trading-ltd", "logo": "", "screenshot": "", "created_at": "2023-10-19T11:00:00.000000Z", "updated_at": "2023-10-19T11:00:00.000000Z", "website": "https://elifxtradingltd.com/", "imposter": false, "copycat": false}, {"id": 10054, "name": "Markets Ogm", "short_description": "Based on our experience and/or the warnings of official regulatory bodies, this company, and/or some of its practices, were flagged as a scam/fraud.", "review": "", "fca_link": "https://www.fca.org.uk/news/warnings/ogm-markets-https-ogmmarkets-clone-fca-authorised-firm", "logo": "", "screenshot": "", "created_at": "2023-10-19T11:00:00.000000Z", "updated_at": "2023-10-19T11:00:00.000000Z", "website": "https://ogm.markets/", "imposter": false, "copycat": false}], "first_page_url": "https://api.payback-ltd.com/api/blacklist?page=1", "from": 101, "last_page": 486, "last_page_url": "https://api.payback-ltd.com/api/blacklist?page=486", "links": [{"url": "https://api.payback-ltd.com/api/blacklist?page=4", "label": "&laquo; Previous", "active": false}, {"url": "https://api.payback-ltd.com/api/blacklist?page=1", "label": "1", "active": false}, {"url": "https://api.payback-ltd.com/api/blacklist?page=2", "label": "2", "active": false}, {"url": "https://api.payback-ltd.com/api/blacklist?page=3", "label": "3", "active": false}, {"url": "https://api.payback-ltd.com/api/blacklist?page=4", "label": "4", "active": false}, {"url": "https://api.payback-ltd.com/api/blacklist?page=5", "label": "5", "active": true}, {"url": "https://api.payback-ltd.com/api/blacklist?page=6", "label": "6", "active": false}, {"url": "https://api.payback-ltd.com/api/blacklist?page=7", "label": "7", "active": false}, {"url": "https://api.payback-ltd.com/api/blacklist?page=8", "label": "8", "active": false}, {"url": "https://api.payback-ltd.com/api/blacklist?page=9", "label": "9", "active": false}, {"url": "https://api.payback-ltd.com/api/blacklist?page=10", "label": "10", "active": false}, {"url": null, "label": "...", "active": false}, {"url": "https://api.payback-ltd.com/api/blacklist?page=485", "label": "485", "active": false}, {"url": "https://api.payback-ltd.com/api/blacklist?page=486", "label": "486", "active": false}, {"url": "https://api.payback-ltd.com/api/blacklist?page=6", "label": "Next &raquo;", "active": false}], "next_page_url": "https://api.payback-ltd.com/api/blacklist?page=6", "path": "https://api.payback-ltd.com/api/blacklist", "per_page": 25, "prev_page_url": "https://api.payback-ltd.com/api/blacklist?page=4", "to": 125, "total": 12140}