{"current_page": 14, "data": [{"id": 10255, "name": " All Allassetstrade Assets Trade", "short_description": "Based on our experience and/or the warnings of official regulatory bodies, this company, and/or some of its practices, were flagged as a scam/fraud.", "review": "", "fca_link": "https://www.fca.org.uk/news/warnings/all-assets-trade-allassetstradecom", "logo": "", "screenshot": "", "created_at": "2023-10-08T11:00:00.000000Z", "updated_at": "2023-10-08T11:00:00.000000Z", "website": "https://allassetstrade.com/", "imposter": false, "copycat": false}, {"id": 10256, "name": "Ibinex", "short_description": "Based on our experience and/or the warnings of official regulatory bodies, this company, and/or some of its practices, were flagged as a scam/fraud.", "review": "", "fca_link": "https://www.fca.org.uk/news/warnings/ibinex-https-ibinexcom", "logo": "", "screenshot": "", "created_at": "2023-10-08T11:00:00.000000Z", "updated_at": "2023-10-08T11:00:00.000000Z", "website": "https://ibinex.com/", "imposter": false, "copycat": false}, {"id": 10257, "name": "Crypto-Hood Limited", "short_description": "Based on our experience and/or the warnings of official regulatory bodies, this company, and/or some of its practices, were flagged as a scam/fraud.", "review": "", "fca_link": "https://www.fca.org.uk/news/warnings/crypto-hood-limited", "logo": "", "screenshot": "", "created_at": "2023-10-08T11:00:00.000000Z", "updated_at": "2023-10-08T11:00:00.000000Z", "website": "www.crypto-hood.org", "imposter": false, "copycat": false}, {"id": 10258, "name": "Investment Paygold", "short_description": "Based on our experience and/or the warnings of official regulatory bodies, this company, and/or some of its practices, were flagged as a scam/fraud.", "review": "", "fca_link": "https://www.fca.org.uk/news/warnings/paygold-investment", "logo": "", "screenshot": "", "created_at": "2023-10-08T11:00:00.000000Z", "updated_at": "2023-10-08T11:00:00.000000Z", "website": "https://paygold-investment.ltd/", "imposter": false, "copycat": false}, {"id": 10259, "name": "Cryptovision", "short_description": "Based on our experience and/or the warnings of official regulatory bodies, this company, and/or some of its practices, were flagged as a scam/fraud.", "review": "", "fca_link": "https://www.fca.org.uk/news/warnings/cryptovision-cryptovisionuk", "logo": "", "screenshot": "", "created_at": "2023-10-08T11:00:00.000000Z", "updated_at": "2023-10-08T11:00:00.000000Z", "website": "https://cryptovision.uk/", "imposter": false, "copycat": false}, {"id": 10260, "name": "Crypto Empire Investment", "short_description": "Based on our experience and/or the warnings of official regulatory bodies, this company, and/or some of its practices, were flagged as a scam/fraud.", "review": "", "fca_link": "https://www.fca.org.uk/news/warnings/crypto-empire-investment", "logo": "", "screenshot": "", "created_at": "2023-10-08T11:00:00.000000Z", "updated_at": "2023-10-08T11:00:00.000000Z", "website": "www.cryptoempireinvestment.com", "imposter": false, "copycat": false}, {"id": 10261, "name": "Lobofx", "short_description": "Based on our experience and/or the warnings of official regulatory bodies, this company, and/or some of its practices, were flagged as a scam/fraud.", "review": "", "fca_link": "https://www.fca.org.uk/news/warnings/lobofxcom", "logo": "", "screenshot": "", "created_at": "2023-10-08T11:00:00.000000Z", "updated_at": "2023-10-08T11:00:00.000000Z", "website": "lobofx.com", "imposter": false, "copycat": false}, {"id": 10262, "name": " Forex Fxs Fxsproinvestmentforex Investment Pro", "short_description": "Based on our experience and/or the warnings of official regulatory bodies, this company, and/or some of its practices, were flagged as a scam/fraud.", "review": "", "fca_link": "https://www.fca.org.uk/news/warnings/fxs-pro-investment-forex-https-fxsproinvestmentforexcom", "logo": "", "screenshot": "", "created_at": "2023-10-08T11:00:00.000000Z", "updated_at": "2023-10-08T11:00:00.000000Z", "website": "https://fxsproinvestmentforex.com/home/", "imposter": false, "copycat": false}, {"id": 10263, "name": "Crypto Desk Gain Ltd", "short_description": "Based on our experience and/or the warnings of official regulatory bodies, this company, and/or some of its practices, were flagged as a scam/fraud.", "review": "", "fca_link": "https://www.fca.org.uk/news/warnings/crypto-desk-gain-ltd", "logo": "", "screenshot": "", "created_at": "2023-10-08T11:00:00.000000Z", "updated_at": "2023-10-08T11:00:00.000000Z", "website": "https://cryptodeskgain.net", "imposter": false, "copycat": false}, {"id": 10264, "name": "Baze Bazecapital Capital", "short_description": "Based on our experience and/or the warnings of official regulatory bodies, this company, and/or some of its practices, were flagged as a scam/fraud.", "review": "", "fca_link": "https://www.fca.org.uk/news/warnings/baze-capital-bazecapital", "logo": "", "screenshot": "", "created_at": "2023-10-08T11:00:00.000000Z", "updated_at": "2023-10-08T11:00:00.000000Z", "website": "www.bazecapital.com", "imposter": false, "copycat": false}, {"id": 10265, "name": "Crypto Mining Option", "short_description": "Based on our experience and/or the warnings of official regulatory bodies, this company, and/or some of its practices, were flagged as a scam/fraud.", "review": "", "fca_link": "https://www.fca.org.uk/news/warnings/crypto-mining-option", "logo": "", "screenshot": "", "created_at": "2023-10-08T11:00:00.000000Z", "updated_at": "2023-10-08T11:00:00.000000Z", "website": "https://cryptominingoption.pro/", "imposter": false, "copycat": false}, {"id": 10266, "name": "Limited Trade Xstream", "short_description": "Based on our experience and/or the warnings of official regulatory bodies, this company, and/or some of its practices, were flagged as a scam/fraud.", "review": "", "fca_link": "https://www.fca.org.uk/news/warnings/xstream-trade-limited", "logo": "", "screenshot": "", "created_at": "2023-10-08T11:00:00.000000Z", "updated_at": "2023-10-08T11:00:00.000000Z", "website": "www.xstreamtradelimited.com", "imposter": false, "copycat": false}, {"id": 10267, "name": "Horizon-Enterprisefx", "short_description": "Based on our experience and/or the warnings of official regulatory bodies, this company, and/or some of its practices, were flagged as a scam/fraud.", "review": "", "fca_link": "https://www.fca.org.uk/news/warnings/horizon-enterprisefxclub", "logo": "", "screenshot": "", "created_at": "2023-10-08T11:00:00.000000Z", "updated_at": "2023-10-08T11:00:00.000000Z", "website": "Horizon-enterpriseFX.club", "imposter": false, "copycat": false}, {"id": 10268, "name": "Crypto-Benefits247 Crypto-Cenefits247", "short_description": "Based on our experience and/or the warnings of official regulatory bodies, this company, and/or some of its practices, were flagged as a scam/fraud.", "review": "", "fca_link": "https://www.fca.org.uk/news/warnings/crypto-cenefits247-crypto-benefits247", "logo": "", "screenshot": "", "created_at": "2023-10-08T11:00:00.000000Z", "updated_at": "2023-10-08T11:00:00.000000Z", "website": "https://crypto-benefits247.com/", "imposter": false, "copycat": false}, {"id": 10269, "name": "Bitcoinstart Hyipdemo Invest Live Meta", "short_description": "Based on our experience and/or the warnings of official regulatory bodies, this company, and/or some of its practices, were flagged as a scam/fraud.", "review": "", "fca_link": "https://www.fca.org.uk/news/warnings/meta-live-invest-metaliveinvestltd-bitcoinstart-hyipdemo-demobitcoinstartwebsite", "logo": "", "screenshot": "", "created_at": "2023-10-08T11:00:00.000000Z", "updated_at": "2023-10-08T11:00:00.000000Z", "website": "https://metaliveinvest.ltd/, https://demo.bitcoinstart.website/", "imposter": false, "copycat": false}, {"id": 10270, "name": " Crypto-Insure Cryptoinsure", "short_description": "Based on our experience and/or the warnings of official regulatory bodies, this company, and/or some of its practices, were flagged as a scam/fraud.", "review": "", "fca_link": "https://www.fca.org.uk/news/warnings/cryptoinsure-https-crypto-insurecom", "logo": "", "screenshot": "", "created_at": "2023-10-08T11:00:00.000000Z", "updated_at": "2023-10-08T11:00:00.000000Z", "website": "https://crypto-insure.com/", "imposter": false, "copycat": false}, {"id": 10271, "name": "Ameliafx Ameliafxtrade24 Trade", "short_description": "Based on our experience and/or the warnings of official regulatory bodies, this company, and/or some of its practices, were flagged as a scam/fraud.", "review": "", "fca_link": "https://www.fca.org.uk/news/warnings/ameliafx-trade-ameliafxtrade24com", "logo": "", "screenshot": "", "created_at": "2023-10-08T11:00:00.000000Z", "updated_at": "2023-10-08T11:00:00.000000Z", "website": "http://ameliafxtrade24.com", "imposter": false, "copycat": false}, {"id": 10272, "name": "Bitvest Crypto Trade", "short_description": "Based on our experience and/or the warnings of official regulatory bodies, this company, and/or some of its practices, were flagged as a scam/fraud.", "review": "", "fca_link": "https://www.fca.org.uk/news/warnings/bitvest-crypto-trade", "logo": "", "screenshot": "", "created_at": "2023-10-08T11:00:00.000000Z", "updated_at": "2023-10-08T11:00:00.000000Z", "website": "https://bitvestcryptotrade.com/", "imposter": false, "copycat": false}, {"id": 10273, "name": "Satun-Fx", "short_description": "Based on our experience and/or the warnings of official regulatory bodies, this company, and/or some of its practices, were flagged as a scam/fraud.", "review": "", "fca_link": "https://www.fca.org.uk/news/warnings/satun-fx", "logo": "", "screenshot": "", "created_at": "2023-10-08T11:00:00.000000Z", "updated_at": "2023-10-08T11:00:00.000000Z", "website": "www.satun-fx.co, satun-fx.co", "imposter": false, "copycat": false}, {"id": 10274, "name": "Globaltradingfund", "short_description": "Based on our experience and/or the warnings of official regulatory bodies, this company, and/or some of its practices, were flagged as a scam/fraud.", "review": "", "fca_link": "https://www.fca.org.uk/news/warnings/globaltradingfund", "logo": "", "screenshot": "", "created_at": "2023-10-08T11:00:00.000000Z", "updated_at": "2023-10-08T11:00:00.000000Z", "website": "https://globaltradingfund.com/", "imposter": false, "copycat": false}, {"id": 10275, "name": "Xtrembitefx", "short_description": "Based on our experience and/or the warnings of official regulatory bodies, this company, and/or some of its practices, were flagged as a scam/fraud.", "review": "", "fca_link": "https://www.fca.org.uk/news/warnings/xtrembitefx-xtrembitefxnet", "logo": "", "screenshot": "", "created_at": "2023-10-08T11:00:00.000000Z", "updated_at": "2023-10-08T11:00:00.000000Z", "website": "https://xtrembitefx.net/", "imposter": false, "copycat": false}, {"id": 10276, "name": "Bitcorp Investment", "short_description": "Based on our experience and/or the warnings of official regulatory bodies, this company, and/or some of its practices, were flagged as a scam/fraud.", "review": "", "fca_link": "https://www.fca.org.uk/news/warnings/bitcorp-investment", "logo": "", "screenshot": "", "created_at": "2023-10-08T11:00:00.000000Z", "updated_at": "2023-10-08T11:00:00.000000Z", "website": "https://bitcorp-investment.com/", "imposter": false, "copycat": false}, {"id": 10277, "name": "Bitlink Crypto Investment", "short_description": "Based on our experience and/or the warnings of official regulatory bodies, this company, and/or some of its practices, were flagged as a scam/fraud.", "review": "", "fca_link": "https://www.fca.org.uk/news/warnings/bitlink-crypto-investment", "logo": "", "screenshot": "", "created_at": "2023-10-08T11:00:00.000000Z", "updated_at": "2023-10-08T11:00:00.000000Z", "website": "https://bitlinkcrypto.com/", "imposter": false, "copycat": false}, {"id": 10278, "name": "Exovetech", "short_description": "Based on our experience and/or the warnings of official regulatory bodies, this company, and/or some of its practices, were flagged as a scam/fraud.", "review": "", "fca_link": "https://www.fca.org.uk/news/warnings/exovetech-exovetechcom", "logo": "", "screenshot": "", "created_at": "2023-10-08T11:00:00.000000Z", "updated_at": "2023-10-08T11:00:00.000000Z", "website": "exovetech.com", "imposter": false, "copycat": false}, {"id": 10279, "name": "Alphacapitalanalysispro Market", "short_description": "Based on our experience and/or the warnings of official regulatory bodies, this company, and/or some of its practices, were flagged as a scam/fraud.", "review": "", "fca_link": "https://www.fca.org.uk/news/warnings/alphacapitalanalysispro-market", "logo": "", "screenshot": "", "created_at": "2023-10-08T11:00:00.000000Z", "updated_at": "2023-10-08T11:00:00.000000Z", "website": "https://alphacapitalanalysispro.com/", "imposter": false, "copycat": false}], "first_page_url": "https://api.payback-ltd.com/api/blacklist?page=1", "from": 326, "last_page": 486, "last_page_url": "https://api.payback-ltd.com/api/blacklist?page=486", "links": [{"url": "https://api.payback-ltd.com/api/blacklist?page=13", "label": "&laquo; Previous", "active": false}, {"url": "https://api.payback-ltd.com/api/blacklist?page=1", "label": "1", "active": false}, {"url": "https://api.payback-ltd.com/api/blacklist?page=2", "label": "2", "active": false}, {"url": null, "label": "...", "active": false}, {"url": "https://api.payback-ltd.com/api/blacklist?page=11", "label": "11", "active": false}, {"url": "https://api.payback-ltd.com/api/blacklist?page=12", "label": "12", "active": false}, {"url": "https://api.payback-ltd.com/api/blacklist?page=13", "label": "13", "active": false}, {"url": "https://api.payback-ltd.com/api/blacklist?page=14", "label": "14", "active": true}, {"url": "https://api.payback-ltd.com/api/blacklist?page=15", "label": "15", "active": false}, {"url": "https://api.payback-ltd.com/api/blacklist?page=16", "label": "16", "active": false}, {"url": "https://api.payback-ltd.com/api/blacklist?page=17", "label": "17", "active": false}, {"url": null, "label": "...", "active": false}, {"url": "https://api.payback-ltd.com/api/blacklist?page=485", "label": "485", "active": false}, {"url": "https://api.payback-ltd.com/api/blacklist?page=486", "label": "486", "active": false}, {"url": "https://api.payback-ltd.com/api/blacklist?page=15", "label": "Next &raquo;", "active": false}], "next_page_url": "https://api.payback-ltd.com/api/blacklist?page=15", "path": "https://api.payback-ltd.com/api/blacklist", "per_page": 25, "prev_page_url": "https://api.payback-ltd.com/api/blacklist?page=13", "to": 350, "total": 12140}