{"current_page": 92, "data": [{"id": 12205, "name": "Affluentprimefxt", "short_description": "Based on our experience and/or the warnings of official regulatory bodies, this company, and/or some of its practices, were flagged as a scam/fraud.", "review": "", "fca_link": "https://www.fca.org.uk/news/warnings/affluentprimefxt", "logo": "", "screenshot": "", "created_at": "2022-10-24T11:00:00.000000Z", "updated_at": "2022-10-27T11:00:00.000000Z", "website": "www.affluentprimefxt.com", "imposter": false, "copycat": false}, {"id": 12206, "name": "Camellus Claims Law Ltd Mortgage Securitisation", "short_description": "Based on our experience and/or the warnings of official regulatory bodies, this company, and/or some of its practices, were flagged as a scam/fraud.", "review": "", "fca_link": "https://www.fca.org.uk/news/warnings/mortgage-securitisation-claims-ltd-camellus-law", "logo": "", "screenshot": "", "created_at": "2022-10-21T11:00:00.000000Z", "updated_at": "2022-10-24T11:00:00.000000Z", "website": "www.camelluslaw.co.uk, www.yourmsc.co.uk", "imposter": false, "copycat": false}, {"id": 12207, "name": "Edwards W", "short_description": "Based on our experience and/or the warnings of official regulatory bodies, this company, and/or some of its practices, were flagged as a scam/fraud.", "review": "", "fca_link": "https://www.fca.org.uk/news/warnings/wj-edwards", "logo": "", "screenshot": "", "created_at": "2022-10-21T11:00:00.000000Z", "updated_at": "2022-10-21T11:00:00.000000Z", "website": "wjedwards.uk, wjedwardsltd.co.uk", "imposter": false, "copycat": false}, {"id": 12208, "name": "Exnessfxcapital", "short_description": "Based on our experience and/or the warnings of official regulatory bodies, this company, and/or some of its practices, were flagged as a scam/fraud.", "review": "", "fca_link": "https://www.fca.org.uk/news/warnings/exnessfxcapital", "logo": "", "screenshot": "", "created_at": "2022-10-21T11:00:00.000000Z", "updated_at": "2022-10-21T11:00:00.000000Z", "website": "https://exnessfxcapital.com/", "imposter": false, "copycat": false}, {"id": 12209, "name": "Fx-Trusttrade", "short_description": "Based on our experience and/or the warnings of official regulatory bodies, this company, and/or some of its practices, were flagged as a scam/fraud.", "review": "", "fca_link": "https://www.fca.org.uk/news/warnings/fx-trusttrade", "logo": "", "screenshot": "", "created_at": "2022-10-21T11:00:00.000000Z", "updated_at": "2022-11-17T12:00:00.000000Z", "website": "www.fx-trusttrade.ltd, https://fx-trusttrade.org", "imposter": false, "copycat": false}, {"id": 12210, "name": "Fx-Cashtrading", "short_description": "Based on our experience and/or the warnings of official regulatory bodies, this company, and/or some of its practices, were flagged as a scam/fraud.", "review": "", "fca_link": "https://www.fca.org.uk/news/warnings/fx-cashtradingltd", "logo": "", "screenshot": "", "created_at": "2022-10-21T11:00:00.000000Z", "updated_at": "2022-10-21T11:00:00.000000Z", "website": "https://fx-cashtrading.ltd/", "imposter": false, "copycat": false}, {"id": 12211, "name": "Bbitfx", "short_description": "Based on our experience and/or the warnings of official regulatory bodies, this company, and/or some of its practices, were flagged as a scam/fraud.", "review": "", "fca_link": "https://www.fca.org.uk/news/warnings/bbitfx", "logo": "", "screenshot": "", "created_at": "2022-10-21T11:00:00.000000Z", "updated_at": "2022-10-21T11:00:00.000000Z", "website": "https://bbitfx.org/", "imposter": false, "copycat": false}, {"id": 12212, "name": "Finssobank", "short_description": "Based on our experience and/or the warnings of official regulatory bodies, this company, and/or some of its practices, were flagged as a scam/fraud.", "review": "", "fca_link": "https://www.fca.org.uk/news/warnings/finssobank", "logo": "", "screenshot": "", "created_at": "2022-10-21T11:00:00.000000Z", "updated_at": "2022-10-21T11:00:00.000000Z", "website": "www.finssobank.com", "imposter": false, "copycat": false}, {"id": 12213, "name": "Altima Trade", "short_description": "Based on our experience and/or the warnings of official regulatory bodies, this company, and/or some of its practices, were flagged as a scam/fraud.", "review": "", "fca_link": "https://www.fca.org.uk/news/warnings/altima-trade-clone-authorised-schedule-5-firm", "logo": "", "screenshot": "", "created_at": "2022-10-21T11:00:00.000000Z", "updated_at": "2022-10-21T11:00:00.000000Z", "website": "www.altimatrade.pro, https://altimatrade.co", "imposter": false, "copycat": false}, {"id": 12214, "name": "Global Limited Tf", "short_description": "Based on our experience and/or the warnings of official regulatory bodies, this company, and/or some of its practices, were flagged as a scam/fraud.", "review": "", "fca_link": "https://www.fca.org.uk/news/warnings/tf-global-limited", "logo": "", "screenshot": "", "created_at": "2022-10-21T11:00:00.000000Z", "updated_at": "2022-10-26T11:00:00.000000Z", "website": "https://turtle-forex.com/", "imposter": false, "copycat": false}, {"id": 12215, "name": "Tiptopsmarkets", "short_description": "Based on our experience and/or the warnings of official regulatory bodies, this company, and/or some of its practices, were flagged as a scam/fraud.", "review": "", "fca_link": "https://www.fca.org.uk/news/warnings/tiptopsmarkets", "logo": "", "screenshot": "", "created_at": "2022-10-21T11:00:00.000000Z", "updated_at": "2022-10-26T11:00:00.000000Z", "website": "https://t-topsmarkets.com/", "imposter": false, "copycat": false}, {"id": 12216, "name": "Invest Win-Trade", "short_description": "Based on our experience and/or the warnings of official regulatory bodies, this company, and/or some of its practices, were flagged as a scam/fraud.", "review": "", "fca_link": "https://www.fca.org.uk/news/warnings/win-trade-invest", "logo": "", "screenshot": "", "created_at": "2022-10-21T11:00:00.000000Z", "updated_at": "2022-10-21T11:00:00.000000Z", "website": "www.win-tradeinvest.com", "imposter": false, "copycat": false}, {"id": 12217, "name": "Kedextradingfx", "short_description": "Based on our experience and/or the warnings of official regulatory bodies, this company, and/or some of its practices, were flagged as a scam/fraud.", "review": "", "fca_link": "https://www.fca.org.uk/news/warnings/kedextradingfx", "logo": "", "screenshot": "", "created_at": "2022-10-21T11:00:00.000000Z", "updated_at": "2022-10-21T11:00:00.000000Z", "website": "www.kedextradingfx.com", "imposter": false, "copycat": false}, {"id": 12218, "name": "Checkerbits Investment Ltd", "short_description": "Based on our experience and/or the warnings of official regulatory bodies, this company, and/or some of its practices, were flagged as a scam/fraud.", "review": "", "fca_link": "https://www.fca.org.uk/news/warnings/checkerbits-investment-ltd", "logo": "", "screenshot": "", "created_at": "2022-10-21T11:00:00.000000Z", "updated_at": "2022-10-21T11:00:00.000000Z", "website": "www.checkerbitsinvestment.com", "imposter": false, "copycat": false}, {"id": 12219, "name": "Swashinvest", "short_description": "Based on our experience and/or the warnings of official regulatory bodies, this company, and/or some of its practices, were flagged as a scam/fraud.", "review": "", "fca_link": "https://www.fca.org.uk/news/warnings/swashinvestcom", "logo": "", "screenshot": "", "created_at": "2022-10-21T11:00:00.000000Z", "updated_at": "2022-10-21T11:00:00.000000Z", "website": "www.swashinvest.com", "imposter": false, "copycat": false}, {"id": 12220, "name": "Liquidity Swap", "short_description": "Based on our experience and/or the warnings of official regulatory bodies, this company, and/or some of its practices, were flagged as a scam/fraud.", "review": "", "fca_link": "https://www.fca.org.uk/news/warnings/liquidity-swap-clone-fca-authorised-firm", "logo": "", "screenshot": "", "created_at": "2022-10-20T11:00:00.000000Z", "updated_at": "2022-10-20T11:00:00.000000Z", "website": "www.liquidityswap.vip", "imposter": false, "copycat": false}, {"id": 12221, "name": "Fixed Income", "short_description": "Based on our experience and/or the warnings of official regulatory bodies, this company, and/or some of its practices, were flagged as a scam/fraud.", "review": "", "fca_link": "https://www.fca.org.uk/news/warnings/fixed-income-0", "logo": "", "screenshot": "", "created_at": "2022-10-19T11:00:00.000000Z", "updated_at": "2022-10-19T11:00:00.000000Z", "website": "https://fixed-income.info/", "imposter": false, "copycat": false}, {"id": 12222, "name": "Bank First Urban", "short_description": "Based on our experience and/or the warnings of official regulatory bodies, this company, and/or some of its practices, were flagged as a scam/fraud.", "review": "", "fca_link": "https://www.fca.org.uk/news/warnings/first-urban-bank", "logo": "", "screenshot": "", "created_at": "2022-10-19T11:00:00.000000Z", "updated_at": "2022-10-19T11:00:00.000000Z", "website": "www.firsturbanbank.com", "imposter": false, "copycat": false}, {"id": 12223, "name": "All Bank Citizen", "short_description": "Based on our experience and/or the warnings of official regulatory bodies, this company, and/or some of its practices, were flagged as a scam/fraud.", "review": "", "fca_link": "https://www.fca.org.uk/news/warnings/all-citizen-bank", "logo": "", "screenshot": "", "created_at": "2022-10-19T11:00:00.000000Z", "updated_at": "2022-10-19T11:00:00.000000Z", "website": "www.allcitizenbank.com", "imposter": false, "copycat": false}, {"id": 12224, "name": "Global Income Trade", "short_description": "Based on our experience and/or the warnings of official regulatory bodies, this company, and/or some of its practices, were flagged as a scam/fraud.", "review": "", "fca_link": "https://www.fca.org.uk/news/warnings/global-income-trade", "logo": "", "screenshot": "", "created_at": "2022-10-19T11:00:00.000000Z", "updated_at": "2022-10-19T11:00:00.000000Z", "website": "www.globalincometrade.net", "imposter": false, "copycat": false}, {"id": 12225, "name": "Market On Us", "short_description": "Based on our experience and/or the warnings of official regulatory bodies, this company, and/or some of its practices, were flagged as a scam/fraud.", "review": "", "fca_link": "https://www.fca.org.uk/news/warnings/market-us", "logo": "", "screenshot": "", "created_at": "2022-10-19T11:00:00.000000Z", "updated_at": "2022-10-19T11:00:00.000000Z", "website": "www.marketonus.co.uk", "imposter": false, "copycat": false}, {"id": 12226, "name": "Crystal Investment Profit", "short_description": "Based on our experience and/or the warnings of official regulatory bodies, this company, and/or some of its practices, were flagged as a scam/fraud.", "review": "", "fca_link": "https://www.fca.org.uk/news/warnings/crystal-investment-profit", "logo": "", "screenshot": "", "created_at": "2022-10-19T11:00:00.000000Z", "updated_at": "2022-10-19T11:00:00.000000Z", "website": "www.crystalinvestmentprofit.com", "imposter": false, "copycat": false}, {"id": 12227, "name": "Soarfxgb", "short_description": "Based on our experience and/or the warnings of official regulatory bodies, this company, and/or some of its practices, were flagged as a scam/fraud.", "review": "", "fca_link": "https://www.fca.org.uk/news/warnings/soarfxgb", "logo": "", "screenshot": "", "created_at": "2022-10-19T11:00:00.000000Z", "updated_at": "2022-10-26T11:00:00.000000Z", "website": "https://soarfxgb.net/", "imposter": false, "copycat": false}, {"id": 12228, "name": "Richcoinfx", "short_description": "Based on our experience and/or the warnings of official regulatory bodies, this company, and/or some of its practices, were flagged as a scam/fraud.", "review": "", "fca_link": "https://www.fca.org.uk/news/warnings/richcoinfx", "logo": "", "screenshot": "", "created_at": "2022-10-19T11:00:00.000000Z", "updated_at": "2022-10-26T11:00:00.000000Z", "website": "https://richcoinfx.com/", "imposter": false, "copycat": false}, {"id": 12229, "name": "Investments Tech Trade", "short_description": "Based on our experience and/or the warnings of official regulatory bodies, this company, and/or some of its practices, were flagged as a scam/fraud.", "review": "", "fca_link": "https://www.fca.org.uk/news/warnings/trade-tech-investments", "logo": "", "screenshot": "", "created_at": "2022-10-19T11:00:00.000000Z", "updated_at": "2022-10-19T11:00:00.000000Z", "website": "www.tradetechinvestment.com", "imposter": false, "copycat": false}], "first_page_url": "https://api.payback-ltd.com/api/blacklist?page=1", "from": 2276, "last_page": 486, "last_page_url": "https://api.payback-ltd.com/api/blacklist?page=486", "links": [{"url": "https://api.payback-ltd.com/api/blacklist?page=91", "label": "&laquo; Previous", "active": false}, {"url": "https://api.payback-ltd.com/api/blacklist?page=1", "label": "1", "active": false}, {"url": "https://api.payback-ltd.com/api/blacklist?page=2", "label": "2", "active": false}, {"url": null, "label": "...", "active": false}, {"url": "https://api.payback-ltd.com/api/blacklist?page=89", "label": "89", "active": false}, {"url": "https://api.payback-ltd.com/api/blacklist?page=90", "label": "90", "active": false}, {"url": "https://api.payback-ltd.com/api/blacklist?page=91", "label": "91", "active": false}, {"url": "https://api.payback-ltd.com/api/blacklist?page=92", "label": "92", "active": true}, {"url": "https://api.payback-ltd.com/api/blacklist?page=93", "label": "93", "active": false}, {"url": "https://api.payback-ltd.com/api/blacklist?page=94", "label": "94", "active": false}, {"url": "https://api.payback-ltd.com/api/blacklist?page=95", "label": "95", "active": false}, {"url": null, "label": "...", "active": false}, {"url": "https://api.payback-ltd.com/api/blacklist?page=485", "label": "485", "active": false}, {"url": "https://api.payback-ltd.com/api/blacklist?page=486", "label": "486", "active": false}, {"url": "https://api.payback-ltd.com/api/blacklist?page=93", "label": "Next &raquo;", "active": false}], "next_page_url": "https://api.payback-ltd.com/api/blacklist?page=93", "path": "https://api.payback-ltd.com/api/blacklist", "per_page": 25, "prev_page_url": "https://api.payback-ltd.com/api/blacklist?page=91", "to": 2300, "total": 12140}