{"current_page": 78, "data": [{"id": 11855, "name": "Limited Tradelap", "short_description": "Based on our experience and/or the warnings of official regulatory bodies, this company, and/or some of its practices, were flagged as a scam/fraud.", "review": "", "fca_link": "https://www.fca.org.uk/news/warnings/tradelap-limited-clone-fca-authorised-firm", "logo": "", "screenshot": "", "created_at": "2022-12-20T12:00:00.000000Z", "updated_at": "2022-12-20T12:00:00.000000Z", "website": "https://tradelap.net", "imposter": false, "copycat": false}, {"id": 11856, "name": "Fx Fxtradepips Pips Trades", "short_description": "Based on our experience and/or the warnings of official regulatory bodies, this company, and/or some of its practices, were flagged as a scam/fraud.", "review": "", "fca_link": "https://www.fca.org.uk/news/warnings/trades-fx-pips-fxtradepips", "logo": "", "screenshot": "", "created_at": "2022-12-20T12:00:00.000000Z", "updated_at": "2022-12-20T12:00:00.000000Z", "website": "www.tradesforexpips.com", "imposter": false, "copycat": false}, {"id": 11857, "name": "Rci-Uk", "short_description": "Based on our experience and/or the warnings of official regulatory bodies, this company, and/or some of its practices, were flagged as a scam/fraud.", "review": "", "fca_link": "https://www.fca.org.uk/news/warnings/rci-ukcom-clone-fca-authorised-firm", "logo": "", "screenshot": "", "created_at": "2022-12-20T12:00:00.000000Z", "updated_at": "2022-12-20T12:00:00.000000Z", "website": "rci-uk.com", "imposter": false, "copycat": false}, {"id": 11858, "name": "Debts No Say To", "short_description": "Based on our experience and/or the warnings of official regulatory bodies, this company, and/or some of its practices, were flagged as a scam/fraud.", "review": "", "fca_link": "https://www.fca.org.uk/news/warnings/say-no-debts-wwwsaynotodebtscouk", "logo": "", "screenshot": "", "created_at": "2022-12-19T12:00:00.000000Z", "updated_at": "2022-12-19T12:00:00.000000Z", "website": "www.saynotodebts.co.uk", "imposter": false, "copycat": false}, {"id": 11859, "name": "Pretradefx", "short_description": "Based on our experience and/or the warnings of official regulatory bodies, this company, and/or some of its practices, were flagged as a scam/fraud.", "review": "", "fca_link": "https://www.fca.org.uk/news/warnings/pretradefxsite", "logo": "", "screenshot": "", "created_at": "2022-12-19T12:00:00.000000Z", "updated_at": "2022-12-19T12:00:00.000000Z", "website": "www.pretradefx.site", "imposter": false, "copycat": false}, {"id": 11860, "name": "Capitextfx", "short_description": "Based on our experience and/or the warnings of official regulatory bodies, this company, and/or some of its practices, were flagged as a scam/fraud.", "review": "", "fca_link": "https://www.fca.org.uk/news/warnings/capitextfx", "logo": "", "screenshot": "", "created_at": "2022-12-19T12:00:00.000000Z", "updated_at": "2022-12-19T12:00:00.000000Z", "website": "www.capitextfx.com", "imposter": false, "copycat": false}, {"id": 11861, "name": "Cryptoboasting", "short_description": "Based on our experience and/or the warnings of official regulatory bodies, this company, and/or some of its practices, were flagged as a scam/fraud.", "review": "", "fca_link": "https://www.fca.org.uk/news/warnings/cryptoboasting", "logo": "", "screenshot": "", "created_at": "2022-12-19T12:00:00.000000Z", "updated_at": "2022-12-19T12:00:00.000000Z", "website": "www.cryptoboasting.online", "imposter": false, "copycat": false}, {"id": 11862, "name": "Crypto Currency Standard", "short_description": "Based on our experience and/or the warnings of official regulatory bodies, this company, and/or some of its practices, were flagged as a scam/fraud.", "review": "", "fca_link": "https://www.fca.org.uk/news/warnings/standard-crypto-currency", "logo": "", "screenshot": "", "created_at": "2022-12-19T12:00:00.000000Z", "updated_at": "2022-12-19T12:00:00.000000Z", "website": "www.standardcryptocurrency.net", "imposter": false, "copycat": false}, {"id": 11863, "name": "Hfx Swiftcapita", "short_description": "Based on our experience and/or the warnings of official regulatory bodies, this company, and/or some of its practices, were flagged as a scam/fraud.", "review": "", "fca_link": "https://www.fca.org.uk/news/warnings/hfx-swiftcapita", "logo": "", "screenshot": "", "created_at": "2022-12-19T12:00:00.000000Z", "updated_at": "2022-12-19T12:00:00.000000Z", "website": "www.hfx-swiftcapita.com", "imposter": false, "copycat": false}, {"id": 11864, "name": "Chandfxltd", "short_description": "Based on our experience and/or the warnings of official regulatory bodies, this company, and/or some of its practices, were flagged as a scam/fraud.", "review": "", "fca_link": "https://www.fca.org.uk/news/warnings/chandfxltd", "logo": "", "screenshot": "", "created_at": "2022-12-19T12:00:00.000000Z", "updated_at": "2022-12-19T12:00:00.000000Z", "website": "www.chandfxl.com", "imposter": false, "copycat": false}, {"id": 11865, "name": "Powerbitfxsignal", "short_description": "Based on our experience and/or the warnings of official regulatory bodies, this company, and/or some of its practices, were flagged as a scam/fraud.", "review": "", "fca_link": "https://www.fca.org.uk/news/warnings/powerbitfxsignal", "logo": "", "screenshot": "", "created_at": "2022-12-19T12:00:00.000000Z", "updated_at": "2022-12-19T12:00:00.000000Z", "website": "www.powerbitfxsignal.com", "imposter": false, "copycat": false}, {"id": 11866, "name": "Saxofxcompany", "short_description": "Based on our experience and/or the warnings of official regulatory bodies, this company, and/or some of its practices, were flagged as a scam/fraud.", "review": "", "fca_link": "https://www.fca.org.uk/news/warnings/saxofxcompany", "logo": "", "screenshot": "", "created_at": "2022-12-19T12:00:00.000000Z", "updated_at": "2022-12-19T12:00:00.000000Z", "website": "www.saxofxcompany.online", "imposter": false, "copycat": false}, {"id": 11867, "name": "Fx Piper", "short_description": "Based on our experience and/or the warnings of official regulatory bodies, this company, and/or some of its practices, were flagged as a scam/fraud.", "review": "", "fca_link": "https://www.fca.org.uk/news/warnings/piper-fx", "logo": "", "screenshot": "", "created_at": "2022-12-19T12:00:00.000000Z", "updated_at": "2022-12-19T12:00:00.000000Z", "website": "www.piperfx.com", "imposter": false, "copycat": false}, {"id": 11868, "name": "Pelagiabank", "short_description": "Based on our experience and/or the warnings of official regulatory bodies, this company, and/or some of its practices, were flagged as a scam/fraud.", "review": "", "fca_link": "https://www.fca.org.uk/news/warnings/pelagiabank", "logo": "", "screenshot": "", "created_at": "2022-12-19T12:00:00.000000Z", "updated_at": "2022-12-19T12:00:00.000000Z", "website": "www.pelagiabank.com", "imposter": false, "copycat": false}, {"id": 11869, "name": "Fxminim", "short_description": "Based on our experience and/or the warnings of official regulatory bodies, this company, and/or some of its practices, were flagged as a scam/fraud.", "review": "", "fca_link": "https://www.fca.org.uk/news/warnings/fxminim", "logo": "", "screenshot": "", "created_at": "2022-12-19T12:00:00.000000Z", "updated_at": "2022-12-19T12:00:00.000000Z", "website": "https://fxminin.com", "imposter": false, "copycat": false}, {"id": 11870, "name": "Cash Fx Touch", "short_description": "Based on our experience and/or the warnings of official regulatory bodies, this company, and/or some of its practices, were flagged as a scam/fraud.", "review": "", "fca_link": "https://www.fca.org.uk/news/warnings/touch-cash-fx", "logo": "", "screenshot": "", "created_at": "2022-12-19T12:00:00.000000Z", "updated_at": "2022-12-19T12:00:00.000000Z", "website": "https://touchcashfx.com", "imposter": false, "copycat": false}, {"id": 11871, "name": "Vantagefx365", "short_description": "Based on our experience and/or the warnings of official regulatory bodies, this company, and/or some of its practices, were flagged as a scam/fraud.", "review": "", "fca_link": "https://www.fca.org.uk/news/warnings/vantagefx365", "logo": "", "screenshot": "", "created_at": "2022-12-19T12:00:00.000000Z", "updated_at": "2022-12-19T12:00:00.000000Z", "website": "https://vantagefx365.com", "imposter": false, "copycat": false}, {"id": 11872, "name": "Metafx Pay Trading", "short_description": "Based on our experience and/or the warnings of official regulatory bodies, this company, and/or some of its practices, were flagged as a scam/fraud.", "review": "", "fca_link": "https://www.fca.org.uk/news/warnings/metafx-pay-trading", "logo": "", "screenshot": "", "created_at": "2022-12-19T12:00:00.000000Z", "updated_at": "2022-12-19T12:00:00.000000Z", "website": "https://metafxpaytrading.com", "imposter": false, "copycat": false}, {"id": 11873, "name": "Chrimafx", "short_description": "Based on our experience and/or the warnings of official regulatory bodies, this company, and/or some of its practices, were flagged as a scam/fraud.", "review": "", "fca_link": "https://www.fca.org.uk/news/warnings/chrimafx", "logo": "", "screenshot": "", "created_at": "2022-12-19T12:00:00.000000Z", "updated_at": "2022-12-19T12:00:00.000000Z", "website": "www.chrimafx.com", "imposter": false, "copycat": false}, {"id": 11874, "name": "Stonebridgelimited", "short_description": "Based on our experience and/or the warnings of official regulatory bodies, this company, and/or some of its practices, were flagged as a scam/fraud.", "review": "", "fca_link": "https://www.fca.org.uk/news/warnings/wwwstonebridgelimitedcom-clone-fca-authorised-firm", "logo": "", "screenshot": "", "created_at": "2022-12-19T12:00:00.000000Z", "updated_at": "2023-05-16T11:00:00.000000Z", "website": "https://stonebridge-limited.net/, www.stonebridgelimited.com, www.stonebridgelimited.net", "imposter": false, "copycat": false}, {"id": 11875, "name": "Propnexltd", "short_description": "Based on our experience and/or the warnings of official regulatory bodies, this company, and/or some of its practices, were flagged as a scam/fraud.", "review": "", "fca_link": "https://www.fca.org.uk/news/warnings/propnexltdcom", "logo": "", "screenshot": "", "created_at": "2022-12-19T12:00:00.000000Z", "updated_at": "2022-12-20T12:00:00.000000Z", "website": "www.propnexltd.com", "imposter": false, "copycat": false}, {"id": 11876, "name": "Hap2py Happy Penny Uk", "short_description": "Based on our experience and/or the warnings of official regulatory bodies, this company, and/or some of its practices, were flagged as a scam/fraud.", "review": "", "fca_link": "https://www.fca.org.uk/news/warnings/happy-penny-uk-hap2py-penny-clone-fca-authorised-firms", "logo": "", "screenshot": "", "created_at": "2022-12-19T12:00:00.000000Z", "updated_at": "2023-08-04T11:00:00.000000Z", "website": "https://www.hap2pypenny.uk/, https://www.hap2py.org/, www.happypenny.uk", "imposter": false, "copycat": false}, {"id": 11877, "name": "Invest Prime", "short_description": "Based on our experience and/or the warnings of official regulatory bodies, this company, and/or some of its practices, were flagged as a scam/fraud.", "review": "", "fca_link": "https://www.fca.org.uk/news/warnings/prime-invest", "logo": "", "screenshot": "", "created_at": "2022-12-16T12:00:00.000000Z", "updated_at": "2022-12-16T12:00:00.000000Z", "website": "https://primeinv.co/", "imposter": false, "copycat": false}, {"id": 11878, "name": "Assets Orbit", "short_description": "Based on our experience and/or the warnings of official regulatory bodies, this company, and/or some of its practices, were flagged as a scam/fraud.", "review": "", "fca_link": "https://www.fca.org.uk/news/warnings/orbit-assets", "logo": "", "screenshot": "", "created_at": "2022-12-16T12:00:00.000000Z", "updated_at": "2023-07-11T11:00:00.000000Z", "website": "www.orbitassets.co.uk, orbitassets.net", "imposter": false, "copycat": false}, {"id": 11879, "name": "Bullexo", "short_description": "Based on our experience and/or the warnings of official regulatory bodies, this company, and/or some of its practices, were flagged as a scam/fraud.", "review": "", "fca_link": "https://www.fca.org.uk/news/warnings/bullexo", "logo": "", "screenshot": "", "created_at": "2022-12-16T12:00:00.000000Z", "updated_at": "2023-07-04T11:00:00.000000Z", "website": "https://trade.bullexo.net/#/, https://bullexo.com/, bullexo.net", "imposter": false, "copycat": false}], "first_page_url": "https://api.payback-ltd.com/api/blacklist?page=1", "from": 1926, "last_page": 486, "last_page_url": "https://api.payback-ltd.com/api/blacklist?page=486", "links": [{"url": "https://api.payback-ltd.com/api/blacklist?page=77", "label": "&laquo; Previous", "active": false}, {"url": "https://api.payback-ltd.com/api/blacklist?page=1", "label": "1", "active": false}, {"url": "https://api.payback-ltd.com/api/blacklist?page=2", "label": "2", "active": false}, {"url": null, "label": "...", "active": false}, {"url": "https://api.payback-ltd.com/api/blacklist?page=75", "label": "75", "active": false}, {"url": "https://api.payback-ltd.com/api/blacklist?page=76", "label": "76", "active": false}, {"url": "https://api.payback-ltd.com/api/blacklist?page=77", "label": "77", "active": false}, {"url": "https://api.payback-ltd.com/api/blacklist?page=78", "label": "78", "active": true}, {"url": "https://api.payback-ltd.com/api/blacklist?page=79", "label": "79", "active": false}, {"url": "https://api.payback-ltd.com/api/blacklist?page=80", "label": "80", "active": false}, {"url": "https://api.payback-ltd.com/api/blacklist?page=81", "label": "81", "active": false}, {"url": null, "label": "...", "active": false}, {"url": "https://api.payback-ltd.com/api/blacklist?page=485", "label": "485", "active": false}, {"url": "https://api.payback-ltd.com/api/blacklist?page=486", "label": "486", "active": false}, {"url": "https://api.payback-ltd.com/api/blacklist?page=79", "label": "Next &raquo;", "active": false}], "next_page_url": "https://api.payback-ltd.com/api/blacklist?page=79", "path": "https://api.payback-ltd.com/api/blacklist", "per_page": 25, "prev_page_url": "https://api.payback-ltd.com/api/blacklist?page=77", "to": 1950, "total": 12140}