{"current_page": 83, "data": [{"id": 11980, "name": "Cryptocreek-Mining", "short_description": "Based on our experience and/or the warnings of official regulatory bodies, this company, and/or some of its practices, were flagged as a scam/fraud.", "review": "", "fca_link": "https://www.fca.org.uk/news/warnings/cryptocreek-miningcom", "logo": "", "screenshot": "", "created_at": "2022-12-02T12:00:00.000000Z", "updated_at": "2022-12-02T12:00:00.000000Z", "website": "https://cryptocreek-mining.com/", "imposter": false, "copycat": false}, {"id": 11981, "name": "Cointrustfx", "short_description": "Based on our experience and/or the warnings of official regulatory bodies, this company, and/or some of its practices, were flagged as a scam/fraud.", "review": "", "fca_link": "https://www.fca.org.uk/news/warnings/cointrustfx", "logo": "", "screenshot": "", "created_at": "2022-12-01T12:00:00.000000Z", "updated_at": "2022-12-01T12:00:00.000000Z", "website": "www.cointrustfx.online", "imposter": false, "copycat": false}, {"id": 11982, "name": "Advice Help Money", "short_description": "Based on our experience and/or the warnings of official regulatory bodies, this company, and/or some of its practices, were flagged as a scam/fraud.", "review": "", "fca_link": "https://www.fca.org.uk/news/warnings/money-advice-help", "logo": "", "screenshot": "", "created_at": "2022-12-01T12:00:00.000000Z", "updated_at": "2022-12-01T12:00:00.000000Z", "website": "www.moneyadvicehelp.co.uk", "imposter": false, "copycat": false}, {"id": 11983, "name": "Debt Help", "short_description": "Based on our experience and/or the warnings of official regulatory bodies, this company, and/or some of its practices, were flagged as a scam/fraud.", "review": "", "fca_link": "https://www.fca.org.uk/news/warnings/debt-help", "logo": "", "screenshot": "", "created_at": "2022-12-01T12:00:00.000000Z", "updated_at": "2022-12-01T12:00:00.000000Z", "website": "www.debt-help.org", "imposter": false, "copycat": false}, {"id": 11984, "name": "Giscapital", "short_description": "Based on our experience and/or the warnings of official regulatory bodies, this company, and/or some of its practices, were flagged as a scam/fraud.", "review": "", "fca_link": "https://www.fca.org.uk/news/warnings/giscapital-clone-fca-authorised-firm", "logo": "", "screenshot": "", "created_at": "2022-12-01T12:00:00.000000Z", "updated_at": "2022-12-01T12:00:00.000000Z", "website": "www.giscapital.world", "imposter": false, "copycat": false}, {"id": 11985, "name": "Loan Ltd Now Nowloan", "short_description": "Based on our experience and/or the warnings of official regulatory bodies, this company, and/or some of its practices, were flagged as a scam/fraud.", "review": "", "fca_link": "https://www.fca.org.uk/news/warnings/nowloan-now-loan-ltd-clone-fca-authorised-firm", "logo": "", "screenshot": "", "created_at": "2022-12-01T12:00:00.000000Z", "updated_at": "2023-08-17T11:00:00.000000Z", "website": "", "imposter": false, "copycat": false}, {"id": 11986, "name": "Shorecapital", "short_description": "Based on our experience and/or the warnings of official regulatory bodies, this company, and/or some of its practices, were flagged as a scam/fraud.", "review": "", "fca_link": "https://www.fca.org.uk/news/warnings/shorecapitalltd-clone-fca-authorised-firm", "logo": "", "screenshot": "", "created_at": "2022-12-01T12:00:00.000000Z", "updated_at": "2022-12-01T12:00:00.000000Z", "website": "www.shorecapital.ltd", "imposter": false, "copycat": false}, {"id": 11987, "name": "Prime Trade Wealth", "short_description": "Based on our experience and/or the warnings of official regulatory bodies, this company, and/or some of its practices, were flagged as a scam/fraud.", "review": "", "fca_link": "https://www.fca.org.uk/news/warnings/prime-wealth-trade", "logo": "", "screenshot": "", "created_at": "2022-12-01T12:00:00.000000Z", "updated_at": "2022-12-01T12:00:00.000000Z", "website": "www.primewealthtrade.ltd", "imposter": false, "copycat": false}, {"id": 11988, "name": "Bit Fx Stock", "short_description": "Based on our experience and/or the warnings of official regulatory bodies, this company, and/or some of its practices, were flagged as a scam/fraud.", "review": "", "fca_link": "https://www.fca.org.uk/news/warnings/stock-bit-fx", "logo": "", "screenshot": "", "created_at": "2022-12-01T12:00:00.000000Z", "updated_at": "2022-12-01T12:00:00.000000Z", "website": "www.stocksbitfxltd.com", "imposter": false, "copycat": false}, {"id": 11989, "name": "Fx Station Trading", "short_description": "Based on our experience and/or the warnings of official regulatory bodies, this company, and/or some of its practices, were flagged as a scam/fraud.", "review": "", "fca_link": "https://www.fca.org.uk/news/warnings/fx-trading-station", "logo": "", "screenshot": "", "created_at": "2022-12-01T12:00:00.000000Z", "updated_at": "2022-12-02T12:00:00.000000Z", "website": "http://www.fxtradingstation.co.uk/", "imposter": false, "copycat": false}, {"id": 11990, "name": "Ultimatetrustfx", "short_description": "Based on our experience and/or the warnings of official regulatory bodies, this company, and/or some of its practices, were flagged as a scam/fraud.", "review": "", "fca_link": "https://www.fca.org.uk/news/warnings/ultimatetrustfxuk", "logo": "", "screenshot": "", "created_at": "2022-12-01T12:00:00.000000Z", "updated_at": "2022-12-02T12:00:00.000000Z", "website": "http://ultimatetrustfx.uk/", "imposter": false, "copycat": false}, {"id": 11991, "name": "Orbenergy", "short_description": "Based on our experience and/or the warnings of official regulatory bodies, this company, and/or some of its practices, were flagged as a scam/fraud.", "review": "", "fca_link": "https://www.fca.org.uk/news/warnings/orbenergytrade-orbenergyltd-clone-fca-authorised-firm", "logo": "", "screenshot": "", "created_at": "2022-11-30T12:00:00.000000Z", "updated_at": "2023-07-13T11:00:00.000000Z", "website": "https://orbenergy.trade/site, https://orbenergy.ltd/?a=home", "imposter": false, "copycat": false}, {"id": 11992, "name": "Assets Bank Financial", "short_description": "Based on our experience and/or the warnings of official regulatory bodies, this company, and/or some of its practices, were flagged as a scam/fraud.", "review": "", "fca_link": "https://www.fca.org.uk/news/warnings/assets-financial-bank", "logo": "", "screenshot": "", "created_at": "2022-11-30T12:00:00.000000Z", "updated_at": "2022-11-30T12:00:00.000000Z", "website": "www.assetsfinanb.com", "imposter": false, "copycat": false}, {"id": 11993, "name": "Deermarket", "short_description": "Based on our experience and/or the warnings of official regulatory bodies, this company, and/or some of its practices, were flagged as a scam/fraud.", "review": "", "fca_link": "https://www.fca.org.uk/news/warnings/deermarketonline", "logo": "", "screenshot": "", "created_at": "2022-11-30T12:00:00.000000Z", "updated_at": "2022-11-30T12:00:00.000000Z", "website": "www.deermarket.online", "imposter": false, "copycat": false}, {"id": 11994, "name": "Digitalexchange-Assets", "short_description": "Based on our experience and/or the warnings of official regulatory bodies, this company, and/or some of its practices, were flagged as a scam/fraud.", "review": "", "fca_link": "https://www.fca.org.uk/news/warnings/digitalexchange-assetscom", "logo": "", "screenshot": "", "created_at": "2022-11-30T12:00:00.000000Z", "updated_at": "2022-11-30T12:00:00.000000Z", "website": "www.digitalexchange-assets.com", "imposter": false, "copycat": false}, {"id": 11995, "name": "Extremefxmarkets Forex", "short_description": "Based on our experience and/or the warnings of official regulatory bodies, this company, and/or some of its practices, were flagged as a scam/fraud.", "review": "", "fca_link": "https://www.fca.org.uk/news/warnings/extremefxmarkets-forex", "logo": "", "screenshot": "", "created_at": "2022-11-30T12:00:00.000000Z", "updated_at": "2022-11-30T12:00:00.000000Z", "website": "www.extremefxmarket.com", "imposter": false, "copycat": false}, {"id": 11996, "name": "Asset Global Management Wealth", "short_description": "Based on our experience and/or the warnings of official regulatory bodies, this company, and/or some of its practices, were flagged as a scam/fraud.", "review": "", "fca_link": "https://www.fca.org.uk/news/warnings/global-wealth-asset-management", "logo": "", "screenshot": "", "created_at": "2022-11-30T12:00:00.000000Z", "updated_at": "2022-11-30T12:00:00.000000Z", "website": "www.globalwealthasset.ltd", "imposter": false, "copycat": false}, {"id": 11997, "name": "Goldworldcrypto", "short_description": "Based on our experience and/or the warnings of official regulatory bodies, this company, and/or some of its practices, were flagged as a scam/fraud.", "review": "", "fca_link": "https://www.fca.org.uk/news/warnings/goldworldcryptocom", "logo": "", "screenshot": "", "created_at": "2022-11-30T12:00:00.000000Z", "updated_at": "2022-11-30T12:00:00.000000Z", "website": "www.goldworldcrypto.com", "imposter": false, "copycat": false}, {"id": 11998, "name": "Bank Bv", "short_description": "Based on our experience and/or the warnings of official regulatory bodies, this company, and/or some of its practices, were flagged as a scam/fraud.", "review": "", "fca_link": "https://www.fca.org.uk/news/warnings/bv-bank-clone-fca-authorised-firm", "logo": "", "screenshot": "", "created_at": "2022-11-30T12:00:00.000000Z", "updated_at": "2022-11-30T12:00:00.000000Z", "website": "https://b-v-exchange.com/", "imposter": false, "copycat": false}, {"id": 11999, "name": "Cryptofx Marketinginvest", "short_description": "Based on our experience and/or the warnings of official regulatory bodies, this company, and/or some of its practices, were flagged as a scam/fraud.", "review": "", "fca_link": "https://www.fca.org.uk/news/warnings/cryptofx-marketinginvest", "logo": "", "screenshot": "", "created_at": "2022-11-30T12:00:00.000000Z", "updated_at": "2022-11-30T12:00:00.000000Z", "website": "www.cryptofxmarketinginvest.online", "imposter": false, "copycat": false}, {"id": 12000, "name": "Choice First Loan", "short_description": "Based on our experience and/or the warnings of official regulatory bodies, this company, and/or some of its practices, were flagged as a scam/fraud.", "review": "", "fca_link": "https://www.fca.org.uk/news/warnings/first-choice-loan-wwwfirstchoiceloancouk", "logo": "", "screenshot": "", "created_at": "2022-11-30T12:00:00.000000Z", "updated_at": "2023-03-06T12:00:00.000000Z", "website": "www.firstchoiceloan.co.uk", "imposter": false, "copycat": false}, {"id": 12001, "name": "Minnershubs", "short_description": "Based on our experience and/or the warnings of official regulatory bodies, this company, and/or some of its practices, were flagged as a scam/fraud.", "review": "", "fca_link": "https://www.fca.org.uk/news/warnings/minnershubscom", "logo": "", "screenshot": "", "created_at": "2022-11-30T12:00:00.000000Z", "updated_at": "2022-11-30T12:00:00.000000Z", "website": "minnershubs.com", "imposter": false, "copycat": false}, {"id": 12002, "name": "Castle-Invest", "short_description": "Based on our experience and/or the warnings of official regulatory bodies, this company, and/or some of its practices, were flagged as a scam/fraud.", "review": "", "fca_link": "https://www.fca.org.uk/news/warnings/castle-investcom", "logo": "", "screenshot": "", "created_at": "2022-11-30T12:00:00.000000Z", "updated_at": "2022-11-30T12:00:00.000000Z", "website": "https://castle-invest.com/", "imposter": false, "copycat": false}, {"id": 12003, "name": "Diamond Investment", "short_description": "Based on our experience and/or the warnings of official regulatory bodies, this company, and/or some of its practices, were flagged as a scam/fraud.", "review": "", "fca_link": "https://www.fca.org.uk/news/warnings/diamond-investment-0", "logo": "", "screenshot": "", "created_at": "2022-11-30T12:00:00.000000Z", "updated_at": "2022-11-30T12:00:00.000000Z", "website": "www.diamond-investment.co", "imposter": false, "copycat": false}, {"id": 12004, "name": "Coin Express Market", "short_description": "Based on our experience and/or the warnings of official regulatory bodies, this company, and/or some of its practices, were flagged as a scam/fraud.", "review": "", "fca_link": "https://www.fca.org.uk/news/warnings/coin-express-market", "logo": "", "screenshot": "", "created_at": "2022-11-30T12:00:00.000000Z", "updated_at": "2022-11-30T12:00:00.000000Z", "website": "https://coinexpressmarket.com/", "imposter": false, "copycat": false}], "first_page_url": "https://api.payback-ltd.com/api/blacklist?page=1", "from": 2051, "last_page": 486, "last_page_url": "https://api.payback-ltd.com/api/blacklist?page=486", "links": [{"url": "https://api.payback-ltd.com/api/blacklist?page=82", "label": "&laquo; Previous", "active": false}, {"url": "https://api.payback-ltd.com/api/blacklist?page=1", "label": "1", "active": false}, {"url": "https://api.payback-ltd.com/api/blacklist?page=2", "label": "2", "active": false}, {"url": null, "label": "...", "active": false}, {"url": "https://api.payback-ltd.com/api/blacklist?page=80", "label": "80", "active": false}, {"url": "https://api.payback-ltd.com/api/blacklist?page=81", "label": "81", "active": false}, {"url": "https://api.payback-ltd.com/api/blacklist?page=82", "label": "82", "active": false}, {"url": "https://api.payback-ltd.com/api/blacklist?page=83", "label": "83", "active": true}, {"url": "https://api.payback-ltd.com/api/blacklist?page=84", "label": "84", "active": false}, {"url": "https://api.payback-ltd.com/api/blacklist?page=85", "label": "85", "active": false}, {"url": "https://api.payback-ltd.com/api/blacklist?page=86", "label": "86", "active": false}, {"url": null, "label": "...", "active": false}, {"url": "https://api.payback-ltd.com/api/blacklist?page=485", "label": "485", "active": false}, {"url": "https://api.payback-ltd.com/api/blacklist?page=486", "label": "486", "active": false}, {"url": "https://api.payback-ltd.com/api/blacklist?page=84", "label": "Next &raquo;", "active": false}], "next_page_url": "https://api.payback-ltd.com/api/blacklist?page=84", "path": "https://api.payback-ltd.com/api/blacklist", "per_page": 25, "prev_page_url": "https://api.payback-ltd.com/api/blacklist?page=82", "to": 2075, "total": 12140}