{"current_page": 45, "data": [{"id": 11030, "name": "Buy Sell Uk", "short_description": "Based on our experience and/or the warnings of official regulatory bodies, this company, and/or some of its practices, were flagged as a scam/fraud.", "review": "", "fca_link": "https://www.fca.org.uk/news/warnings/uk-buy-sell", "logo": "", "screenshot": "", "created_at": "2023-05-11T11:00:00.000000Z", "updated_at": "2023-05-11T11:00:00.000000Z", "website": "https://ukbuysell.com/", "imposter": false, "copycat": false}, {"id": 11031, "name": "Andre Claims Intelligent Limited Management Megel", "short_description": "Based on our experience and/or the warnings of official regulatory bodies, this company, and/or some of its practices, were flagged as a scam/fraud.", "review": "", "fca_link": "https://www.fca.org.uk/news/warnings/intelligent-claims-management-limited-megel-andre-intelligent-claims-management", "logo": "", "screenshot": "", "created_at": "2023-05-11T11:00:00.000000Z", "updated_at": "2023-05-11T11:00:00.000000Z", "website": "http://intelligentclaimsmanagement.co.uk/personal-injury-claims.html", "imposter": false, "copycat": false}, {"id": 11032, "name": "Accruefx Quantum", "short_description": "Based on our experience and/or the warnings of official regulatory bodies, this company, and/or some of its practices, were flagged as a scam/fraud.", "review": "", "fca_link": "https://www.fca.org.uk/news/warnings/quantum-accruefx", "logo": "", "screenshot": "", "created_at": "2023-05-11T11:00:00.000000Z", "updated_at": "2023-05-11T11:00:00.000000Z", "website": "www.quantumaccruesfx.com", "imposter": false, "copycat": false}, {"id": 11033, "name": "Markets Ocean", "short_description": "Based on our experience and/or the warnings of official regulatory bodies, this company, and/or some of its practices, were flagged as a scam/fraud.", "review": "", "fca_link": "https://www.fca.org.uk/news/warnings/ocean-markets", "logo": "", "screenshot": "", "created_at": "2023-05-11T11:00:00.000000Z", "updated_at": "2023-05-11T11:00:00.000000Z", "website": "www.oceanmarkets.org", "imposter": false, "copycat": false}, {"id": 11034, "name": "Mitradex-Growth", "short_description": "Based on our experience and/or the warnings of official regulatory bodies, this company, and/or some of its practices, were flagged as a scam/fraud.", "review": "", "fca_link": "https://www.fca.org.uk/news/warnings/mitradex-growth", "logo": "", "screenshot": "", "created_at": "2023-05-11T11:00:00.000000Z", "updated_at": "2023-05-11T11:00:00.000000Z", "website": "www.mitradex-growth.com", "imposter": false, "copycat": false}, {"id": 11035, "name": "Expo Trading", "short_description": "Based on our experience and/or the warnings of official regulatory bodies, this company, and/or some of its practices, were flagged as a scam/fraud.", "review": "", "fca_link": "https://www.fca.org.uk/news/warnings/trading-expo", "logo": "", "screenshot": "", "created_at": "2023-05-10T11:00:00.000000Z", "updated_at": "2023-05-10T11:00:00.000000Z", "website": "https://tradingexpo.net/", "imposter": false, "copycat": false}, {"id": 11036, "name": "Great Invest Point", "short_description": "Based on our experience and/or the warnings of official regulatory bodies, this company, and/or some of its practices, were flagged as a scam/fraud.", "review": "", "fca_link": "https://www.fca.org.uk/news/warnings/great-point-invest-clone-fca-authorised-firm", "logo": "", "screenshot": "", "created_at": "2023-05-10T11:00:00.000000Z", "updated_at": "2023-05-10T11:00:00.000000Z", "website": "", "imposter": false, "copycat": false}, {"id": 11037, "name": "Atrion Capital", "short_description": "Based on our experience and/or the warnings of official regulatory bodies, this company, and/or some of its practices, were flagged as a scam/fraud.", "review": "", "fca_link": "https://www.fca.org.uk/news/warnings/atrion-capital-clone-fca-authorised-firm", "logo": "", "screenshot": "", "created_at": "2023-05-10T11:00:00.000000Z", "updated_at": "2023-05-10T11:00:00.000000Z", "website": "https://www.atrioncapital.com/index.html", "imposter": false, "copycat": false}, {"id": 11038, "name": "Limited Pacific Prime Pu Union", "short_description": "Based on our experience and/or the warnings of official regulatory bodies, this company, and/or some of its practices, were flagged as a scam/fraud.", "review": "", "fca_link": "https://www.fca.org.uk/news/warnings/pu-prime-pacific-union-seychelles-limited", "logo": "", "screenshot": "", "created_at": "2023-05-10T11:00:00.000000Z", "updated_at": "2023-05-10T11:00:00.000000Z", "website": "https://puprime.com/", "imposter": false, "copycat": false}, {"id": 11039, "name": "Market Top Top-Market", "short_description": "Based on our experience and/or the warnings of official regulatory bodies, this company, and/or some of its practices, were flagged as a scam/fraud.", "review": "", "fca_link": "https://www.fca.org.uk/news/warnings/top-market-top-marketio", "logo": "", "screenshot": "", "created_at": "2023-05-10T11:00:00.000000Z", "updated_at": "2023-05-10T11:00:00.000000Z", "website": "https://top-market.io", "imposter": false, "copycat": false}, {"id": 11040, "name": "Grease Inc Wallet", "short_description": "Based on our experience and/or the warnings of official regulatory bodies, this company, and/or some of its practices, were flagged as a scam/fraud.", "review": "", "fca_link": "https://www.fca.org.uk/news/warnings/grease-wallet-inc", "logo": "", "screenshot": "", "created_at": "2023-05-10T11:00:00.000000Z", "updated_at": "2023-05-10T11:00:00.000000Z", "website": "www.greasewallet.com", "imposter": false, "copycat": false}, {"id": 11041, "name": "Goldbiz-Trade", "short_description": "Based on our experience and/or the warnings of official regulatory bodies, this company, and/or some of its practices, were flagged as a scam/fraud.", "review": "", "fca_link": "https://www.fca.org.uk/news/warnings/goldbiz-tradecom", "logo": "", "screenshot": "", "created_at": "2023-05-10T11:00:00.000000Z", "updated_at": "2023-05-10T11:00:00.000000Z", "website": "www.goldbiz-trade.com", "imposter": false, "copycat": false}, {"id": 11042, "name": "Mega Tradevest", "short_description": "Based on our experience and/or the warnings of official regulatory bodies, this company, and/or some of its practices, were flagged as a scam/fraud.", "review": "", "fca_link": "https://www.fca.org.uk/news/warnings/mega-tradevest", "logo": "", "screenshot": "", "created_at": "2023-05-10T11:00:00.000000Z", "updated_at": "2023-05-10T11:00:00.000000Z", "website": "www.megatradeinvest.online, www.megatradevest.com", "imposter": false, "copycat": false}, {"id": 11043, "name": "Invest Paypoint", "short_description": "Based on our experience and/or the warnings of official regulatory bodies, this company, and/or some of its practices, were flagged as a scam/fraud.", "review": "", "fca_link": "https://www.fca.org.uk/news/warnings/paypoint-invest", "logo": "", "screenshot": "", "created_at": "2023-05-09T11:00:00.000000Z", "updated_at": "2023-05-09T11:00:00.000000Z", "website": "www.paypoint-invest.site", "imposter": false, "copycat": false}, {"id": 11044, "name": "Global Kintex Ltd", "short_description": "Based on our experience and/or the warnings of official regulatory bodies, this company, and/or some of its practices, were flagged as a scam/fraud.", "review": "", "fca_link": "https://www.fca.org.uk/news/warnings/global-kintex-ltd", "logo": "", "screenshot": "", "created_at": "2023-05-09T11:00:00.000000Z", "updated_at": "2023-05-09T11:00:00.000000Z", "website": "www.global-kintex.ltd", "imposter": false, "copycat": false}, {"id": 11045, "name": "Binary Crypto Ltd Trading", "short_description": "Based on our experience and/or the warnings of official regulatory bodies, this company, and/or some of its practices, were flagged as a scam/fraud.", "review": "", "fca_link": "https://www.fca.org.uk/news/warnings/binary-crypto-trading-ltd", "logo": "", "screenshot": "", "created_at": "2023-05-09T11:00:00.000000Z", "updated_at": "2023-05-09T11:00:00.000000Z", "website": "www.binelitetrade.com", "imposter": false, "copycat": false}, {"id": 11046, "name": "Bullcapitalfx Ltd", "short_description": "Based on our experience and/or the warnings of official regulatory bodies, this company, and/or some of its practices, were flagged as a scam/fraud.", "review": "", "fca_link": "https://www.fca.org.uk/news/warnings/bullcapitalfx-ltd", "logo": "", "screenshot": "", "created_at": "2023-05-09T11:00:00.000000Z", "updated_at": "2023-05-09T11:00:00.000000Z", "website": "www.bullcapitalfx.com", "imposter": false, "copycat": false}, {"id": 11047, "name": "Coinassets Coinassetsfinance Finance", "short_description": "Based on our experience and/or the warnings of official regulatory bodies, this company, and/or some of its practices, were flagged as a scam/fraud.", "review": "", "fca_link": "https://www.fca.org.uk/news/warnings/coinassets-finance-coinassetsfinance", "logo": "", "screenshot": "", "created_at": "2023-05-09T11:00:00.000000Z", "updated_at": "2023-05-09T11:00:00.000000Z", "website": "www.coinassetsfinance.com", "imposter": false, "copycat": false}, {"id": 11048, "name": "Tradepip", "short_description": "Based on our experience and/or the warnings of official regulatory bodies, this company, and/or some of its practices, were flagged as a scam/fraud.", "review": "", "fca_link": "https://www.fca.org.uk/news/warnings/tradepip", "logo": "", "screenshot": "", "created_at": "2023-05-09T11:00:00.000000Z", "updated_at": "2023-05-09T11:00:00.000000Z", "website": "www.tradepip.online", "imposter": false, "copycat": false}, {"id": 11049, "name": "Market Trading Ultimate", "short_description": "Based on our experience and/or the warnings of official regulatory bodies, this company, and/or some of its practices, were flagged as a scam/fraud.", "review": "", "fca_link": "https://www.fca.org.uk/news/warnings/ultimate-market-trading", "logo": "", "screenshot": "", "created_at": "2023-05-09T11:00:00.000000Z", "updated_at": "2023-05-09T11:00:00.000000Z", "website": "www.ultimate-markets-trading.com", "imposter": false, "copycat": false}, {"id": 11050, "name": "Fx Limited Wayven", "short_description": "Based on our experience and/or the warnings of official regulatory bodies, this company, and/or some of its practices, were flagged as a scam/fraud.", "review": "", "fca_link": "https://www.fca.org.uk/news/warnings/wayven-fx-limited-clone-fca-authorised-firm", "logo": "", "screenshot": "", "created_at": "2023-05-05T11:00:00.000000Z", "updated_at": "2023-05-05T11:00:00.000000Z", "website": "https://wayvenfx.com/", "imposter": false, "copycat": false}, {"id": 11051, "name": "7antminingtrade", "short_description": "Based on our experience and/or the warnings of official regulatory bodies, this company, and/or some of its practices, were flagged as a scam/fraud.", "review": "", "fca_link": "https://www.fca.org.uk/news/warnings/247antminingtrade", "logo": "", "screenshot": "", "created_at": "2023-05-05T11:00:00.000000Z", "updated_at": "2023-05-05T11:00:00.000000Z", "website": "www.247antminingtrade.com", "imposter": false, "copycat": false}, {"id": 11052, "name": "Farm Money", "short_description": "Based on our experience and/or the warnings of official regulatory bodies, this company, and/or some of its practices, were flagged as a scam/fraud.", "review": "", "fca_link": "https://www.fca.org.uk/news/warnings/money-farm-clone-fca-authorised-firm", "logo": "", "screenshot": "", "created_at": "2023-05-05T11:00:00.000000Z", "updated_at": "2023-05-05T11:00:00.000000Z", "website": "https://moneyfarms.me/#/index", "imposter": false, "copycat": false}, {"id": 11053, "name": "Bloomvest", "short_description": "Based on our experience and/or the warnings of official regulatory bodies, this company, and/or some of its practices, were flagged as a scam/fraud.", "review": "", "fca_link": "https://www.fca.org.uk/news/warnings/bloomvest", "logo": "", "screenshot": "", "created_at": "2023-05-04T11:00:00.000000Z", "updated_at": "2023-05-04T11:00:00.000000Z", "website": "www.bloomvest.info", "imposter": false, "copycat": false}, {"id": 11054, "name": "Acorn Universal", "short_description": "Based on our experience and/or the warnings of official regulatory bodies, this company, and/or some of its practices, were flagged as a scam/fraud.", "review": "", "fca_link": "https://www.fca.org.uk/news/warnings/universal-acorn", "logo": "", "screenshot": "", "created_at": "2023-05-04T11:00:00.000000Z", "updated_at": "2023-05-04T11:00:00.000000Z", "website": "www.universal-acorn.com", "imposter": false, "copycat": false}], "first_page_url": "https://api.payback-ltd.com/api/blacklist?page=1", "from": 1101, "last_page": 486, "last_page_url": "https://api.payback-ltd.com/api/blacklist?page=486", "links": [{"url": "https://api.payback-ltd.com/api/blacklist?page=44", "label": "&laquo; Previous", "active": false}, {"url": "https://api.payback-ltd.com/api/blacklist?page=1", "label": "1", "active": false}, {"url": "https://api.payback-ltd.com/api/blacklist?page=2", "label": "2", "active": false}, {"url": null, "label": "...", "active": false}, {"url": "https://api.payback-ltd.com/api/blacklist?page=42", "label": "42", "active": false}, {"url": "https://api.payback-ltd.com/api/blacklist?page=43", "label": "43", "active": false}, {"url": "https://api.payback-ltd.com/api/blacklist?page=44", "label": "44", "active": false}, {"url": "https://api.payback-ltd.com/api/blacklist?page=45", "label": "45", "active": true}, {"url": "https://api.payback-ltd.com/api/blacklist?page=46", "label": "46", "active": false}, {"url": "https://api.payback-ltd.com/api/blacklist?page=47", "label": "47", "active": false}, {"url": "https://api.payback-ltd.com/api/blacklist?page=48", "label": "48", "active": false}, {"url": null, "label": "...", "active": false}, {"url": "https://api.payback-ltd.com/api/blacklist?page=485", "label": "485", "active": false}, {"url": "https://api.payback-ltd.com/api/blacklist?page=486", "label": "486", "active": false}, {"url": "https://api.payback-ltd.com/api/blacklist?page=46", "label": "Next &raquo;", "active": false}], "next_page_url": "https://api.payback-ltd.com/api/blacklist?page=46", "path": "https://api.payback-ltd.com/api/blacklist", "per_page": 25, "prev_page_url": "https://api.payback-ltd.com/api/blacklist?page=44", "to": 1125, "total": 12140}