{"current_page": 121, "data": [{"id": 12930, "name": "Fxtm Investment Ltd Option", "short_description": "Based on our experience and/or the warnings of official regulatory bodies, this company, and/or some of its practices, were flagged as a scam/fraud.", "review": "", "fca_link": "https://www.fca.org.uk/news/warnings/fxtm-investment-option-ltd", "logo": "", "screenshot": "", "created_at": "2022-03-29T11:00:00.000000Z", "updated_at": "2022-03-29T11:00:00.000000Z", "website": "http://fxtminvestmentoption.com/", "imposter": false, "copycat": false}, {"id": 12931, "name": "Maxiglobefxt", "short_description": "Based on our experience and/or the warnings of official regulatory bodies, this company, and/or some of its practices, were flagged as a scam/fraud.", "review": "", "fca_link": "https://www.fca.org.uk/news/warnings/maxiglobefxt", "logo": "", "screenshot": "", "created_at": "2022-03-28T11:00:00.000000Z", "updated_at": "2022-03-28T11:00:00.000000Z", "website": "https://maxiglobefxt.com/", "imposter": false, "copycat": false}, {"id": 12932, "name": "Brees Capital Group Llc", "short_description": "Based on our experience and/or the warnings of official regulatory bodies, this company, and/or some of its practices, were flagged as a scam/fraud.", "review": "", "fca_link": "https://www.fca.org.uk/news/warnings/brees-capital-group-llc", "logo": "", "screenshot": "", "created_at": "2022-03-28T11:00:00.000000Z", "updated_at": "2022-04-07T11:00:00.000000Z", "website": "http://www.breescapitalgroup.com", "imposter": false, "copycat": false}, {"id": 12933, "name": "Fx Group Limited Margin Options", "short_description": "Based on our experience and/or the warnings of official regulatory bodies, this company, and/or some of its practices, were flagged as a scam/fraud.", "review": "", "fca_link": "https://www.fca.org.uk/news/warnings/margin-fx-options-group-limited", "logo": "", "screenshot": "", "created_at": "2022-03-28T11:00:00.000000Z", "updated_at": "2022-03-28T11:00:00.000000Z", "website": "http://marginfxoptions.com/", "imposter": false, "copycat": false}, {"id": 12934, "name": "Cryptolia Limited", "short_description": "Based on our experience and/or the warnings of official regulatory bodies, this company, and/or some of its practices, were flagged as a scam/fraud.", "review": "", "fca_link": "https://www.fca.org.uk/news/warnings/cryptolia-limited", "logo": "", "screenshot": "", "created_at": "2022-03-28T11:00:00.000000Z", "updated_at": "2022-03-28T11:00:00.000000Z", "website": "http://cryptolia.net/", "imposter": false, "copycat": false}, {"id": 12935, "name": "dayscrypto Inc", "short_description": "Based on our experience and/or the warnings of official regulatory bodies, this company, and/or some of its practices, were flagged as a scam/fraud.", "review": "", "fca_link": "https://www.fca.org.uk/news/warnings/7dayscrypto-inc", "logo": "", "screenshot": "", "created_at": "2022-03-28T11:00:00.000000Z", "updated_at": "2022-03-28T11:00:00.000000Z", "website": "http://7dayscrypto.com/", "imposter": false, "copycat": false}, {"id": 12936, "name": "Bullishfxtrade Ltd", "short_description": "Based on our experience and/or the warnings of official regulatory bodies, this company, and/or some of its practices, were flagged as a scam/fraud.", "review": "", "fca_link": "https://www.fca.org.uk/news/warnings/bullishfxtrade-ltd", "logo": "", "screenshot": "", "created_at": "2022-03-28T11:00:00.000000Z", "updated_at": "2022-03-28T11:00:00.000000Z", "website": "http://bullishfxtrade.com/", "imposter": false, "copycat": false}, {"id": 12937, "name": "Asset Fx Ltd Maximum", "short_description": "Based on our experience and/or the warnings of official regulatory bodies, this company, and/or some of its practices, were flagged as a scam/fraud.", "review": "", "fca_link": "https://www.fca.org.uk/news/warnings/maximum-fx-asset-ltd", "logo": "", "screenshot": "", "created_at": "2022-03-28T11:00:00.000000Z", "updated_at": "2022-03-28T11:00:00.000000Z", "website": "http://maximfxasset.com/", "imposter": false, "copycat": false}, {"id": 12938, "name": "Llc Millard-Moore Partners", "short_description": "Based on our experience and/or the warnings of official regulatory bodies, this company, and/or some of its practices, were flagged as a scam/fraud.", "review": "", "fca_link": "https://www.fca.org.uk/news/warnings/millard-moore-partners-llc", "logo": "", "screenshot": "", "created_at": "2022-03-25T11:00:00.000000Z", "updated_at": "2022-03-25T11:00:00.000000Z", "website": "www.millard-moore.com", "imposter": false, "copycat": false}, {"id": 12939, "name": "And Johnson Murray", "short_description": "Based on our experience and/or the warnings of official regulatory bodies, this company, and/or some of its practices, were flagged as a scam/fraud.", "review": "", "fca_link": "https://www.fca.org.uk/news/warnings/murray-and-johnson", "logo": "", "screenshot": "", "created_at": "2022-03-25T11:00:00.000000Z", "updated_at": "2022-05-12T11:00:00.000000Z", "website": "murrayandjohnsonassociates.com", "imposter": false, "copycat": false}, {"id": 12940, "name": "Capitalfx Exchange", "short_description": "Based on our experience and/or the warnings of official regulatory bodies, this company, and/or some of its practices, were flagged as a scam/fraud.", "review": "", "fca_link": "https://www.fca.org.uk/news/warnings/capitalfx-exchange", "logo": "", "screenshot": "", "created_at": "2022-03-25T11:00:00.000000Z", "updated_at": "2022-03-28T11:00:00.000000Z", "website": "https://capitalfxexchange.com/", "imposter": false, "copycat": false}, {"id": 12941, "name": "Direct Line Sustainability", "short_description": "Based on our experience and/or the warnings of official regulatory bodies, this company, and/or some of its practices, were flagged as a scam/fraud.", "review": "", "fca_link": "https://www.fca.org.uk/news/warnings/direct-line-sustainability-clone-fca-authorised-firm", "logo": "", "screenshot": "", "created_at": "2022-03-25T11:00:00.000000Z", "updated_at": "2022-03-29T11:00:00.000000Z", "website": "www.directlinesustainability.com", "imposter": false, "copycat": false}, {"id": 12942, "name": "forex Stocks Trade", "short_description": "Based on our experience and/or the warnings of official regulatory bodies, this company, and/or some of its practices, were flagged as a scam/fraud.", "review": "", "fca_link": "https://www.fca.org.uk/news/warnings/24forex-trade-stocks", "logo": "", "screenshot": "", "created_at": "2022-03-25T11:00:00.000000Z", "updated_at": "2022-03-28T11:00:00.000000Z", "website": "https://24forextradestocks.com/", "imposter": false, "copycat": false}, {"id": 12943, "name": "Coininvestor", "short_description": "Based on our experience and/or the warnings of official regulatory bodies, this company, and/or some of its practices, were flagged as a scam/fraud.", "review": "", "fca_link": "https://www.fca.org.uk/news/warnings/coininvestorcouk-clone-fca-authorised-firm", "logo": "", "screenshot": "", "created_at": "2022-03-25T11:00:00.000000Z", "updated_at": "2022-08-31T11:00:00.000000Z", "website": "https://yktwnfsw6p.wixsite.com/coininvestorcouk", "imposter": false, "copycat": false}, {"id": 12944, "name": "Hansraj Limited", "short_description": "Based on our experience and/or the warnings of official regulatory bodies, this company, and/or some of its practices, were flagged as a scam/fraud.", "review": "", "fca_link": "https://www.fca.org.uk/news/warnings/hansraj-limited", "logo": "", "screenshot": "", "created_at": "2022-03-25T11:00:00.000000Z", "updated_at": "2022-06-01T11:00:00.000000Z", "website": "https://hansrajlimited.com/, https://hansrajltd.com/", "imposter": false, "copycat": false}, {"id": 12945, "name": "Bestrenewableenergyinvestor", "short_description": "Based on our experience and/or the warnings of official regulatory bodies, this company, and/or some of its practices, were flagged as a scam/fraud.", "review": "", "fca_link": "https://www.fca.org.uk/news/warnings/bestrenewableenergyinvestor", "logo": "", "screenshot": "", "created_at": "2022-03-25T11:00:00.000000Z", "updated_at": "2022-03-25T11:00:00.000000Z", "website": "www.bestrenewableenergyinvestor.com", "imposter": false, "copycat": false}, {"id": 12946, "name": "Ltd Sunbridge", "short_description": "Based on our experience and/or the warnings of official regulatory bodies, this company, and/or some of its practices, were flagged as a scam/fraud.", "review": "", "fca_link": "https://www.fca.org.uk/news/warnings/sunbridge-ltd", "logo": "", "screenshot": "", "created_at": "2022-03-25T11:00:00.000000Z", "updated_at": "2022-03-25T11:00:00.000000Z", "website": "https://sunbridgeltd.co.uk/", "imposter": false, "copycat": false}, {"id": 12947, "name": "Consulting Kyc", "short_description": "Based on our experience and/or the warnings of official regulatory bodies, this company, and/or some of its practices, were flagged as a scam/fraud.", "review": "", "fca_link": "https://www.fca.org.uk/news/warnings/kyc-consulting", "logo": "", "screenshot": "", "created_at": "2022-03-25T11:00:00.000000Z", "updated_at": "2022-03-25T11:00:00.000000Z", "website": "kyc-consulting.org", "imposter": false, "copycat": false}, {"id": 12948, "name": "Infxcoinkapita", "short_description": "Based on our experience and/or the warnings of official regulatory bodies, this company, and/or some of its practices, were flagged as a scam/fraud.", "review": "", "fca_link": "https://www.fca.org.uk/news/warnings/infxcoinkapita", "logo": "", "screenshot": "", "created_at": "2022-03-25T11:00:00.000000Z", "updated_at": "2022-03-28T11:00:00.000000Z", "website": "https://infxcoinkapita.com/", "imposter": false, "copycat": false}, {"id": 12949, "name": "Mwt", "short_description": "Based on our experience and/or the warnings of official regulatory bodies, this company, and/or some of its practices, were flagged as a scam/fraud.", "review": "", "fca_link": "https://www.fca.org.uk/news/warnings/mwt", "logo": "", "screenshot": "", "created_at": "2022-03-25T11:00:00.000000Z", "updated_at": "2022-03-25T11:00:00.000000Z", "website": "", "imposter": false, "copycat": false}, {"id": 12950, "name": "Fxms", "short_description": "Based on our experience and/or the warnings of official regulatory bodies, this company, and/or some of its practices, were flagged as a scam/fraud.", "review": "", "fca_link": "https://www.fca.org.uk/news/warnings/fxms-fx-markets", "logo": "", "screenshot": "", "created_at": "2022-03-25T11:00:00.000000Z", "updated_at": "2022-03-28T11:00:00.000000Z", "website": "https://fxmarkets.online/", "imposter": false, "copycat": false}, {"id": 12951, "name": "Escrow Freemans Online Solutions", "short_description": "Based on our experience and/or the warnings of official regulatory bodies, this company, and/or some of its practices, were flagged as a scam/fraud.", "review": "", "fca_link": "https://www.fca.org.uk/news/warnings/freemans-online-freemans-escrow-solutions-clone-fca-authorised-firm", "logo": "", "screenshot": "", "created_at": "2022-03-24T12:00:00.000000Z", "updated_at": "2022-03-24T12:00:00.000000Z", "website": "info.freemans-online.com, secure.freemans-online.com", "imposter": false, "copycat": false}, {"id": 12952, "name": "Bonds Financial Fixed Ft Rate Rates Times", "short_description": "Based on our experience and/or the warnings of official regulatory bodies, this company, and/or some of its practices, were flagged as a scam/fraud.", "review": "", "fca_link": "https://www.fca.org.uk/news/warnings/financial-times-fixed-rate-bonds-ft-fixed-rates", "logo": "", "screenshot": "", "created_at": "2022-03-24T12:00:00.000000Z", "updated_at": "2023-03-08T12:00:00.000000Z", "website": "https://ftrates.com/, https://campaign-statistics.com/browser_preview/vawHOLTJn5_qbw6D, www.ftoptin.com", "imposter": false, "copycat": false}, {"id": 12953, "name": "Energy Millennium Wind", "short_description": "Based on our experience and/or the warnings of official regulatory bodies, this company, and/or some of its practices, were flagged as a scam/fraud.", "review": "", "fca_link": "https://www.fca.org.uk/news/warnings/millennium-wind-energy-clone-uk-registered-limited-company", "logo": "", "screenshot": "", "created_at": "2022-03-24T12:00:00.000000Z", "updated_at": "2022-03-24T12:00:00.000000Z", "website": "https://millenniumwind-energy.com/", "imposter": false, "copycat": false}, {"id": 12954, "name": "Invest Lpl", "short_description": "Based on our experience and/or the warnings of official regulatory bodies, this company, and/or some of its practices, were flagged as a scam/fraud.", "review": "", "fca_link": "https://www.fca.org.uk/news/warnings/lpl-invest", "logo": "", "screenshot": "", "created_at": "2022-03-24T12:00:00.000000Z", "updated_at": "2022-11-14T12:00:00.000000Z", "website": "www.lplinvest.com, https://www.lplfinances.eu/, https://www.lpleurope.eu", "imposter": false, "copycat": false}], "first_page_url": "https://api.payback-ltd.com/api/blacklist?page=1", "from": 3001, "last_page": 486, "last_page_url": "https://api.payback-ltd.com/api/blacklist?page=486", "links": [{"url": "https://api.payback-ltd.com/api/blacklist?page=120", "label": "&laquo; Previous", "active": false}, {"url": "https://api.payback-ltd.com/api/blacklist?page=1", "label": "1", "active": false}, {"url": "https://api.payback-ltd.com/api/blacklist?page=2", "label": "2", "active": false}, {"url": null, "label": "...", "active": false}, {"url": "https://api.payback-ltd.com/api/blacklist?page=118", "label": "118", "active": false}, {"url": "https://api.payback-ltd.com/api/blacklist?page=119", "label": "119", "active": false}, {"url": "https://api.payback-ltd.com/api/blacklist?page=120", "label": "120", "active": false}, {"url": "https://api.payback-ltd.com/api/blacklist?page=121", "label": "121", "active": true}, {"url": "https://api.payback-ltd.com/api/blacklist?page=122", "label": "122", "active": false}, {"url": "https://api.payback-ltd.com/api/blacklist?page=123", "label": "123", "active": false}, {"url": "https://api.payback-ltd.com/api/blacklist?page=124", "label": "124", "active": false}, {"url": null, "label": "...", "active": false}, {"url": "https://api.payback-ltd.com/api/blacklist?page=485", "label": "485", "active": false}, {"url": "https://api.payback-ltd.com/api/blacklist?page=486", "label": "486", "active": false}, {"url": "https://api.payback-ltd.com/api/blacklist?page=122", "label": "Next &raquo;", "active": false}], "next_page_url": "https://api.payback-ltd.com/api/blacklist?page=122", "path": "https://api.payback-ltd.com/api/blacklist", "per_page": 25, "prev_page_url": "https://api.payback-ltd.com/api/blacklist?page=120", "to": 3025, "total": 12140}