{"current_page": 23, "data": [{"id": 10480, "name": "Vertexfxmegatrade", "short_description": "Based on our experience and/or the warnings of official regulatory bodies, this company, and/or some of its practices, were flagged as a scam/fraud.", "review": "", "fca_link": "https://www.fca.org.uk/news/warnings/vertexfxmegatrade", "logo": "", "screenshot": "", "created_at": "2023-09-04T11:00:00.000000Z", "updated_at": "2023-09-04T11:00:00.000000Z", "website": "https://vertexfxmegatrade.com/", "imposter": false, "copycat": false}, {"id": 10481, "name": "Greenfx", "short_description": "Based on our experience and/or the warnings of official regulatory bodies, this company, and/or some of its practices, were flagged as a scam/fraud.", "review": "", "fca_link": "https://www.fca.org.uk/news/warnings/greenfx", "logo": "", "screenshot": "", "created_at": "2023-09-04T11:00:00.000000Z", "updated_at": "2023-09-04T11:00:00.000000Z", "website": "https://greenfx.ltd/", "imposter": false, "copycat": false}, {"id": 10482, "name": "Universe", "short_description": "Based on our experience and/or the warnings of official regulatory bodies, this company, and/or some of its practices, were flagged as a scam/fraud.", "review": "", "fca_link": "https://www.fca.org.uk/news/warnings/universecocom-clone-fca-authorised-firm", "logo": "", "screenshot": "", "created_at": "2023-09-04T11:00:00.000000Z", "updated_at": "2023-09-25T11:00:00.000000Z", "website": "www.universe.co.com, https://unified.ee/", "imposter": false, "copycat": false}, {"id": 10483, "name": "Crystal Nova", "short_description": "Based on our experience and/or the warnings of official regulatory bodies, this company, and/or some of its practices, were flagged as a scam/fraud.", "review": "", "fca_link": "https://www.fca.org.uk/news/warnings/crystal-nova", "logo": "", "screenshot": "", "created_at": "2023-09-04T11:00:00.000000Z", "updated_at": "2023-09-04T11:00:00.000000Z", "website": "www.crystalnovafxtrade.com", "imposter": false, "copycat": false}, {"id": 10484, "name": "Dynastyfx Global", "short_description": "Based on our experience and/or the warnings of official regulatory bodies, this company, and/or some of its practices, were flagged as a scam/fraud.", "review": "", "fca_link": "https://www.fca.org.uk/news/warnings/dynastyfx-global", "logo": "", "screenshot": "", "created_at": "2023-09-04T11:00:00.000000Z", "updated_at": "2023-09-04T11:00:00.000000Z", "website": "www.dynastyfxglobal.com", "imposter": false, "copycat": false}, {"id": 10485, "name": "Cryptogeek Kryptogeek", "short_description": "Based on our experience and/or the warnings of official regulatory bodies, this company, and/or some of its practices, were flagged as a scam/fraud.", "review": "", "fca_link": "https://www.fca.org.uk/news/warnings/cryptogeek-kryptogeek", "logo": "", "screenshot": "", "created_at": "2023-09-04T11:00:00.000000Z", "updated_at": "2023-09-04T11:00:00.000000Z", "website": "www.crypto-geek.online", "imposter": false, "copycat": false}, {"id": 10486, "name": "Springwellfx", "short_description": "Based on our experience and/or the warnings of official regulatory bodies, this company, and/or some of its practices, were flagged as a scam/fraud.", "review": "", "fca_link": "https://www.fca.org.uk/news/warnings/springwellfx", "logo": "", "screenshot": "", "created_at": "2023-09-04T11:00:00.000000Z", "updated_at": "2023-09-04T11:00:00.000000Z", "website": "www.springwellfx.com", "imposter": false, "copycat": false}, {"id": 10487, "name": "Fx Global Sprint Sprintglobalfx", "short_description": "Based on our experience and/or the warnings of official regulatory bodies, this company, and/or some of its practices, were flagged as a scam/fraud.", "review": "", "fca_link": "https://www.fca.org.uk/news/warnings/sprintglobalfx-sprint-global-fx", "logo": "", "screenshot": "", "created_at": "2023-09-01T11:00:00.000000Z", "updated_at": "2023-09-01T11:00:00.000000Z", "website": "www.sprintglobalfx.net, www.sprintglobalfx.com.nivlekfishfarm.net", "imposter": false, "copycat": false}, {"id": 10488, "name": "Hubscapital", "short_description": "Based on our experience and/or the warnings of official regulatory bodies, this company, and/or some of its practices, were flagged as a scam/fraud.", "review": "", "fca_link": "https://www.fca.org.uk/news/warnings/hubscapitalorg-hubscapital", "logo": "", "screenshot": "", "created_at": "2023-08-31T11:00:00.000000Z", "updated_at": "2023-08-31T11:00:00.000000Z", "website": "https://hubscapital.org", "imposter": false, "copycat": false}, {"id": 10489, "name": "Finance Wise", "short_description": "Based on our experience and/or the warnings of official regulatory bodies, this company, and/or some of its practices, were flagged as a scam/fraud.", "review": "", "fca_link": "https://www.fca.org.uk/news/warnings/finance-wise", "logo": "", "screenshot": "", "created_at": "2023-08-31T11:00:00.000000Z", "updated_at": "2023-08-31T11:00:00.000000Z", "website": "www.finwisecorp.online, www.financewise.pro", "imposter": false, "copycat": false}, {"id": 10490, "name": "Trade Vertigo", "short_description": "Based on our experience and/or the warnings of official regulatory bodies, this company, and/or some of its practices, were flagged as a scam/fraud.", "review": "", "fca_link": "https://www.fca.org.uk/news/warnings/vertigo-trade", "logo": "", "screenshot": "", "created_at": "2023-08-31T11:00:00.000000Z", "updated_at": "2023-08-31T11:00:00.000000Z", "website": "www.vertigotrade.com", "imposter": false, "copycat": false}, {"id": 10491, "name": "Fast Market Stock Trade", "short_description": "Based on our experience and/or the warnings of official regulatory bodies, this company, and/or some of its practices, were flagged as a scam/fraud.", "review": "", "fca_link": "https://www.fca.org.uk/news/warnings/fast-stock-market-trade", "logo": "", "screenshot": "", "created_at": "2023-08-31T11:00:00.000000Z", "updated_at": "2023-08-31T11:00:00.000000Z", "website": "www.faststockmarkettrade.com", "imposter": false, "copycat": false}, {"id": 10492, "name": "Expert Iq Trade", "short_description": "Based on our experience and/or the warnings of official regulatory bodies, this company, and/or some of its practices, were flagged as a scam/fraud.", "review": "", "fca_link": "https://www.fca.org.uk/news/warnings/expert-iq-trade", "logo": "", "screenshot": "", "created_at": "2023-08-31T11:00:00.000000Z", "updated_at": "2023-08-31T11:00:00.000000Z", "website": "www.expert-iqtrade.com", "imposter": false, "copycat": false}, {"id": 10493, "name": "Axis Bit Capital", "short_description": "Based on our experience and/or the warnings of official regulatory bodies, this company, and/or some of its practices, were flagged as a scam/fraud.", "review": "", "fca_link": "https://www.fca.org.uk/news/warnings/bit-capital-axis", "logo": "", "screenshot": "", "created_at": "2023-08-31T11:00:00.000000Z", "updated_at": "2023-08-31T11:00:00.000000Z", "website": "www.bitcapitalaxis.com", "imposter": false, "copycat": false}, {"id": 10494, "name": "Captecinvltd", "short_description": "Based on our experience and/or the warnings of official regulatory bodies, this company, and/or some of its practices, were flagged as a scam/fraud.", "review": "", "fca_link": "https://www.fca.org.uk/news/warnings/captecinvltdcom", "logo": "", "screenshot": "", "created_at": "2023-08-31T11:00:00.000000Z", "updated_at": "2023-08-31T11:00:00.000000Z", "website": "www.captecinvltd.com", "imposter": false, "copycat": false}, {"id": 10495, "name": "Fx Monsters", "short_description": "Based on our experience and/or the warnings of official regulatory bodies, this company, and/or some of its practices, were flagged as a scam/fraud.", "review": "", "fca_link": "https://www.fca.org.uk/news/warnings/fx-monsters", "logo": "", "screenshot": "", "created_at": "2023-08-31T11:00:00.000000Z", "updated_at": "2023-08-31T11:00:00.000000Z", "website": "www.fx-monsters.live", "imposter": false, "copycat": false}, {"id": 10496, "name": "Assets Pinnacle", "short_description": "Based on our experience and/or the warnings of official regulatory bodies, this company, and/or some of its practices, were flagged as a scam/fraud.", "review": "", "fca_link": "https://www.fca.org.uk/news/warnings/pinnacle-assets", "logo": "", "screenshot": "", "created_at": "2023-08-31T11:00:00.000000Z", "updated_at": "2023-08-31T11:00:00.000000Z", "website": "www.pinnaclassts.com/en", "imposter": false, "copycat": false}, {"id": 10497, "name": "Alphaluxse", "short_description": "Based on our experience and/or the warnings of official regulatory bodies, this company, and/or some of its practices, were flagged as a scam/fraud.", "review": "", "fca_link": "https://www.fca.org.uk/news/warnings/alphaluxse", "logo": "", "screenshot": "", "created_at": "2023-08-31T11:00:00.000000Z", "updated_at": "2023-08-31T11:00:00.000000Z", "website": "www.alphaluxse.com", "imposter": false, "copycat": false}, {"id": 10498, "name": "Fundedsignaltrades", "short_description": "Based on our experience and/or the warnings of official regulatory bodies, this company, and/or some of its practices, were flagged as a scam/fraud.", "review": "", "fca_link": "https://www.fca.org.uk/news/warnings/fundedsignaltrades", "logo": "", "screenshot": "", "created_at": "2023-08-31T11:00:00.000000Z", "updated_at": "2023-08-31T11:00:00.000000Z", "website": "www.fundedsignaltrades.com", "imposter": false, "copycat": false}, {"id": 10499, "name": "Rescue Trade", "short_description": "Based on our experience and/or the warnings of official regulatory bodies, this company, and/or some of its practices, were flagged as a scam/fraud.", "review": "", "fca_link": "https://www.fca.org.uk/news/warnings/trade-rescue", "logo": "", "screenshot": "", "created_at": "2023-08-31T11:00:00.000000Z", "updated_at": "2023-08-31T11:00:00.000000Z", "website": "traderescue.net, trade-rescue.com", "imposter": false, "copycat": false}, {"id": 10500, "name": "Ig-Uk", "short_description": "Based on our experience and/or the warnings of official regulatory bodies, this company, and/or some of its practices, were flagged as a scam/fraud.", "review": "", "fca_link": "https://www.fca.org.uk/news/warnings/ig-uk-ig-ukcouk-clone-fca-authorised-firm", "logo": "", "screenshot": "", "created_at": "2023-08-30T11:00:00.000000Z", "updated_at": "2023-08-30T11:00:00.000000Z", "website": "https://ig-uk.co.uk/", "imposter": false, "copycat": false}, {"id": 10501, "name": "Mychargeback", "short_description": "Based on our experience and/or the warnings of official regulatory bodies, this company, and/or some of its practices, were flagged as a scam/fraud.", "review": "", "fca_link": "https://www.fca.org.uk/news/warnings/mychargebackit-clone-fca-authorised-firm", "logo": "", "screenshot": "", "created_at": "2023-08-30T11:00:00.000000Z", "updated_at": "2023-08-30T11:00:00.000000Z", "website": "https://mychargeback.it/", "imposter": false, "copycat": false}, {"id": 10502, "name": "Pc Tradenationfxs Tradenaus", "short_description": "Based on our experience and/or the warnings of official regulatory bodies, this company, and/or some of its practices, were flagged as a scam/fraud.", "review": "", "fca_link": "https://www.fca.org.uk/news/warnings/tradenauscom-tradenationfxscom-pctradenationfxcc-clone-fca-authorised-firm", "logo": "", "screenshot": "", "created_at": "2023-08-30T11:00:00.000000Z", "updated_at": "2023-09-13T11:00:00.000000Z", "website": "https://www.tradenaus.com/, https://tradenationfxs.com/, https://pc.tradenationfx.cc/", "imposter": false, "copycat": false}, {"id": 10503, "name": "Xtremeplc", "short_description": "Based on our experience and/or the warnings of official regulatory bodies, this company, and/or some of its practices, were flagged as a scam/fraud.", "review": "", "fca_link": "https://www.fca.org.uk/news/warnings/xtremeplc", "logo": "", "screenshot": "", "created_at": "2023-08-30T11:00:00.000000Z", "updated_at": "2023-09-07T11:00:00.000000Z", "website": "https://xtremeplc.ltd/", "imposter": false, "copycat": false}, {"id": 10504, "name": "Coin Invest Wealth", "short_description": "Based on our experience and/or the warnings of official regulatory bodies, this company, and/or some of its practices, were flagged as a scam/fraud.", "review": "", "fca_link": "https://www.fca.org.uk/news/warnings/coin-wealth-invest", "logo": "", "screenshot": "", "created_at": "2023-08-30T11:00:00.000000Z", "updated_at": "2023-08-30T11:00:00.000000Z", "website": "https://coinswealthinvest.org/", "imposter": false, "copycat": false}], "first_page_url": "https://api.payback-ltd.com/api/blacklist?page=1", "from": 551, "last_page": 486, "last_page_url": "https://api.payback-ltd.com/api/blacklist?page=486", "links": [{"url": "https://api.payback-ltd.com/api/blacklist?page=22", "label": "&laquo; Previous", "active": false}, {"url": "https://api.payback-ltd.com/api/blacklist?page=1", "label": "1", "active": false}, {"url": "https://api.payback-ltd.com/api/blacklist?page=2", "label": "2", "active": false}, {"url": null, "label": "...", "active": false}, {"url": "https://api.payback-ltd.com/api/blacklist?page=20", "label": "20", "active": false}, {"url": "https://api.payback-ltd.com/api/blacklist?page=21", "label": "21", "active": false}, {"url": "https://api.payback-ltd.com/api/blacklist?page=22", "label": "22", "active": false}, {"url": "https://api.payback-ltd.com/api/blacklist?page=23", "label": "23", "active": true}, {"url": "https://api.payback-ltd.com/api/blacklist?page=24", "label": "24", "active": false}, {"url": "https://api.payback-ltd.com/api/blacklist?page=25", "label": "25", "active": false}, {"url": "https://api.payback-ltd.com/api/blacklist?page=26", "label": "26", "active": false}, {"url": null, "label": "...", "active": false}, {"url": "https://api.payback-ltd.com/api/blacklist?page=485", "label": "485", "active": false}, {"url": "https://api.payback-ltd.com/api/blacklist?page=486", "label": "486", "active": false}, {"url": "https://api.payback-ltd.com/api/blacklist?page=24", "label": "Next &raquo;", "active": false}], "next_page_url": "https://api.payback-ltd.com/api/blacklist?page=24", "path": "https://api.payback-ltd.com/api/blacklist", "per_page": 25, "prev_page_url": "https://api.payback-ltd.com/api/blacklist?page=22", "to": 575, "total": 12140}