{"current_page": 103, "data": [{"id": 12480, "name": "Faberton Financial Llc Services", "short_description": "Based on our experience and/or the warnings of official regulatory bodies, this company, and/or some of its practices, were flagged as a scam/fraud.", "review": "", "fca_link": "https://www.fca.org.uk/news/warnings/faberton-financial-services-llc", "logo": "", "screenshot": "", "created_at": "2022-08-24T11:00:00.000000Z", "updated_at": "2022-08-30T11:00:00.000000Z", "website": "www.fabertonfinancialservices.com", "imposter": false, "copycat": false}, {"id": 12481, "name": "Litsfxtrade21 Litsfxtrades21", "short_description": "Based on our experience and/or the warnings of official regulatory bodies, this company, and/or some of its practices, were flagged as a scam/fraud.", "review": "", "fca_link": "https://www.fca.org.uk/news/warnings/litsfxtrades21-litsfxtrade21", "logo": "", "screenshot": "", "created_at": "2022-08-24T11:00:00.000000Z", "updated_at": "2022-08-24T11:00:00.000000Z", "website": "https://litsfxtrades21.com/", "imposter": false, "copycat": false}, {"id": 12482, "name": "Global Hd", "short_description": "Based on our experience and/or the warnings of official regulatory bodies, this company, and/or some of its practices, were flagged as a scam/fraud.", "review": "", "fca_link": "https://www.fca.org.uk/news/warnings/hd-global-clone-fca-authorised-firm", "logo": "", "screenshot": "", "created_at": "2022-08-24T11:00:00.000000Z", "updated_at": "2022-10-21T11:00:00.000000Z", "website": "www.hdglobal.io, www.cfaar.eu, www.fcib.io", "imposter": false, "copycat": false}, {"id": 12483, "name": "Claim Omni", "short_description": "Based on our experience and/or the warnings of official regulatory bodies, this company, and/or some of its practices, were flagged as a scam/fraud.", "review": "", "fca_link": "https://www.fca.org.uk/news/warnings/omni-claim", "logo": "", "screenshot": "", "created_at": "2022-08-24T11:00:00.000000Z", "updated_at": "2022-08-24T11:00:00.000000Z", "website": "www.omniclaim.co.uk", "imposter": false, "copycat": false}, {"id": 12484, "name": "Radcliffe Shaw", "short_description": "Based on our experience and/or the warnings of official regulatory bodies, this company, and/or some of its practices, were flagged as a scam/fraud.", "review": "", "fca_link": "https://www.fca.org.uk/news/warnings/radcliffe-shaw", "logo": "", "screenshot": "", "created_at": "2022-08-24T11:00:00.000000Z", "updated_at": "2022-08-24T11:00:00.000000Z", "website": "www.radcliffeandshaw.com", "imposter": false, "copycat": false}, {"id": 12485, "name": "Debts Safe", "short_description": "Based on our experience and/or the warnings of official regulatory bodies, this company, and/or some of its practices, were flagged as a scam/fraud.", "review": "", "fca_link": "https://www.fca.org.uk/news/warnings/safe-debts", "logo": "", "screenshot": "", "created_at": "2022-08-24T11:00:00.000000Z", "updated_at": "2022-08-24T11:00:00.000000Z", "website": "www.safedebts.co.uk", "imposter": false, "copycat": false}, {"id": 12486, "name": "Group Hong Kong Limited Selead", "short_description": "Based on our experience and/or the warnings of official regulatory bodies, this company, and/or some of its practices, were flagged as a scam/fraud.", "review": "", "fca_link": "https://www.fca.org.uk/news/warnings/hong-kong-selead-group-limited", "logo": "", "screenshot": "", "created_at": "2022-08-24T11:00:00.000000Z", "updated_at": "2022-08-24T11:00:00.000000Z", "website": "https://hkselead.com/", "imposter": false, "copycat": false}, {"id": 12487, "name": "Cryptojet Ltd Trading", "short_description": "Based on our experience and/or the warnings of official regulatory bodies, this company, and/or some of its practices, were flagged as a scam/fraud.", "review": "", "fca_link": "https://www.fca.org.uk/news/warnings/cryptojet-cryptojetltd-trading-ltd", "logo": "", "screenshot": "", "created_at": "2022-08-24T11:00:00.000000Z", "updated_at": "2022-08-24T11:00:00.000000Z", "website": "www.cryptojet.ltd", "imposter": false, "copycat": false}, {"id": 12488, "name": "Claim Justice Ltd", "short_description": "Based on our experience and/or the warnings of official regulatory bodies, this company, and/or some of its practices, were flagged as a scam/fraud.", "review": "", "fca_link": "https://www.fca.org.uk/news/warnings/claim-justice-ltd", "logo": "", "screenshot": "", "created_at": "2022-08-24T11:00:00.000000Z", "updated_at": "2022-08-24T11:00:00.000000Z", "website": "www.claim-justice.com, www.claimjustice.com", "imposter": false, "copycat": false}, {"id": 12489, "name": "Fund Recover", "short_description": "Based on our experience and/or the warnings of official regulatory bodies, this company, and/or some of its practices, were flagged as a scam/fraud.", "review": "", "fca_link": "https://www.fca.org.uk/news/warnings/recover-fund", "logo": "", "screenshot": "", "created_at": "2022-08-23T11:00:00.000000Z", "updated_at": "2022-08-23T11:00:00.000000Z", "website": "", "imposter": false, "copycat": false}, {"id": 12490, "name": "Ltd Space Trading Uk", "short_description": "Based on our experience and/or the warnings of official regulatory bodies, this company, and/or some of its practices, were flagged as a scam/fraud.", "review": "", "fca_link": "https://www.fca.org.uk/news/warnings/trading-space-uk-ltd", "logo": "", "screenshot": "", "created_at": "2022-08-22T11:00:00.000000Z", "updated_at": "2022-08-22T11:00:00.000000Z", "website": "https://tradingspace.pro/", "imposter": false, "copycat": false}, {"id": 12491, "name": "Flamingo Loans", "short_description": "Based on our experience and/or the warnings of official regulatory bodies, this company, and/or some of its practices, were flagged as a scam/fraud.", "review": "", "fca_link": "https://www.fca.org.uk/news/warnings/flamingo-loans", "logo": "", "screenshot": "", "created_at": "2022-08-22T11:00:00.000000Z", "updated_at": "2022-08-22T11:00:00.000000Z", "website": "www.flamingoloans.uk", "imposter": false, "copycat": false}, {"id": 12492, "name": "In Lenders List Uk", "short_description": "Based on our experience and/or the warnings of official regulatory bodies, this company, and/or some of its practices, were flagged as a scam/fraud.", "review": "", "fca_link": "https://www.fca.org.uk/news/warnings/lenders-list-uk-clone-fca-authorised-firm", "logo": "", "screenshot": "", "created_at": "2022-08-22T11:00:00.000000Z", "updated_at": "2022-09-05T11:00:00.000000Z", "website": "", "imposter": false, "copycat": false}, {"id": 12493, "name": "Fundsback Ltd Payback Tfa Tfc Tfe", "short_description": "Based on our experience and/or the warnings of official regulatory bodies, this company, and/or some of its practices, were flagged as a scam/fraud.", "review": "", "fca_link": "https://www.fca.org.uk/news/warnings/tfc-payback-fundsback-ltd-tfa-payback-tfe-payback", "logo": "", "screenshot": "", "created_at": "2022-08-22T11:00:00.000000Z", "updated_at": "2023-06-09T11:00:00.000000Z", "website": "www.fundsback-law.com, www.tfr-payback.com, tfe-paybacktoday.com, fce-payback.com, https://tfc-payback.com/, fti-payback.com", "imposter": false, "copycat": false}, {"id": 12494, "name": "Limited Martyn Services", "short_description": "Based on our experience and/or the warnings of official regulatory bodies, this company, and/or some of its practices, were flagged as a scam/fraud.", "review": "", "fca_link": "https://www.fca.org.uk/news/warnings/martyn-services-limited-clone-uk-registered-limited-company", "logo": "", "screenshot": "", "created_at": "2022-08-22T11:00:00.000000Z", "updated_at": "2022-08-22T11:00:00.000000Z", "website": "https://www.martynservice.com/, https://webtrader.martynservice.trade/, www.martynservice.net, www.martyn-services.net", "imposter": false, "copycat": false}, {"id": 12495, "name": "Limited Lorikeet Private Technologies", "short_description": "Based on our experience and/or the warnings of official regulatory bodies, this company, and/or some of its practices, were flagged as a scam/fraud.", "review": "", "fca_link": "https://www.fca.org.uk/news/warnings/lorikeet-private-technologies-limited-clone-fca-authorised-firm", "logo": "", "screenshot": "", "created_at": "2022-08-22T11:00:00.000000Z", "updated_at": "2022-11-30T12:00:00.000000Z", "website": "https://lorikeet.in, https://www.lorriket.net", "imposter": false, "copycat": false}, {"id": 12496, "name": "Hash Ltd Miner", "short_description": "Based on our experience and/or the warnings of official regulatory bodies, this company, and/or some of its practices, were flagged as a scam/fraud.", "review": "", "fca_link": "https://www.fca.org.uk/news/warnings/hash-miner-ltd", "logo": "", "screenshot": "", "created_at": "2022-08-19T11:00:00.000000Z", "updated_at": "2022-08-19T11:00:00.000000Z", "website": "hashminer.io, hashminer.io", "imposter": false, "copycat": false}, {"id": 12497, "name": "Eth Profits", "short_description": "Based on our experience and/or the warnings of official regulatory bodies, this company, and/or some of its practices, were flagged as a scam/fraud.", "review": "", "fca_link": "https://www.fca.org.uk/news/warnings/eth-profits", "logo": "", "screenshot": "", "created_at": "2022-08-19T11:00:00.000000Z", "updated_at": "2023-10-19T11:00:00.000000Z", "website": "ethprofits.com", "imposter": false, "copycat": false}, {"id": 12498, "name": "Goanually", "short_description": "Based on our experience and/or the warnings of official regulatory bodies, this company, and/or some of its practices, were flagged as a scam/fraud.", "review": "", "fca_link": "https://www.fca.org.uk/news/warnings/goanually-clone-fca-authorised-firm", "logo": "", "screenshot": "", "created_at": "2022-08-19T11:00:00.000000Z", "updated_at": "2023-08-16T11:00:00.000000Z", "website": "www.goanually.co.uk, www.goanually.com", "imposter": false, "copycat": false}, {"id": 12499, "name": "Coin Prime", "short_description": "Based on our experience and/or the warnings of official regulatory bodies, this company, and/or some of its practices, were flagged as a scam/fraud.", "review": "", "fca_link": "https://www.fca.org.uk/news/warnings/prime-coin", "logo": "", "screenshot": "", "created_at": "2022-08-19T11:00:00.000000Z", "updated_at": "2022-12-23T12:00:00.000000Z", "website": "https://prime-coin.live/, www.prime-coin.info/", "imposter": false, "copycat": false}, {"id": 12500, "name": "Trading212pro Tradingpro212", "short_description": "Based on our experience and/or the warnings of official regulatory bodies, this company, and/or some of its practices, were flagged as a scam/fraud.", "review": "", "fca_link": "https://www.fca.org.uk/news/warnings/trading212pro-tradingpro212-clone-fca-authorised-firm", "logo": "", "screenshot": "", "created_at": "2022-08-19T11:00:00.000000Z", "updated_at": "2022-08-19T11:00:00.000000Z", "website": "www.tradingpro212.com", "imposter": false, "copycat": false}, {"id": 12501, "name": "Bigmorebenefitslimited", "short_description": "Based on our experience and/or the warnings of official regulatory bodies, this company, and/or some of its practices, were flagged as a scam/fraud.", "review": "", "fca_link": "https://www.fca.org.uk/news/warnings/bigmorebenefitslimitedorg-clone-fca-authorised-firm", "logo": "", "screenshot": "", "created_at": "2022-08-18T11:00:00.000000Z", "updated_at": "2022-08-18T11:00:00.000000Z", "website": "https://www.bigmorebenefitslimited.org", "imposter": false, "copycat": false}, {"id": 12502, "name": "Finance Legal Legalfinance", "short_description": "Based on our experience and/or the warnings of official regulatory bodies, this company, and/or some of its practices, were flagged as a scam/fraud.", "review": "", "fca_link": "https://www.fca.org.uk/news/warnings/legal-finance-legalfinanceio", "logo": "", "screenshot": "", "created_at": "2022-08-18T11:00:00.000000Z", "updated_at": "2022-08-18T11:00:00.000000Z", "website": "Legalfinance.io", "imposter": false, "copycat": false}, {"id": 12503, "name": "Concrete Loans Ltd", "short_description": "Based on our experience and/or the warnings of official regulatory bodies, this company, and/or some of its practices, were flagged as a scam/fraud.", "review": "", "fca_link": "https://www.fca.org.uk/news/warnings/concrete-loans-ltd", "logo": "", "screenshot": "", "created_at": "2022-08-18T11:00:00.000000Z", "updated_at": "2022-08-18T11:00:00.000000Z", "website": "", "imposter": false, "copycat": false}, {"id": 12504, "name": "Atfx Atfxcoin Global Trading", "short_description": "Based on our experience and/or the warnings of official regulatory bodies, this company, and/or some of its practices, were flagged as a scam/fraud.", "review": "", "fca_link": "https://www.fca.org.uk/news/warnings/atfx-global-trading-atfxcoin-clone-fca-authorised-firm", "logo": "", "screenshot": "", "created_at": "2022-08-18T11:00:00.000000Z", "updated_at": "2022-08-18T11:00:00.000000Z", "website": "", "imposter": false, "copycat": false}], "first_page_url": "https://api.payback-ltd.com/api/blacklist?page=1", "from": 2551, "last_page": 486, "last_page_url": "https://api.payback-ltd.com/api/blacklist?page=486", "links": [{"url": "https://api.payback-ltd.com/api/blacklist?page=102", "label": "&laquo; Previous", "active": false}, {"url": "https://api.payback-ltd.com/api/blacklist?page=1", "label": "1", "active": false}, {"url": "https://api.payback-ltd.com/api/blacklist?page=2", "label": "2", "active": false}, {"url": null, "label": "...", "active": false}, {"url": "https://api.payback-ltd.com/api/blacklist?page=100", "label": "100", "active": false}, {"url": "https://api.payback-ltd.com/api/blacklist?page=101", "label": "101", "active": false}, {"url": "https://api.payback-ltd.com/api/blacklist?page=102", "label": "102", "active": false}, {"url": "https://api.payback-ltd.com/api/blacklist?page=103", "label": "103", "active": true}, {"url": "https://api.payback-ltd.com/api/blacklist?page=104", "label": "104", "active": false}, {"url": "https://api.payback-ltd.com/api/blacklist?page=105", "label": "105", "active": false}, {"url": "https://api.payback-ltd.com/api/blacklist?page=106", "label": "106", "active": false}, {"url": null, "label": "...", "active": false}, {"url": "https://api.payback-ltd.com/api/blacklist?page=485", "label": "485", "active": false}, {"url": "https://api.payback-ltd.com/api/blacklist?page=486", "label": "486", "active": false}, {"url": "https://api.payback-ltd.com/api/blacklist?page=104", "label": "Next &raquo;", "active": false}], "next_page_url": "https://api.payback-ltd.com/api/blacklist?page=104", "path": "https://api.payback-ltd.com/api/blacklist", "per_page": 25, "prev_page_url": "https://api.payback-ltd.com/api/blacklist?page=102", "to": 2575, "total": 12140}