{"current_page": 54, "data": [{"id": 11255, "name": "Signalsbit", "short_description": "Based on our experience and/or the warnings of official regulatory bodies, this company, and/or some of its practices, were flagged as a scam/fraud.", "review": "", "fca_link": "https://www.fca.org.uk/news/warnings/signalsbit", "logo": "", "screenshot": "", "created_at": "2023-03-24T11:00:00.000000Z", "updated_at": "2023-03-24T11:00:00.000000Z", "website": "https://signalsbit.live", "imposter": false, "copycat": false}, {"id": 11256, "name": "Stakefxmining", "short_description": "Based on our experience and/or the warnings of official regulatory bodies, this company, and/or some of its practices, were flagged as a scam/fraud.", "review": "", "fca_link": "https://www.fca.org.uk/news/warnings/stakefxmining", "logo": "", "screenshot": "", "created_at": "2023-03-24T11:00:00.000000Z", "updated_at": "2023-03-24T11:00:00.000000Z", "website": "https://stakefxmining.com/", "imposter": false, "copycat": false}, {"id": 11257, "name": "Buybitfx", "short_description": "Based on our experience and/or the warnings of official regulatory bodies, this company, and/or some of its practices, were flagged as a scam/fraud.", "review": "", "fca_link": "https://www.fca.org.uk/news/warnings/buybitfx", "logo": "", "screenshot": "", "created_at": "2023-03-24T11:00:00.000000Z", "updated_at": "2023-03-24T11:00:00.000000Z", "website": "https://buybitfx.com/", "imposter": false, "copycat": false}, {"id": 11258, "name": "Best Bestpayoutfx Fx Out Pay", "short_description": "Based on our experience and/or the warnings of official regulatory bodies, this company, and/or some of its practices, were flagged as a scam/fraud.", "review": "", "fca_link": "https://www.fca.org.uk/news/warnings/bestpayoutfx-best-pay-out-fx", "logo": "", "screenshot": "", "created_at": "2023-03-24T11:00:00.000000Z", "updated_at": "2023-04-14T11:00:00.000000Z", "website": "https://bestdailyalert.online, https://bestpayoutfx.com/", "imposter": false, "copycat": false}, {"id": 11259, "name": "Bit Options Pro", "short_description": "Based on our experience and/or the warnings of official regulatory bodies, this company, and/or some of its practices, were flagged as a scam/fraud.", "review": "", "fca_link": "https://www.fca.org.uk/news/warnings/bit-options-pro", "logo": "", "screenshot": "", "created_at": "2023-03-24T11:00:00.000000Z", "updated_at": "2023-03-24T11:00:00.000000Z", "website": "www.bitoptionspro.com", "imposter": false, "copycat": false}, {"id": 11260, "name": "Fnory", "short_description": "Based on our experience and/or the warnings of official regulatory bodies, this company, and/or some of its practices, were flagged as a scam/fraud.", "review": "", "fca_link": "https://www.fca.org.uk/news/warnings/fnory", "logo": "", "screenshot": "", "created_at": "2023-03-24T11:00:00.000000Z", "updated_at": "2023-03-24T11:00:00.000000Z", "website": "www.fnory.com", "imposter": false, "copycat": false}, {"id": 11261, "name": "Autominingplatform", "short_description": "Based on our experience and/or the warnings of official regulatory bodies, this company, and/or some of its practices, were flagged as a scam/fraud.", "review": "", "fca_link": "https://www.fca.org.uk/news/warnings/autominingplatform", "logo": "", "screenshot": "", "created_at": "2023-03-23T12:00:00.000000Z", "updated_at": "2023-03-23T12:00:00.000000Z", "website": "https://autominingplatform.com/", "imposter": false, "copycat": false}, {"id": 11262, "name": "Finowiz Limited", "short_description": "Based on our experience and/or the warnings of official regulatory bodies, this company, and/or some of its practices, were flagged as a scam/fraud.", "review": "", "fca_link": "https://www.fca.org.uk/news/warnings/finowiz-finowiz-limited", "logo": "", "screenshot": "", "created_at": "2023-03-23T12:00:00.000000Z", "updated_at": "2023-03-30T11:00:00.000000Z", "website": "www.finowizfx.com, https://www.finowiz.com/", "imposter": false, "copycat": false}, {"id": 11263, "name": "Advisory Clark Financial Limited", "short_description": "Based on our experience and/or the warnings of official regulatory bodies, this company, and/or some of its practices, were flagged as a scam/fraud.", "review": "", "fca_link": "https://www.fca.org.uk/news/warnings/clark-financial-advisory-limited-clone-fca-authorised-firm", "logo": "", "screenshot": "", "created_at": "2023-03-23T12:00:00.000000Z", "updated_at": "2023-09-26T11:00:00.000000Z", "website": "https://www.clarkfinadv.com", "imposter": false, "copycat": false}, {"id": 11264, "name": "Corefx-Benefit Investing", "short_description": "Based on our experience and/or the warnings of official regulatory bodies, this company, and/or some of its practices, were flagged as a scam/fraud.", "review": "", "fca_link": "https://www.fca.org.uk/news/warnings/corefx-benefit-investing", "logo": "", "screenshot": "", "created_at": "2023-03-23T12:00:00.000000Z", "updated_at": "2023-03-23T12:00:00.000000Z", "website": "www.corefx-benefits.com", "imposter": false, "copycat": false}, {"id": 11265, "name": "Arena Globalfx", "short_description": "Based on our experience and/or the warnings of official regulatory bodies, this company, and/or some of its practices, were flagged as a scam/fraud.", "review": "", "fca_link": "https://www.fca.org.uk/news/warnings/arena-globalfx", "logo": "", "screenshot": "", "created_at": "2023-03-23T12:00:00.000000Z", "updated_at": "2023-03-23T12:00:00.000000Z", "website": "www.arenaglobal.asia", "imposter": false, "copycat": false}, {"id": 11266, "name": "Common Investments West", "short_description": "Based on our experience and/or the warnings of official regulatory bodies, this company, and/or some of its practices, were flagged as a scam/fraud.", "review": "", "fca_link": "https://www.fca.org.uk/news/warnings/west-common-investments", "logo": "", "screenshot": "", "created_at": "2023-03-23T12:00:00.000000Z", "updated_at": "2023-06-02T11:00:00.000000Z", "website": "https://westcommoninvestments.co.uk", "imposter": false, "copycat": false}, {"id": 11267, "name": "Sf Trading", "short_description": "Based on our experience and/or the warnings of official regulatory bodies, this company, and/or some of its practices, were flagged as a scam/fraud.", "review": "", "fca_link": "https://www.fca.org.uk/news/warnings/sf-trading", "logo": "", "screenshot": "", "created_at": "2023-03-23T12:00:00.000000Z", "updated_at": "2023-03-23T12:00:00.000000Z", "website": "www.sftrading.live", "imposter": false, "copycat": false}, {"id": 11268, "name": "Axaforex", "short_description": "Based on our experience and/or the warnings of official regulatory bodies, this company, and/or some of its practices, were flagged as a scam/fraud.", "review": "", "fca_link": "https://www.fca.org.uk/news/warnings/axaforex", "logo": "", "screenshot": "", "created_at": "2023-03-23T12:00:00.000000Z", "updated_at": "2023-03-23T12:00:00.000000Z", "website": "www.axaforex.com", "imposter": false, "copycat": false}, {"id": 11269, "name": "Assurance Capital Gai Global Investment", "short_description": "Based on our experience and/or the warnings of official regulatory bodies, this company, and/or some of its practices, were flagged as a scam/fraud.", "review": "", "fca_link": "https://www.fca.org.uk/news/warnings/gai-capital-global-assurance-investment-capital", "logo": "", "screenshot": "", "created_at": "2023-03-23T12:00:00.000000Z", "updated_at": "2023-03-23T12:00:00.000000Z", "website": "https://gaicap.com/", "imposter": false, "copycat": false}, {"id": 11270, "name": "Daily Fx Indices", "short_description": "Based on our experience and/or the warnings of official regulatory bodies, this company, and/or some of its practices, were flagged as a scam/fraud.", "review": "", "fca_link": "https://www.fca.org.uk/news/warnings/daily-fx-indices-clone-fca-authorised-firm", "logo": "", "screenshot": "", "created_at": "2023-03-23T12:00:00.000000Z", "updated_at": "2023-03-23T12:00:00.000000Z", "website": "dailyfxindices.net", "imposter": false, "copycat": false}, {"id": 11271, "name": "Corporate Finance Saanut", "short_description": "Based on our experience and/or the warnings of official regulatory bodies, this company, and/or some of its practices, were flagged as a scam/fraud.", "review": "", "fca_link": "https://www.fca.org.uk/news/warnings/saanut-corporate-finance", "logo": "", "screenshot": "", "created_at": "2023-03-23T12:00:00.000000Z", "updated_at": "2023-03-23T12:00:00.000000Z", "website": "www.saanutfinance.com", "imposter": false, "copycat": false}, {"id": 11272, "name": "Crypto-Btc", "short_description": "Based on our experience and/or the warnings of official regulatory bodies, this company, and/or some of its practices, were flagged as a scam/fraud.", "review": "", "fca_link": "https://www.fca.org.uk/news/warnings/crypto-btc-crypto-btccc", "logo": "", "screenshot": "", "created_at": "2023-03-23T12:00:00.000000Z", "updated_at": "2023-03-23T12:00:00.000000Z", "website": "crypto-btc.cc, CRYPTO-BTC.CO", "imposter": false, "copycat": false}, {"id": 11273, "name": "Asset-Access Assets-Access Company Limited", "short_description": "Based on our experience and/or the warnings of official regulatory bodies, this company, and/or some of its practices, were flagged as a scam/fraud.", "review": "", "fca_link": "https://www.fca.org.uk/news/warnings/assets-access-limited-asset-access-company", "logo": "", "screenshot": "", "created_at": "2023-03-23T12:00:00.000000Z", "updated_at": "2023-03-23T12:00:00.000000Z", "website": "www.assets-accessltd.com, https://asset-access.com/", "imposter": false, "copycat": false}, {"id": 11274, "name": "Hotpayfx", "short_description": "Based on our experience and/or the warnings of official regulatory bodies, this company, and/or some of its practices, were flagged as a scam/fraud.", "review": "", "fca_link": "https://www.fca.org.uk/news/warnings/hotpayfx", "logo": "", "screenshot": "", "created_at": "2023-03-23T12:00:00.000000Z", "updated_at": "2023-03-23T12:00:00.000000Z", "website": "www.hotpayfx.online", "imposter": false, "copycat": false}, {"id": 11275, "name": "Forex Ltd Tradly", "short_description": "Based on our experience and/or the warnings of official regulatory bodies, this company, and/or some of its practices, were flagged as a scam/fraud.", "review": "", "fca_link": "https://www.fca.org.uk/news/warnings/forex-tradly-ltd", "logo": "", "screenshot": "", "created_at": "2023-03-23T12:00:00.000000Z", "updated_at": "2023-03-23T12:00:00.000000Z", "website": "www.forextradlylt.com", "imposter": false, "copycat": false}, {"id": 11276, "name": "Trive-Financial", "short_description": "Based on our experience and/or the warnings of official regulatory bodies, this company, and/or some of its practices, were flagged as a scam/fraud.", "review": "", "fca_link": "https://www.fca.org.uk/news/warnings/trive-financialcom", "logo": "", "screenshot": "", "created_at": "2023-03-23T12:00:00.000000Z", "updated_at": "2023-03-23T12:00:00.000000Z", "website": "www.trive-financial.com", "imposter": false, "copycat": false}, {"id": 11277, "name": "Rwm Rwmtrade Trade", "short_description": "Based on our experience and/or the warnings of official regulatory bodies, this company, and/or some of its practices, were flagged as a scam/fraud.", "review": "", "fca_link": "https://www.fca.org.uk/news/warnings/rwm-trade-rwmtradecom-clone-fca-regulated-firm", "logo": "", "screenshot": "", "created_at": "2023-03-23T12:00:00.000000Z", "updated_at": "2023-03-23T12:00:00.000000Z", "website": "www.rwmtrade.com", "imposter": false, "copycat": false}, {"id": 11278, "name": "Bloom Limited Trades", "short_description": "Based on our experience and/or the warnings of official regulatory bodies, this company, and/or some of its practices, were flagged as a scam/fraud.", "review": "", "fca_link": "https://www.fca.org.uk/news/warnings/bloom-trades-limited", "logo": "", "screenshot": "", "created_at": "2023-03-23T12:00:00.000000Z", "updated_at": "2023-03-23T12:00:00.000000Z", "website": "https://bloomtradeslimited.com/", "imposter": false, "copycat": false}, {"id": 11279, "name": "Ziluxfund", "short_description": "Based on our experience and/or the warnings of official regulatory bodies, this company, and/or some of its practices, were flagged as a scam/fraud.", "review": "", "fca_link": "https://www.fca.org.uk/news/warnings/ziluxfund", "logo": "", "screenshot": "", "created_at": "2023-03-22T12:00:00.000000Z", "updated_at": "2023-03-22T12:00:00.000000Z", "website": "www.ziluxfund.com", "imposter": false, "copycat": false}], "first_page_url": "https://api.payback-ltd.com/api/blacklist?page=1", "from": 1326, "last_page": 486, "last_page_url": "https://api.payback-ltd.com/api/blacklist?page=486", "links": [{"url": "https://api.payback-ltd.com/api/blacklist?page=53", "label": "&laquo; Previous", "active": false}, {"url": "https://api.payback-ltd.com/api/blacklist?page=1", "label": "1", "active": false}, {"url": "https://api.payback-ltd.com/api/blacklist?page=2", "label": "2", "active": false}, {"url": null, "label": "...", "active": false}, {"url": "https://api.payback-ltd.com/api/blacklist?page=51", "label": "51", "active": false}, {"url": "https://api.payback-ltd.com/api/blacklist?page=52", "label": "52", "active": false}, {"url": "https://api.payback-ltd.com/api/blacklist?page=53", "label": "53", "active": false}, {"url": "https://api.payback-ltd.com/api/blacklist?page=54", "label": "54", "active": true}, {"url": "https://api.payback-ltd.com/api/blacklist?page=55", "label": "55", "active": false}, {"url": "https://api.payback-ltd.com/api/blacklist?page=56", "label": "56", "active": false}, {"url": "https://api.payback-ltd.com/api/blacklist?page=57", "label": "57", "active": false}, {"url": null, "label": "...", "active": false}, {"url": "https://api.payback-ltd.com/api/blacklist?page=485", "label": "485", "active": false}, {"url": "https://api.payback-ltd.com/api/blacklist?page=486", "label": "486", "active": false}, {"url": "https://api.payback-ltd.com/api/blacklist?page=55", "label": "Next &raquo;", "active": false}], "next_page_url": "https://api.payback-ltd.com/api/blacklist?page=55", "path": "https://api.payback-ltd.com/api/blacklist", "per_page": 25, "prev_page_url": "https://api.payback-ltd.com/api/blacklist?page=53", "to": 1350, "total": 12140}