{"current_page": 9, "data": [{"id": 10130, "name": "Balansfx", "short_description": "Based on our experience and/or the warnings of official regulatory bodies, this company, and/or some of its practices, were flagged as a scam/fraud.", "review": "", "fca_link": "https://www.fca.org.uk/news/warnings/balansfx", "logo": "", "screenshot": "", "created_at": "2023-10-10T11:00:00.000000Z", "updated_at": "2023-10-10T11:00:00.000000Z", "website": "www.balansfx80.com", "imposter": false, "copycat": false}, {"id": 10131, "name": "Apxprimeoptions Ltd", "short_description": "Based on our experience and/or the warnings of official regulatory bodies, this company, and/or some of its practices, were flagged as a scam/fraud.", "review": "", "fca_link": "https://www.fca.org.uk/news/warnings/apxprimeoptions-ltd", "logo": "", "screenshot": "", "created_at": "2023-10-10T11:00:00.000000Z", "updated_at": "2023-10-10T11:00:00.000000Z", "website": "www.apxprimeoptions.com", "imposter": false, "copycat": false}, {"id": 10132, "name": "Options Secured Trade", "short_description": "Based on our experience and/or the warnings of official regulatory bodies, this company, and/or some of its practices, were flagged as a scam/fraud.", "review": "", "fca_link": "https://www.fca.org.uk/news/warnings/secured-options-trade", "logo": "", "screenshot": "", "created_at": "2023-10-10T11:00:00.000000Z", "updated_at": "2023-10-10T11:00:00.000000Z", "website": "www.securedoptionstrade.org", "imposter": false, "copycat": false}, {"id": 10133, "name": "Dex Trade Vip", "short_description": "Based on our experience and/or the warnings of official regulatory bodies, this company, and/or some of its practices, were flagged as a scam/fraud.", "review": "", "fca_link": "https://www.fca.org.uk/news/warnings/vip-dex-trade", "logo": "", "screenshot": "", "created_at": "2023-10-10T11:00:00.000000Z", "updated_at": "2023-10-10T11:00:00.000000Z", "website": "www.vipdextrade.com", "imposter": false, "copycat": false}, {"id": 10134, "name": "Fx Holdings Miners", "short_description": "Based on our experience and/or the warnings of official regulatory bodies, this company, and/or some of its practices, were flagged as a scam/fraud.", "review": "", "fca_link": "https://www.fca.org.uk/news/warnings/fx-miners-holdings", "logo": "", "screenshot": "", "created_at": "2023-10-10T11:00:00.000000Z", "updated_at": "2023-10-10T11:00:00.000000Z", "website": "www.fxminerholdings.com", "imposter": false, "copycat": false}, {"id": 10135, "name": "Alphatrexoption", "short_description": "Based on our experience and/or the warnings of official regulatory bodies, this company, and/or some of its practices, were flagged as a scam/fraud.", "review": "", "fca_link": "https://www.fca.org.uk/news/warnings/alphatrexoption", "logo": "", "screenshot": "", "created_at": "2023-10-10T11:00:00.000000Z", "updated_at": "2023-10-10T11:00:00.000000Z", "website": "www.alphatrexoption.com", "imposter": false, "copycat": false}, {"id": 10136, "name": "Auto Bot Genox", "short_description": "Based on our experience and/or the warnings of official regulatory bodies, this company, and/or some of its practices, were flagged as a scam/fraud.", "review": "", "fca_link": "https://www.fca.org.uk/news/warnings/genox-auto-bot", "logo": "", "screenshot": "", "created_at": "2023-10-10T11:00:00.000000Z", "updated_at": "2023-10-10T11:00:00.000000Z", "website": "www.genoxautobot.com", "imposter": false, "copycat": false}, {"id": 10137, "name": "Trademaxpro", "short_description": "Based on our experience and/or the warnings of official regulatory bodies, this company, and/or some of its practices, were flagged as a scam/fraud.", "review": "", "fca_link": "https://www.fca.org.uk/news/warnings/trademaxpro", "logo": "", "screenshot": "", "created_at": "2023-10-10T11:00:00.000000Z", "updated_at": "2023-10-10T11:00:00.000000Z", "website": "www.trademaxpro.com", "imposter": false, "copycat": false}, {"id": 10138, "name": "Apex Bank Finance Uk", "short_description": "Based on our experience and/or the warnings of official regulatory bodies, this company, and/or some of its practices, were flagged as a scam/fraud.", "review": "", "fca_link": "https://www.fca.org.uk/news/warnings/apex-finance-bank-uk", "logo": "", "screenshot": "", "created_at": "2023-10-10T11:00:00.000000Z", "updated_at": "2023-10-10T11:00:00.000000Z", "website": "www.apexfinancebank.com", "imposter": false, "copycat": false}, {"id": 10139, "name": "Access Super Trade", "short_description": "Based on our experience and/or the warnings of official regulatory bodies, this company, and/or some of its practices, were flagged as a scam/fraud.", "review": "", "fca_link": "https://www.fca.org.uk/news/warnings/super-trade-access", "logo": "", "screenshot": "", "created_at": "2023-10-10T11:00:00.000000Z", "updated_at": "2023-10-10T11:00:00.000000Z", "website": "www.supertradeaccess.org", "imposter": false, "copycat": false}, {"id": 10140, "name": "Bank Dana Uk", "short_description": "Based on our experience and/or the warnings of official regulatory bodies, this company, and/or some of its practices, were flagged as a scam/fraud.", "review": "", "fca_link": "https://www.fca.org.uk/news/warnings/dana-bank-uk", "logo": "", "screenshot": "", "created_at": "2023-10-10T11:00:00.000000Z", "updated_at": "2023-10-10T11:00:00.000000Z", "website": "www.danabankuk.com", "imposter": false, "copycat": false}, {"id": 10141, "name": "E-Tech Mining", "short_description": "Based on our experience and/or the warnings of official regulatory bodies, this company, and/or some of its practices, were flagged as a scam/fraud.", "review": "", "fca_link": "https://www.fca.org.uk/news/warnings/e-tech-mining", "logo": "", "screenshot": "", "created_at": "2023-10-10T11:00:00.000000Z", "updated_at": "2023-10-10T11:00:00.000000Z", "website": "https://e-techmining.org/", "imposter": false, "copycat": false}, {"id": 10142, "name": "Cryptodigitalhub", "short_description": "Based on our experience and/or the warnings of official regulatory bodies, this company, and/or some of its practices, were flagged as a scam/fraud.", "review": "", "fca_link": "https://www.fca.org.uk/news/warnings/cryptodigitalhub", "logo": "", "screenshot": "", "created_at": "2023-10-10T11:00:00.000000Z", "updated_at": "2023-10-10T11:00:00.000000Z", "website": "https://cryptodigitalhub.com/", "imposter": false, "copycat": false}, {"id": 10143, "name": "Accelerators Digital", "short_description": "Based on our experience and/or the warnings of official regulatory bodies, this company, and/or some of its practices, were flagged as a scam/fraud.", "review": "", "fca_link": "https://www.fca.org.uk/news/warnings/digital-accelerators", "logo": "", "screenshot": "", "created_at": "2023-10-10T11:00:00.000000Z", "updated_at": "2023-10-10T11:00:00.000000Z", "website": "https://digitalsaccelerators.net/", "imposter": false, "copycat": false}, {"id": 10144, "name": "Contract Trade", "short_description": "Based on our experience and/or the warnings of official regulatory bodies, this company, and/or some of its practices, were flagged as a scam/fraud.", "review": "", "fca_link": "https://www.fca.org.uk/news/warnings/contract-trade", "logo": "", "screenshot": "", "created_at": "2023-10-10T11:00:00.000000Z", "updated_at": "2023-10-11T11:00:00.000000Z", "website": "https://contract-tradefx.net/", "imposter": false, "copycat": false}, {"id": 10145, "name": " Boxchain Boxchainfx Fx", "short_description": "Based on our experience and/or the warnings of official regulatory bodies, this company, and/or some of its practices, were flagged as a scam/fraud.", "review": "", "fca_link": "https://www.fca.org.uk/news/warnings/boxchain-fx-boxchainfxnet", "logo": "", "screenshot": "", "created_at": "2023-10-09T11:00:00.000000Z", "updated_at": "2023-10-09T11:00:00.000000Z", "website": "https://www.boxchainfx.net", "imposter": false, "copycat": false}, {"id": 10146, "name": "Megafxswifttrade", "short_description": "Based on our experience and/or the warnings of official regulatory bodies, this company, and/or some of its practices, were flagged as a scam/fraud.", "review": "", "fca_link": "https://www.fca.org.uk/news/warnings/megafxswifttrade", "logo": "", "screenshot": "", "created_at": "2023-10-09T11:00:00.000000Z", "updated_at": "2023-10-09T11:00:00.000000Z", "website": "www.megafxswifttrade.com", "imposter": false, "copycat": false}, {"id": 10147, "name": "Gianttech Global", "short_description": "Based on our experience and/or the warnings of official regulatory bodies, this company, and/or some of its practices, were flagged as a scam/fraud.", "review": "", "fca_link": "https://www.fca.org.uk/news/warnings/gianttech-global", "logo": "", "screenshot": "", "created_at": "2023-10-09T11:00:00.000000Z", "updated_at": "2023-10-09T11:00:00.000000Z", "website": "https://giant-techglobal.com/", "imposter": false, "copycat": false}, {"id": 10148, "name": "Capital Coin Fx Fxs Molly Mollyfxtrade Trade Trade247", "short_description": "Based on our experience and/or the warnings of official regulatory bodies, this company, and/or some of its practices, were flagged as a scam/fraud.", "review": "", "fca_link": "https://www.fca.org.uk/news/warnings/mollyfxtrade-molly-fx-trade-fxs-capital-coin-trade247", "logo": "", "screenshot": "", "created_at": "2023-10-08T11:00:00.000000Z", "updated_at": "2023-10-08T11:00:00.000000Z", "website": "https://mollyfxtrade.com/", "imposter": false, "copycat": false}, {"id": 10149, "name": "Ltd Spotpayfx", "short_description": "Based on our experience and/or the warnings of official regulatory bodies, this company, and/or some of its practices, were flagged as a scam/fraud.", "review": "", "fca_link": "https://www.fca.org.uk/news/warnings/spotpayfxcom-ltd-spotpayfxcom", "logo": "", "screenshot": "", "created_at": "2023-10-08T11:00:00.000000Z", "updated_at": "2023-10-08T11:00:00.000000Z", "website": "https://spotpayfx.com/", "imposter": false, "copycat": false}, {"id": 10150, "name": "Cresthillfx", "short_description": "Based on our experience and/or the warnings of official regulatory bodies, this company, and/or some of its practices, were flagged as a scam/fraud.", "review": "", "fca_link": "https://www.fca.org.uk/news/warnings/cresthillfx-cresthillfxcom", "logo": "", "screenshot": "", "created_at": "2023-10-08T11:00:00.000000Z", "updated_at": "2023-10-08T11:00:00.000000Z", "website": "cresthillfx.com", "imposter": false, "copycat": false}, {"id": 10151, "name": "Fx Investments Norton Trades", "short_description": "Based on our experience and/or the warnings of official regulatory bodies, this company, and/or some of its practices, were flagged as a scam/fraud.", "review": "", "fca_link": "https://www.fca.org.uk/news/warnings/norton-fx-trades-investments", "logo": "", "screenshot": "", "created_at": "2023-10-08T11:00:00.000000Z", "updated_at": "2023-10-08T11:00:00.000000Z", "website": "nortonfxtrades.com", "imposter": false, "copycat": false}, {"id": 10152, "name": "Superfxrapidtrade", "short_description": "Based on our experience and/or the warnings of official regulatory bodies, this company, and/or some of its practices, were flagged as a scam/fraud.", "review": "", "fca_link": "https://www.fca.org.uk/news/warnings/superfxrapidtrade", "logo": "", "screenshot": "", "created_at": "2023-10-08T11:00:00.000000Z", "updated_at": "2023-10-08T11:00:00.000000Z", "website": "http://superfxrapidtrade.com/", "imposter": false, "copycat": false}, {"id": 10153, "name": " Hodlergroupfx", "short_description": "Based on our experience and/or the warnings of official regulatory bodies, this company, and/or some of its practices, were flagged as a scam/fraud.", "review": "", "fca_link": "https://www.fca.org.uk/news/warnings/hodlergroupfx-https-hodlergroupfxcom-0", "logo": "", "screenshot": "", "created_at": "2023-10-08T11:00:00.000000Z", "updated_at": "2023-10-08T11:00:00.000000Z", "website": "https://hodlergroupfx.com/", "imposter": false, "copycat": false}, {"id": 10154, "name": "Fx Gains Global Unique", "short_description": "Based on our experience and/or the warnings of official regulatory bodies, this company, and/or some of its practices, were flagged as a scam/fraud.", "review": "", "fca_link": "https://www.fca.org.uk/news/warnings/global-unique-gains-fx", "logo": "", "screenshot": "", "created_at": "2023-10-08T11:00:00.000000Z", "updated_at": "2023-10-08T11:00:00.000000Z", "website": "globaluniquegainsfx.com", "imposter": false, "copycat": false}], "first_page_url": "https://api.payback-ltd.com/api/blacklist?page=1", "from": 201, "last_page": 486, "last_page_url": "https://api.payback-ltd.com/api/blacklist?page=486", "links": [{"url": "https://api.payback-ltd.com/api/blacklist?page=8", "label": "&laquo; Previous", "active": false}, {"url": "https://api.payback-ltd.com/api/blacklist?page=1", "label": "1", "active": false}, {"url": "https://api.payback-ltd.com/api/blacklist?page=2", "label": "2", "active": false}, {"url": null, "label": "...", "active": false}, {"url": "https://api.payback-ltd.com/api/blacklist?page=6", "label": "6", "active": false}, {"url": "https://api.payback-ltd.com/api/blacklist?page=7", "label": "7", "active": false}, {"url": "https://api.payback-ltd.com/api/blacklist?page=8", "label": "8", "active": false}, {"url": "https://api.payback-ltd.com/api/blacklist?page=9", "label": "9", "active": true}, {"url": "https://api.payback-ltd.com/api/blacklist?page=10", "label": "10", "active": false}, {"url": "https://api.payback-ltd.com/api/blacklist?page=11", "label": "11", "active": false}, {"url": "https://api.payback-ltd.com/api/blacklist?page=12", "label": "12", "active": false}, {"url": null, "label": "...", "active": false}, {"url": "https://api.payback-ltd.com/api/blacklist?page=485", "label": "485", "active": false}, {"url": "https://api.payback-ltd.com/api/blacklist?page=486", "label": "486", "active": false}, {"url": "https://api.payback-ltd.com/api/blacklist?page=10", "label": "Next &raquo;", "active": false}], "next_page_url": "https://api.payback-ltd.com/api/blacklist?page=10", "path": "https://api.payback-ltd.com/api/blacklist", "per_page": 25, "prev_page_url": "https://api.payback-ltd.com/api/blacklist?page=8", "to": 225, "total": 12140}