{"current_page": 26, "data": [{"id": 10555, "name": "Bank Royal Swift", "short_description": "Based on our experience and/or the warnings of official regulatory bodies, this company, and/or some of its practices, were flagged as a scam/fraud.", "review": "", "fca_link": "https://www.fca.org.uk/news/warnings/royal-swift-bank", "logo": "", "screenshot": "", "created_at": "2023-08-18T11:00:00.000000Z", "updated_at": "2023-08-18T11:00:00.000000Z", "website": "www.royalswiftbank.com", "imposter": false, "copycat": false}, {"id": 10556, "name": "Irs Irsinvest", "short_description": "Based on our experience and/or the warnings of official regulatory bodies, this company, and/or some of its practices, were flagged as a scam/fraud.", "review": "", "fca_link": "https://www.fca.org.uk/news/warnings/irs-irsinvestcom-clone-fca-authorised-firm", "logo": "", "screenshot": "", "created_at": "2023-08-17T11:00:00.000000Z", "updated_at": "2023-09-05T11:00:00.000000Z", "website": "https://irsinvest.com/, https://user.irsolution.io/login, https://user.ir-strategies.net/", "imposter": false, "copycat": false}, {"id": 10557, "name": "Allan Bank Gray", "short_description": "Based on our experience and/or the warnings of official regulatory bodies, this company, and/or some of its practices, were flagged as a scam/fraud.", "review": "", "fca_link": "https://www.fca.org.uk/news/warnings/allan-gray-bank", "logo": "", "screenshot": "", "created_at": "2023-08-17T11:00:00.000000Z", "updated_at": "2023-09-22T11:00:00.000000Z", "website": "www.allangraybank.com", "imposter": false, "copycat": false}, {"id": 10558, "name": "Clearbkgroup", "short_description": "Based on our experience and/or the warnings of official regulatory bodies, this company, and/or some of its practices, were flagged as a scam/fraud.", "review": "", "fca_link": "https://www.fca.org.uk/news/warnings/clearbkgroupcom-clone-fca-authorised-firm", "logo": "", "screenshot": "", "created_at": "2023-08-17T11:00:00.000000Z", "updated_at": "2023-08-17T11:00:00.000000Z", "website": "https://clearbkgroup.com/home.asp", "imposter": false, "copycat": false}, {"id": 10559, "name": "Apex Fx Investment", "short_description": "Based on our experience and/or the warnings of official regulatory bodies, this company, and/or some of its practices, were flagged as a scam/fraud.", "review": "", "fca_link": "https://www.fca.org.uk/news/warnings/apex-fx-investment", "logo": "", "screenshot": "", "created_at": "2023-08-17T11:00:00.000000Z", "updated_at": "2023-08-17T11:00:00.000000Z", "website": "www.apexfxonline.com", "imposter": false, "copycat": false}, {"id": 10560, "name": "EnquiryDebtsupportservic", "short_description": "Based on our experience and/or the warnings of official regulatory bodies, this company, and/or some of its practices, were flagged as a scam/fraud.", "review": "", "fca_link": "https://www.fca.org.uk/news/warnings/enquirydebtsupportserviccouk-clone-fca-authorised-firm", "logo": "", "screenshot": "", "created_at": "2023-08-17T11:00:00.000000Z", "updated_at": "2023-08-17T11:00:00.000000Z", "website": "", "imposter": false, "copycat": false}, {"id": 10561, "name": "Delta Deltafinancelenders Finance Lenders", "short_description": "Based on our experience and/or the warnings of official regulatory bodies, this company, and/or some of its practices, were flagged as a scam/fraud.", "review": "", "fca_link": "https://www.fca.org.uk/news/warnings/delta-finance-lenders-deltafinancelenderscouk", "logo": "", "screenshot": "", "created_at": "2023-08-17T11:00:00.000000Z", "updated_at": "2023-08-17T11:00:00.000000Z", "website": "www.deltafinancelenders.co.uk", "imposter": false, "copycat": false}, {"id": 10562, "name": "Timbullman", "short_description": "Based on our experience and/or the warnings of official regulatory bodies, this company, and/or some of its practices, were flagged as a scam/fraud.", "review": "", "fca_link": "https://www.fca.org.uk/news/warnings/timbullman", "logo": "", "screenshot": "", "created_at": "2023-08-17T11:00:00.000000Z", "updated_at": "2023-08-22T11:00:00.000000Z", "website": "www.timbullman.com,", "imposter": false, "copycat": false}, {"id": 10563, "name": "Blue Fx Gains Max", "short_description": "Based on our experience and/or the warnings of official regulatory bodies, this company, and/or some of its practices, were flagged as a scam/fraud.", "review": "", "fca_link": "https://www.fca.org.uk/news/warnings/max-gains-blue-fx", "logo": "", "screenshot": "", "created_at": "2023-08-17T11:00:00.000000Z", "updated_at": "2023-08-17T11:00:00.000000Z", "website": "www.maxgainsbluefx.com", "imposter": false, "copycat": false}, {"id": 10564, "name": "Limited Netwealth Trade", "short_description": "Based on our experience and/or the warnings of official regulatory bodies, this company, and/or some of its practices, were flagged as a scam/fraud.", "review": "", "fca_link": "https://www.fca.org.uk/news/warnings/netwealth-trade-limited-clone-fca-authorised-firm", "logo": "", "screenshot": "", "created_at": "2023-08-17T11:00:00.000000Z", "updated_at": "2023-08-17T11:00:00.000000Z", "website": "netwealthtrade.com", "imposter": false, "copycat": false}, {"id": 10565, "name": "Coalternative Energy Ltd", "short_description": "Based on our experience and/or the warnings of official regulatory bodies, this company, and/or some of its practices, were flagged as a scam/fraud.", "review": "", "fca_link": "https://www.fca.org.uk/news/warnings/coalternative-energy-ltd", "logo": "", "screenshot": "", "created_at": "2023-08-16T11:00:00.000000Z", "updated_at": "2023-08-16T11:00:00.000000Z", "website": "", "imposter": false, "copycat": false}, {"id": 10566, "name": "Betacentralprofits", "short_description": "Based on our experience and/or the warnings of official regulatory bodies, this company, and/or some of its practices, were flagged as a scam/fraud.", "review": "", "fca_link": "https://www.fca.org.uk/news/warnings/betacentralprofitscom", "logo": "", "screenshot": "", "created_at": "2023-08-16T11:00:00.000000Z", "updated_at": "2023-08-16T11:00:00.000000Z", "website": "", "imposter": false, "copycat": false}, {"id": 10567, "name": "Beta-Centralprofits", "short_description": "Based on our experience and/or the warnings of official regulatory bodies, this company, and/or some of its practices, were flagged as a scam/fraud.", "review": "", "fca_link": "https://www.fca.org.uk/news/warnings/beta-centralprofitscom", "logo": "", "screenshot": "", "created_at": "2023-08-16T11:00:00.000000Z", "updated_at": "2023-08-16T11:00:00.000000Z", "website": "", "imposter": false, "copycat": false}, {"id": 10568, "name": "Icetrade", "short_description": "Based on our experience and/or the warnings of official regulatory bodies, this company, and/or some of its practices, were flagged as a scam/fraud.", "review": "", "fca_link": "https://www.fca.org.uk/news/warnings/icetradecouk-clone-fca-authorised-firm", "logo": "", "screenshot": "", "created_at": "2023-08-16T11:00:00.000000Z", "updated_at": "2023-08-16T11:00:00.000000Z", "website": "icetrade.co.uk", "imposter": false, "copycat": false}, {"id": 10569, "name": "Rm Tc", "short_description": "Based on our experience and/or the warnings of official regulatory bodies, this company, and/or some of its practices, were flagged as a scam/fraud.", "review": "", "fca_link": "https://www.fca.org.uk/news/warnings/wwwtc-rmru-clone-fca-authorised-firm", "logo": "", "screenshot": "", "created_at": "2023-08-16T11:00:00.000000Z", "updated_at": "2023-08-16T11:00:00.000000Z", "website": "https://www.tc-rm.ru/", "imposter": false, "copycat": false}, {"id": 10570, "name": "Digital Forex Pay Trading", "short_description": "Based on our experience and/or the warnings of official regulatory bodies, this company, and/or some of its practices, were flagged as a scam/fraud.", "review": "", "fca_link": "https://www.fca.org.uk/news/warnings/forex-trading-digital-pay", "logo": "", "screenshot": "", "created_at": "2023-08-16T11:00:00.000000Z", "updated_at": "2023-08-16T11:00:00.000000Z", "website": "www.fxtradingdigitalpay.com", "imposter": false, "copycat": false}, {"id": 10571, "name": "Green Law Sulzer", "short_description": "Based on our experience and/or the warnings of official regulatory bodies, this company, and/or some of its practices, were flagged as a scam/fraud.", "review": "", "fca_link": "https://www.fca.org.uk/news/warnings/sulzer-green-law", "logo": "", "screenshot": "", "created_at": "2023-08-16T11:00:00.000000Z", "updated_at": "2023-08-16T11:00:00.000000Z", "website": "www.sulzergreenlaw.com", "imposter": false, "copycat": false}, {"id": 10572, "name": "Global Mgm Mgmglobal", "short_description": "Based on our experience and/or the warnings of official regulatory bodies, this company, and/or some of its practices, were flagged as a scam/fraud.", "review": "", "fca_link": "https://www.fca.org.uk/news/warnings/mgm-global-mgmglobalcom", "logo": "", "screenshot": "", "created_at": "2023-08-16T11:00:00.000000Z", "updated_at": "2023-09-06T11:00:00.000000Z", "website": "mgmglobal.com", "imposter": false, "copycat": false}, {"id": 10573, "name": "Financial Vista Vistafinancialadvisorsllc Vistafinancialadvrllc", "short_description": "Based on our experience and/or the warnings of official regulatory bodies, this company, and/or some of its practices, were flagged as a scam/fraud.", "review": "", "fca_link": "https://www.fca.org.uk/news/warnings/vista-financial-vistafinancialadvrllccom-vistafinancialadvisorsllccom", "logo": "", "screenshot": "", "created_at": "2023-08-16T11:00:00.000000Z", "updated_at": "2023-10-06T11:00:00.000000Z", "website": "www.vistafinancialadvrllc.com, vistafinancialadvisorsllc.com", "imposter": false, "copycat": false}, {"id": 10574, "name": "Clone Company Limited Ltd N Nbsa Nedbank Of Registered Uk", "short_description": "Based on our experience and/or the warnings of official regulatory bodies, this company, and/or some of its practices, were flagged as a scam/fraud.", "review": "", "fca_link": "https://www.fca.org.uk/news/warnings/nedbank-limited-nbsa-ltd-nbsa-ltd-clone-uk-registered-company", "logo": "", "screenshot": "", "created_at": "2023-08-16T11:00:00.000000Z", "updated_at": "2023-08-16T11:00:00.000000Z", "website": "https://nbsa-am.co.uk/", "imposter": false, "copycat": false}, {"id": 10575, "name": "Cfmfxbroker", "short_description": "Based on our experience and/or the warnings of official regulatory bodies, this company, and/or some of its practices, were flagged as a scam/fraud.", "review": "", "fca_link": "https://www.fca.org.uk/news/warnings/cfmfxbroker", "logo": "", "screenshot": "", "created_at": "2023-08-16T11:00:00.000000Z", "updated_at": "2023-08-16T11:00:00.000000Z", "website": "www.cfmfxbroker.online", "imposter": false, "copycat": false}, {"id": 10576, "name": "Bitmetalitfx", "short_description": "Based on our experience and/or the warnings of official regulatory bodies, this company, and/or some of its practices, were flagged as a scam/fraud.", "review": "", "fca_link": "https://www.fca.org.uk/news/warnings/bitmetalitfx", "logo": "", "screenshot": "", "created_at": "2023-08-16T11:00:00.000000Z", "updated_at": "2023-08-16T11:00:00.000000Z", "website": "www.bitmetalitfx.com", "imposter": false, "copycat": false}, {"id": 10577, "name": "Bitforex Bitforextrade Trade", "short_description": "Based on our experience and/or the warnings of official regulatory bodies, this company, and/or some of its practices, were flagged as a scam/fraud.", "review": "", "fca_link": "https://www.fca.org.uk/news/warnings/bitforex-trade-bitforextrade", "logo": "", "screenshot": "", "created_at": "2023-08-16T11:00:00.000000Z", "updated_at": "2023-08-16T11:00:00.000000Z", "website": "www.bitforextrades.live", "imposter": false, "copycat": false}, {"id": 10578, "name": "Econfx", "short_description": "Based on our experience and/or the warnings of official regulatory bodies, this company, and/or some of its practices, were flagged as a scam/fraud.", "review": "", "fca_link": "https://www.fca.org.uk/news/warnings/econfx", "logo": "", "screenshot": "", "created_at": "2023-08-16T11:00:00.000000Z", "updated_at": "2023-08-16T11:00:00.000000Z", "website": "www.econfx.com", "imposter": false, "copycat": false}, {"id": 10579, "name": "Associates Intrepid Llc", "short_description": "Based on our experience and/or the warnings of official regulatory bodies, this company, and/or some of its practices, were flagged as a scam/fraud.", "review": "", "fca_link": "https://www.fca.org.uk/news/warnings/intrepid-associates-llc", "logo": "", "screenshot": "", "created_at": "2023-08-15T11:00:00.000000Z", "updated_at": "2023-08-30T11:00:00.000000Z", "website": "www.intrepidassoc.com", "imposter": false, "copycat": false}], "first_page_url": "https://api.payback-ltd.com/api/blacklist?page=1", "from": 626, "last_page": 486, "last_page_url": "https://api.payback-ltd.com/api/blacklist?page=486", "links": [{"url": "https://api.payback-ltd.com/api/blacklist?page=25", "label": "&laquo; Previous", "active": false}, {"url": "https://api.payback-ltd.com/api/blacklist?page=1", "label": "1", "active": false}, {"url": "https://api.payback-ltd.com/api/blacklist?page=2", "label": "2", "active": false}, {"url": null, "label": "...", "active": false}, {"url": "https://api.payback-ltd.com/api/blacklist?page=23", "label": "23", "active": false}, {"url": "https://api.payback-ltd.com/api/blacklist?page=24", "label": "24", "active": false}, {"url": "https://api.payback-ltd.com/api/blacklist?page=25", "label": "25", "active": false}, {"url": "https://api.payback-ltd.com/api/blacklist?page=26", "label": "26", "active": true}, {"url": "https://api.payback-ltd.com/api/blacklist?page=27", "label": "27", "active": false}, {"url": "https://api.payback-ltd.com/api/blacklist?page=28", "label": "28", "active": false}, {"url": "https://api.payback-ltd.com/api/blacklist?page=29", "label": "29", "active": false}, {"url": null, "label": "...", "active": false}, {"url": "https://api.payback-ltd.com/api/blacklist?page=485", "label": "485", "active": false}, {"url": "https://api.payback-ltd.com/api/blacklist?page=486", "label": "486", "active": false}, {"url": "https://api.payback-ltd.com/api/blacklist?page=27", "label": "Next &raquo;", "active": false}], "next_page_url": "https://api.payback-ltd.com/api/blacklist?page=27", "path": "https://api.payback-ltd.com/api/blacklist", "per_page": 25, "prev_page_url": "https://api.payback-ltd.com/api/blacklist?page=25", "to": 650, "total": 12140}