{"current_page": 16, "data": [{"id": 10305, "name": "Citynationfx-Trading", "short_description": "Based on our experience and/or the warnings of official regulatory bodies, this company, and/or some of its practices, were flagged as a scam/fraud.", "review": "", "fca_link": "https://www.fca.org.uk/news/warnings/citynationfx-trading", "logo": "", "screenshot": "", "created_at": "2023-10-04T11:00:00.000000Z", "updated_at": "2023-10-04T11:00:00.000000Z", "website": "www.citynationfx-trading.com", "imposter": false, "copycat": false}, {"id": 10306, "name": "Crystal Fx", "short_description": "Based on our experience and/or the warnings of official regulatory bodies, this company, and/or some of its practices, were flagged as a scam/fraud.", "review": "", "fca_link": "https://www.fca.org.uk/news/warnings/crystal-fx", "logo": "", "screenshot": "", "created_at": "2023-10-04T11:00:00.000000Z", "updated_at": "2023-10-04T11:00:00.000000Z", "website": "www.crystalfx.org", "imposter": false, "copycat": false}, {"id": 10307, "name": "Gbg Gbglmtd Limited", "short_description": "Based on our experience and/or the warnings of official regulatory bodies, this company, and/or some of its practices, were flagged as a scam/fraud.", "review": "", "fca_link": "https://www.fca.org.uk/news/warnings/gbg-limited-gbglmtdcom-clone-fca-authorised-firm", "logo": "", "screenshot": "", "created_at": "2023-10-03T11:00:00.000000Z", "updated_at": "2023-10-03T11:00:00.000000Z", "website": "https://gbglmtd.com/", "imposter": false, "copycat": false}, {"id": 10308, "name": "Asset Flow Traders", "short_description": "Based on our experience and/or the warnings of official regulatory bodies, this company, and/or some of its practices, were flagged as a scam/fraud.", "review": "", "fca_link": "https://www.fca.org.uk/news/warnings/asset-flow-traders", "logo": "", "screenshot": "", "created_at": "2023-10-02T11:00:00.000000Z", "updated_at": "2023-10-02T11:00:00.000000Z", "website": "https://assetflowtraders.com/", "imposter": false, "copycat": false}, {"id": 10309, "name": "Alphamining", "short_description": "Based on our experience and/or the warnings of official regulatory bodies, this company, and/or some of its practices, were flagged as a scam/fraud.", "review": "", "fca_link": "https://www.fca.org.uk/news/warnings/alphamining", "logo": "", "screenshot": "", "created_at": "2023-10-02T11:00:00.000000Z", "updated_at": "2023-10-17T11:00:00.000000Z", "website": "https://alphaminingpool.com", "imposter": false, "copycat": false}, {"id": 10310, "name": "Invest Planguard", "short_description": "Based on our experience and/or the warnings of official regulatory bodies, this company, and/or some of its practices, were flagged as a scam/fraud.", "review": "", "fca_link": "https://www.fca.org.uk/news/warnings/planguard-invest", "logo": "", "screenshot": "", "created_at": "2023-10-02T11:00:00.000000Z", "updated_at": "2023-10-17T11:00:00.000000Z", "website": "https://planguardinvest.com", "imposter": false, "copycat": false}, {"id": 10311, "name": "Gainground", "short_description": "Based on our experience and/or the warnings of official regulatory bodies, this company, and/or some of its practices, were flagged as a scam/fraud.", "review": "", "fca_link": "https://www.fca.org.uk/news/warnings/gainground", "logo": "", "screenshot": "", "created_at": "2023-10-02T11:00:00.000000Z", "updated_at": "2023-10-02T11:00:00.000000Z", "website": "www.gainground.live", "imposter": false, "copycat": false}, {"id": 10312, "name": "Finec Royal Technology", "short_description": "Based on our experience and/or the warnings of official regulatory bodies, this company, and/or some of its practices, were flagged as a scam/fraud.", "review": "", "fca_link": "https://www.fca.org.uk/news/warnings/finec-royal-technology", "logo": "", "screenshot": "", "created_at": "2023-09-29T11:00:00.000000Z", "updated_at": "2023-09-29T11:00:00.000000Z", "website": "https://finecsolutions.com/", "imposter": false, "copycat": false}, {"id": 10313, "name": "Smartmetatrader", "short_description": "Based on our experience and/or the warnings of official regulatory bodies, this company, and/or some of its practices, were flagged as a scam/fraud.", "review": "", "fca_link": "https://www.fca.org.uk/news/warnings/smartmetatrader", "logo": "", "screenshot": "", "created_at": "2023-09-29T11:00:00.000000Z", "updated_at": "2023-09-29T11:00:00.000000Z", "website": "www.smartmetatrader.com", "imposter": false, "copycat": false}, {"id": 10314, "name": "Mkts Option Optionmkts", "short_description": "Based on our experience and/or the warnings of official regulatory bodies, this company, and/or some of its practices, were flagged as a scam/fraud.", "review": "", "fca_link": "https://www.fca.org.uk/news/warnings/option-mkts-optionmktscom", "logo": "", "screenshot": "", "created_at": "2023-09-29T11:00:00.000000Z", "updated_at": "2023-09-29T11:00:00.000000Z", "website": "www.optionmkts.com", "imposter": false, "copycat": false}, {"id": 10315, "name": "Actionfxtrade", "short_description": "Based on our experience and/or the warnings of official regulatory bodies, this company, and/or some of its practices, were flagged as a scam/fraud.", "review": "", "fca_link": "https://www.fca.org.uk/news/warnings/actionfxtrade", "logo": "", "screenshot": "", "created_at": "2023-09-29T11:00:00.000000Z", "updated_at": "2023-09-29T11:00:00.000000Z", "website": "www.actionfxtrade.com", "imposter": false, "copycat": false}, {"id": 10316, "name": "Bit Finance Iq Live", "short_description": "Based on our experience and/or the warnings of official regulatory bodies, this company, and/or some of its practices, were flagged as a scam/fraud.", "review": "", "fca_link": "https://www.fca.org.uk/news/warnings/bit-finance-live-iq", "logo": "", "screenshot": "", "created_at": "2023-09-29T11:00:00.000000Z", "updated_at": "2023-09-29T11:00:00.000000Z", "website": "www.bitfinanceliveiq.com", "imposter": false, "copycat": false}, {"id": 10317, "name": "Sogtradex", "short_description": "Based on our experience and/or the warnings of official regulatory bodies, this company, and/or some of its practices, were flagged as a scam/fraud.", "review": "", "fca_link": "https://www.fca.org.uk/news/warnings/sogtradex", "logo": "", "screenshot": "", "created_at": "2023-09-29T11:00:00.000000Z", "updated_at": "2023-09-29T11:00:00.000000Z", "website": "www.sogtradex.com", "imposter": false, "copycat": false}, {"id": 10318, "name": "Olympicplatforms247", "short_description": "Based on our experience and/or the warnings of official regulatory bodies, this company, and/or some of its practices, were flagged as a scam/fraud.", "review": "", "fca_link": "https://www.fca.org.uk/news/warnings/olympicplatforms247", "logo": "", "screenshot": "", "created_at": "2023-09-29T11:00:00.000000Z", "updated_at": "2023-09-29T11:00:00.000000Z", "website": "www.olympicplatforms247.live", "imposter": false, "copycat": false}, {"id": 10319, "name": "Cryptoexperttrade", "short_description": "Based on our experience and/or the warnings of official regulatory bodies, this company, and/or some of its practices, were flagged as a scam/fraud.", "review": "", "fca_link": "https://www.fca.org.uk/news/warnings/cryptoexperttrade", "logo": "", "screenshot": "", "created_at": "2023-09-29T11:00:00.000000Z", "updated_at": "2023-09-29T11:00:00.000000Z", "website": "www.cryptoexperttradeltd.com", "imposter": false, "copycat": false}, {"id": 10320, "name": "Globalonlinefx", "short_description": "Based on our experience and/or the warnings of official regulatory bodies, this company, and/or some of its practices, were flagged as a scam/fraud.", "review": "", "fca_link": "https://www.fca.org.uk/news/warnings/globalonlinefx", "logo": "", "screenshot": "", "created_at": "2023-09-29T11:00:00.000000Z", "updated_at": "2023-09-29T11:00:00.000000Z", "website": "www.globalonlinefx.com", "imposter": false, "copycat": false}, {"id": 10321, "name": "Market Tio Tiomarkets-Trading Trading", "short_description": "Based on our experience and/or the warnings of official regulatory bodies, this company, and/or some of its practices, were flagged as a scam/fraud.", "review": "", "fca_link": "https://www.fca.org.uk/news/warnings/tio-market-trading-tiomarkets-tradingcom-clone-fca-authorised-firm", "logo": "", "screenshot": "", "created_at": "2023-09-28T11:00:00.000000Z", "updated_at": "2023-09-28T11:00:00.000000Z", "website": "www.tiomarkets-trading.com", "imposter": false, "copycat": false}, {"id": 10322, "name": "Bank Royal Standard", "short_description": "Based on our experience and/or the warnings of official regulatory bodies, this company, and/or some of its practices, were flagged as a scam/fraud.", "review": "", "fca_link": "https://www.fca.org.uk/news/warnings/standard-royal-bank", "logo": "", "screenshot": "", "created_at": "2023-09-28T11:00:00.000000Z", "updated_at": "2023-09-28T11:00:00.000000Z", "website": "https://standardroyalbank.com", "imposter": false, "copycat": false}, {"id": 10323, "name": "Bank Vetex", "short_description": "Based on our experience and/or the warnings of official regulatory bodies, this company, and/or some of its practices, were flagged as a scam/fraud.", "review": "", "fca_link": "https://www.fca.org.uk/news/warnings/vetex-bank", "logo": "", "screenshot": "", "created_at": "2023-09-28T11:00:00.000000Z", "updated_at": "2023-09-28T11:00:00.000000Z", "website": "https://vetexbank.com", "imposter": false, "copycat": false}, {"id": 10324, "name": "Holdings Novafx", "short_description": "Based on our experience and/or the warnings of official regulatory bodies, this company, and/or some of its practices, were flagged as a scam/fraud.", "review": "", "fca_link": "https://www.fca.org.uk/news/warnings/novafx-holdings", "logo": "", "screenshot": "", "created_at": "2023-09-27T11:00:00.000000Z", "updated_at": "2023-09-28T11:00:00.000000Z", "website": "https://novafxholdings.com/", "imposter": false, "copycat": false}, {"id": 10325, "name": "Bit Fx Investment", "short_description": "Based on our experience and/or the warnings of official regulatory bodies, this company, and/or some of its practices, were flagged as a scam/fraud.", "review": "", "fca_link": "https://www.fca.org.uk/news/warnings/bit-fx-investment", "logo": "", "screenshot": "", "created_at": "2023-09-27T11:00:00.000000Z", "updated_at": "2023-09-27T11:00:00.000000Z", "website": "https://bitfxinvstment.com/", "imposter": false, "copycat": false}, {"id": 10326, "name": " Absolute Absolutefxt Fx Trade", "short_description": "Based on our experience and/or the warnings of official regulatory bodies, this company, and/or some of its practices, were flagged as a scam/fraud.", "review": "", "fca_link": "https://www.fca.org.uk/news/warnings/absolute-fx-trade-www-absolutefxtcom", "logo": "", "screenshot": "", "created_at": "2023-09-27T11:00:00.000000Z", "updated_at": "2023-09-27T11:00:00.000000Z", "website": "https://absolutefxt.com/", "imposter": false, "copycat": false}, {"id": 10327, "name": "City Cloud Mining", "short_description": "Based on our experience and/or the warnings of official regulatory bodies, this company, and/or some of its practices, were flagged as a scam/fraud.", "review": "", "fca_link": "https://www.fca.org.uk/news/warnings/cloud-mining-city", "logo": "", "screenshot": "", "created_at": "2023-09-27T11:00:00.000000Z", "updated_at": "2023-09-27T11:00:00.000000Z", "website": "www.cloudminingcity.com", "imposter": false, "copycat": false}, {"id": 10328, "name": "Bank Trust Wave", "short_description": "Based on our experience and/or the warnings of official regulatory bodies, this company, and/or some of its practices, were flagged as a scam/fraud.", "review": "", "fca_link": "https://www.fca.org.uk/news/warnings/trust-wave-bank", "logo": "", "screenshot": "", "created_at": "2023-09-27T11:00:00.000000Z", "updated_at": "2023-09-27T11:00:00.000000Z", "website": "www.trustwavebank.com", "imposter": false, "copycat": false}, {"id": 10329, "name": "Kudoscm", "short_description": "Based on our experience and/or the warnings of official regulatory bodies, this company, and/or some of its practices, were flagged as a scam/fraud.", "review": "", "fca_link": "https://www.fca.org.uk/news/warnings/kudoscmcom", "logo": "", "screenshot": "", "created_at": "2023-09-27T11:00:00.000000Z", "updated_at": "2023-09-27T11:00:00.000000Z", "website": "www.kudoscm.com", "imposter": false, "copycat": false}], "first_page_url": "https://api.payback-ltd.com/api/blacklist?page=1", "from": 376, "last_page": 486, "last_page_url": "https://api.payback-ltd.com/api/blacklist?page=486", "links": [{"url": "https://api.payback-ltd.com/api/blacklist?page=15", "label": "&laquo; Previous", "active": false}, {"url": "https://api.payback-ltd.com/api/blacklist?page=1", "label": "1", "active": false}, {"url": "https://api.payback-ltd.com/api/blacklist?page=2", "label": "2", "active": false}, {"url": null, "label": "...", "active": false}, {"url": "https://api.payback-ltd.com/api/blacklist?page=13", "label": "13", "active": false}, {"url": "https://api.payback-ltd.com/api/blacklist?page=14", "label": "14", "active": false}, {"url": "https://api.payback-ltd.com/api/blacklist?page=15", "label": "15", "active": false}, {"url": "https://api.payback-ltd.com/api/blacklist?page=16", "label": "16", "active": true}, {"url": "https://api.payback-ltd.com/api/blacklist?page=17", "label": "17", "active": false}, {"url": "https://api.payback-ltd.com/api/blacklist?page=18", "label": "18", "active": false}, {"url": "https://api.payback-ltd.com/api/blacklist?page=19", "label": "19", "active": false}, {"url": null, "label": "...", "active": false}, {"url": "https://api.payback-ltd.com/api/blacklist?page=485", "label": "485", "active": false}, {"url": "https://api.payback-ltd.com/api/blacklist?page=486", "label": "486", "active": false}, {"url": "https://api.payback-ltd.com/api/blacklist?page=17", "label": "Next &raquo;", "active": false}], "next_page_url": "https://api.payback-ltd.com/api/blacklist?page=17", "path": "https://api.payback-ltd.com/api/blacklist", "per_page": 25, "prev_page_url": "https://api.payback-ltd.com/api/blacklist?page=15", "to": 400, "total": 12140}