{"current_page": 57, "data": [{"id": 11330, "name": "Advice Money Uk", "short_description": "Based on our experience and/or the warnings of official regulatory bodies, this company, and/or some of its practices, were flagged as a scam/fraud.", "review": "", "fca_link": "https://www.fca.org.uk/news/warnings/uk-money-advice", "logo": "", "screenshot": "", "created_at": "2023-03-15T12:00:00.000000Z", "updated_at": "2023-03-15T12:00:00.000000Z", "website": "www.ukmoneyadvice.com", "imposter": false, "copycat": false}, {"id": 11331, "name": "Fint Limited Ukde", "short_description": "Based on our experience and/or the warnings of official regulatory bodies, this company, and/or some of its practices, were flagged as a scam/fraud.", "review": "", "fca_link": "https://www.fca.org.uk/news/warnings/ukde-limited-fint", "logo": "", "screenshot": "", "created_at": "2023-03-15T12:00:00.000000Z", "updated_at": "2023-03-15T12:00:00.000000Z", "website": "ukde.com, ukde.uk, ukde.co.uk, fint.one", "imposter": false, "copycat": false}, {"id": 11332, "name": "Fund International Management Wealth", "short_description": "Based on our experience and/or the warnings of official regulatory bodies, this company, and/or some of its practices, were flagged as a scam/fraud.", "review": "", "fca_link": "https://www.fca.org.uk/news/warnings/wealth-fund-management-international", "logo": "", "screenshot": "", "created_at": "2023-03-15T12:00:00.000000Z", "updated_at": "2023-03-16T12:00:00.000000Z", "website": "www.wealthfundmanagement.com", "imposter": false, "copycat": false}, {"id": 11333, "name": "Octafx-Earn", "short_description": "Based on our experience and/or the warnings of official regulatory bodies, this company, and/or some of its practices, were flagged as a scam/fraud.", "review": "", "fca_link": "https://www.fca.org.uk/news/warnings/octafx-earn", "logo": "", "screenshot": "", "created_at": "2023-03-15T12:00:00.000000Z", "updated_at": "2023-03-15T12:00:00.000000Z", "website": "https://octafx-earns.com", "imposter": false, "copycat": false}, {"id": 11334, "name": "Crypto Main Trades", "short_description": "Based on our experience and/or the warnings of official regulatory bodies, this company, and/or some of its practices, were flagged as a scam/fraud.", "review": "", "fca_link": "https://www.fca.org.uk/news/warnings/main-crypto-trades", "logo": "", "screenshot": "", "created_at": "2023-03-15T12:00:00.000000Z", "updated_at": "2023-10-16T11:00:00.000000Z", "website": "https://maincryptotrades.com/", "imposter": false, "copycat": false}, {"id": 11335, "name": "Globalcryptotradealliance", "short_description": "Based on our experience and/or the warnings of official regulatory bodies, this company, and/or some of its practices, were flagged as a scam/fraud.", "review": "", "fca_link": "https://www.fca.org.uk/news/warnings/globalcryptotradealliance", "logo": "", "screenshot": "", "created_at": "2023-03-15T12:00:00.000000Z", "updated_at": "2023-03-15T12:00:00.000000Z", "website": "https://globalcryptotradealliance.com/", "imposter": false, "copycat": false}, {"id": 11336, "name": "Deeland Investments", "short_description": "Based on our experience and/or the warnings of official regulatory bodies, this company, and/or some of its practices, were flagged as a scam/fraud.", "review": "", "fca_link": "https://www.fca.org.uk/news/warnings/deeland-investments-clone-uk-registered-company", "logo": "", "screenshot": "", "created_at": "2023-03-15T12:00:00.000000Z", "updated_at": "2023-03-15T12:00:00.000000Z", "website": "https://deeland.uk/index.html", "imposter": false, "copycat": false}, {"id": 11337, "name": "Money Refund Refundyourmoney Your", "short_description": "Based on our experience and/or the warnings of official regulatory bodies, this company, and/or some of its practices, were flagged as a scam/fraud.", "review": "", "fca_link": "https://www.fca.org.uk/news/warnings/refund-your-money-refundyourmoneyorg", "logo": "", "screenshot": "", "created_at": "2023-03-15T12:00:00.000000Z", "updated_at": "2023-03-15T12:00:00.000000Z", "website": "www.refundyourmoney.org", "imposter": false, "copycat": false}, {"id": 11338, "name": "Forex Global Instant Swift Swiftinstanttrading Trading", "short_description": "Based on our experience and/or the warnings of official regulatory bodies, this company, and/or some of its practices, were flagged as a scam/fraud.", "review": "", "fca_link": "https://www.fca.org.uk/news/warnings/global-swift-instant-forex-trading-swiftinstanttradingcom", "logo": "", "screenshot": "", "created_at": "2023-03-15T12:00:00.000000Z", "updated_at": "2023-03-15T12:00:00.000000Z", "website": "www.swiftinstanttrading.com", "imposter": false, "copycat": false}, {"id": 11339, "name": "Crypto Diamond Finance", "short_description": "Based on our experience and/or the warnings of official regulatory bodies, this company, and/or some of its practices, were flagged as a scam/fraud.", "review": "", "fca_link": "https://www.fca.org.uk/news/warnings/diamond-crypto-finance", "logo": "", "screenshot": "", "created_at": "2023-03-15T12:00:00.000000Z", "updated_at": "2023-03-15T12:00:00.000000Z", "website": "www.diamondcryptofinance.com", "imposter": false, "copycat": false}, {"id": 11340, "name": "Group Multibank Multibankfx", "short_description": "Based on our experience and/or the warnings of official regulatory bodies, this company, and/or some of its practices, were flagged as a scam/fraud.", "review": "", "fca_link": "https://www.fca.org.uk/news/warnings/multibank-group-multibankfxcom", "logo": "", "screenshot": "", "created_at": "2023-03-15T12:00:00.000000Z", "updated_at": "2023-03-24T11:00:00.000000Z", "website": "www.multibankfx.com", "imposter": false, "copycat": false}, {"id": 11341, "name": "Gro-Income", "short_description": "Based on our experience and/or the warnings of official regulatory bodies, this company, and/or some of its practices, were flagged as a scam/fraud.", "review": "", "fca_link": "https://www.fca.org.uk/news/warnings/gro-incomenet", "logo": "", "screenshot": "", "created_at": "2023-03-15T12:00:00.000000Z", "updated_at": "2023-03-15T12:00:00.000000Z", "website": "www.gro-income.net", "imposter": false, "copycat": false}, {"id": 11342, "name": "Genuinecapitals Limited", "short_description": "Based on our experience and/or the warnings of official regulatory bodies, this company, and/or some of its practices, were flagged as a scam/fraud.", "review": "", "fca_link": "https://www.fca.org.uk/news/warnings/genuinecapitals-limited", "logo": "", "screenshot": "", "created_at": "2023-03-15T12:00:00.000000Z", "updated_at": "2023-03-15T12:00:00.000000Z", "website": "www.genuinecapitals.ltd", "imposter": false, "copycat": false}, {"id": 11343, "name": "Incometrade", "short_description": "Based on our experience and/or the warnings of official regulatory bodies, this company, and/or some of its practices, were flagged as a scam/fraud.", "review": "", "fca_link": "https://www.fca.org.uk/news/warnings/incometrade", "logo": "", "screenshot": "", "created_at": "2023-03-15T12:00:00.000000Z", "updated_at": "2023-05-03T11:00:00.000000Z", "website": "www.incometrade.co, www.incometrade.ltd", "imposter": false, "copycat": false}, {"id": 11344, "name": "Fxtrades Premium", "short_description": "Based on our experience and/or the warnings of official regulatory bodies, this company, and/or some of its practices, were flagged as a scam/fraud.", "review": "", "fca_link": "https://www.fca.org.uk/news/warnings/premium-fxtrades", "logo": "", "screenshot": "", "created_at": "2023-03-15T12:00:00.000000Z", "updated_at": "2023-03-15T12:00:00.000000Z", "website": "www.premium-fxtrades.com", "imposter": false, "copycat": false}, {"id": 11345, "name": "Royal-Digital", "short_description": "Based on our experience and/or the warnings of official regulatory bodies, this company, and/or some of its practices, were flagged as a scam/fraud.", "review": "", "fca_link": "https://www.fca.org.uk/news/warnings/royal-digitalorg", "logo": "", "screenshot": "", "created_at": "2023-03-15T12:00:00.000000Z", "updated_at": "2023-03-15T12:00:00.000000Z", "website": "www.royal-digital.org", "imposter": false, "copycat": false}, {"id": 11346, "name": "Capital Equito", "short_description": "Based on our experience and/or the warnings of official regulatory bodies, this company, and/or some of its practices, were flagged as a scam/fraud.", "review": "", "fca_link": "https://www.fca.org.uk/news/warnings/equito-capital", "logo": "", "screenshot": "", "created_at": "2023-03-15T12:00:00.000000Z", "updated_at": "2023-03-15T12:00:00.000000Z", "website": "www.equitocapital.com", "imposter": false, "copycat": false}, {"id": 11347, "name": "Xin-Alpha", "short_description": "Based on our experience and/or the warnings of official regulatory bodies, this company, and/or some of its practices, were flagged as a scam/fraud.", "review": "", "fca_link": "https://www.fca.org.uk/news/warnings/xin-alpha", "logo": "", "screenshot": "", "created_at": "2023-03-15T12:00:00.000000Z", "updated_at": "2023-03-15T12:00:00.000000Z", "website": "www.xin-alpha.com", "imposter": false, "copycat": false}, {"id": 11348, "name": "Praxxiss", "short_description": "Based on our experience and/or the warnings of official regulatory bodies, this company, and/or some of its practices, were flagged as a scam/fraud.", "review": "", "fca_link": "https://www.fca.org.uk/news/warnings/praxxiss", "logo": "", "screenshot": "", "created_at": "2023-03-15T12:00:00.000000Z", "updated_at": "2023-03-15T12:00:00.000000Z", "website": "www.praxxiss.com", "imposter": false, "copycat": false}, {"id": 11349, "name": "Eu Investec", "short_description": "Based on our experience and/or the warnings of official regulatory bodies, this company, and/or some of its practices, were flagged as a scam/fraud.", "review": "", "fca_link": "https://www.fca.org.uk/news/warnings/wwwinvestec-eucouk-investec-clone-fca-authorised-firm", "logo": "", "screenshot": "", "created_at": "2023-03-14T12:00:00.000000Z", "updated_at": "2023-03-14T12:00:00.000000Z", "website": "www.investec-eu.co.uk", "imposter": false, "copycat": false}, {"id": 11350, "name": "Bbfx Bbfxtrades Trades", "short_description": "Based on our experience and/or the warnings of official regulatory bodies, this company, and/or some of its practices, were flagged as a scam/fraud.", "review": "", "fca_link": "https://www.fca.org.uk/news/warnings/bbfx-trades-bbfxtradescom", "logo": "", "screenshot": "", "created_at": "2023-03-14T12:00:00.000000Z", "updated_at": "2023-03-14T12:00:00.000000Z", "website": "www.bbfxtrades.com", "imposter": false, "copycat": false}, {"id": 11351, "name": "Funds Fundsrecall Recall", "short_description": "Based on our experience and/or the warnings of official regulatory bodies, this company, and/or some of its practices, were flagged as a scam/fraud.", "review": "", "fca_link": "https://www.fca.org.uk/news/warnings/funds-recall-fundsrecallcom", "logo": "", "screenshot": "", "created_at": "2023-03-14T12:00:00.000000Z", "updated_at": "2023-03-14T12:00:00.000000Z", "website": "www.fundsrecall.com", "imposter": false, "copycat": false}, {"id": 11352, "name": "Ipb Ltd Pay Technology", "short_description": "Based on our experience and/or the warnings of official regulatory bodies, this company, and/or some of its practices, were flagged as a scam/fraud.", "review": "", "fca_link": "https://www.fca.org.uk/news/warnings/ipb-technology-ltd-ipb-pay", "logo": "", "screenshot": "", "created_at": "2023-03-14T12:00:00.000000Z", "updated_at": "2023-03-14T12:00:00.000000Z", "website": "www.ipbpay.com", "imposter": false, "copycat": false}, {"id": 11353, "name": "Binary Forex Stock Trading", "short_description": "Based on our experience and/or the warnings of official regulatory bodies, this company, and/or some of its practices, were flagged as a scam/fraud.", "review": "", "fca_link": "https://www.fca.org.uk/news/warnings/binary-forex-trading-stock", "logo": "", "screenshot": "", "created_at": "2023-03-14T12:00:00.000000Z", "updated_at": "2023-03-14T12:00:00.000000Z", "website": "www.binaryforextradingstock.com", "imposter": false, "copycat": false}, {"id": 11354, "name": "Elitemortagefin", "short_description": "Based on our experience and/or the warnings of official regulatory bodies, this company, and/or some of its practices, were flagged as a scam/fraud.", "review": "", "fca_link": "https://www.fca.org.uk/news/warnings/elitemortagefinltd", "logo": "", "screenshot": "", "created_at": "2023-03-14T12:00:00.000000Z", "updated_at": "2023-03-14T12:00:00.000000Z", "website": "www.elitemortagefin.ltd", "imposter": false, "copycat": false}], "first_page_url": "https://api.payback-ltd.com/api/blacklist?page=1", "from": 1401, "last_page": 486, "last_page_url": "https://api.payback-ltd.com/api/blacklist?page=486", "links": [{"url": "https://api.payback-ltd.com/api/blacklist?page=56", "label": "&laquo; Previous", "active": false}, {"url": "https://api.payback-ltd.com/api/blacklist?page=1", "label": "1", "active": false}, {"url": "https://api.payback-ltd.com/api/blacklist?page=2", "label": "2", "active": false}, {"url": null, "label": "...", "active": false}, {"url": "https://api.payback-ltd.com/api/blacklist?page=54", "label": "54", "active": false}, {"url": "https://api.payback-ltd.com/api/blacklist?page=55", "label": "55", "active": false}, {"url": "https://api.payback-ltd.com/api/blacklist?page=56", "label": "56", "active": false}, {"url": "https://api.payback-ltd.com/api/blacklist?page=57", "label": "57", "active": true}, {"url": "https://api.payback-ltd.com/api/blacklist?page=58", "label": "58", "active": false}, {"url": "https://api.payback-ltd.com/api/blacklist?page=59", "label": "59", "active": false}, {"url": "https://api.payback-ltd.com/api/blacklist?page=60", "label": "60", "active": false}, {"url": null, "label": "...", "active": false}, {"url": "https://api.payback-ltd.com/api/blacklist?page=485", "label": "485", "active": false}, {"url": "https://api.payback-ltd.com/api/blacklist?page=486", "label": "486", "active": false}, {"url": "https://api.payback-ltd.com/api/blacklist?page=58", "label": "Next &raquo;", "active": false}], "next_page_url": "https://api.payback-ltd.com/api/blacklist?page=58", "path": "https://api.payback-ltd.com/api/blacklist", "per_page": 25, "prev_page_url": "https://api.payback-ltd.com/api/blacklist?page=56", "to": 1425, "total": 12140}