{"current_page": 126, "data": [{"id": 13055, "name": "Crypto Expert Market Top", "short_description": "Based on our experience and/or the warnings of official regulatory bodies, this company, and/or some of its practices, were flagged as a scam/fraud.", "review": "", "fca_link": "https://www.fca.org.uk/news/warnings/top-expert-crypto-market", "logo": "", "screenshot": "", "created_at": "2022-03-09T12:00:00.000000Z", "updated_at": "2022-03-09T12:00:00.000000Z", "website": "https://topexpertcryptomarket.com/", "imposter": false, "copycat": false}, {"id": 13056, "name": "Fxmarket Ltd", "short_description": "Based on our experience and/or the warnings of official regulatory bodies, this company, and/or some of its practices, were flagged as a scam/fraud.", "review": "", "fca_link": "https://www.fca.org.uk/news/warnings/fxmarket-ltd", "logo": "", "screenshot": "", "created_at": "2022-03-09T12:00:00.000000Z", "updated_at": "2022-03-09T12:00:00.000000Z", "website": "https://fxmarket.ltd/", "imposter": false, "copycat": false}, {"id": 13057, "name": "Mytradefx", "short_description": "Based on our experience and/or the warnings of official regulatory bodies, this company, and/or some of its practices, were flagged as a scam/fraud.", "review": "", "fca_link": "https://www.fca.org.uk/news/warnings/mytradefx", "logo": "", "screenshot": "", "created_at": "2022-03-09T12:00:00.000000Z", "updated_at": "2023-08-01T11:00:00.000000Z", "website": "www.MyTradeFx.biz, www.mytradefx.tech", "imposter": false, "copycat": false}, {"id": 13058, "name": "Igmc", "short_description": "Based on our experience and/or the warnings of official regulatory bodies, this company, and/or some of its practices, were flagged as a scam/fraud.", "review": "", "fca_link": "https://www.fca.org.uk/news/warnings/igmc-clone-fca-authorised-firm", "logo": "", "screenshot": "", "created_at": "2022-03-09T12:00:00.000000Z", "updated_at": "2022-03-09T12:00:00.000000Z", "website": "www.igmc.uk", "imposter": false, "copycat": false}, {"id": 13059, "name": "Roicrypto", "short_description": "Based on our experience and/or the warnings of official regulatory bodies, this company, and/or some of its practices, were flagged as a scam/fraud.", "review": "", "fca_link": "https://www.fca.org.uk/news/warnings/roicryptoicu", "logo": "", "screenshot": "", "created_at": "2022-03-09T12:00:00.000000Z", "updated_at": "2022-03-09T12:00:00.000000Z", "website": "www.roicrypto.icu", "imposter": false, "copycat": false}, {"id": 13060, "name": "Crypto Fx Limited", "short_description": "Based on our experience and/or the warnings of official regulatory bodies, this company, and/or some of its practices, were flagged as a scam/fraud.", "review": "", "fca_link": "https://www.fca.org.uk/news/warnings/fx-crypto-limited", "logo": "", "screenshot": "", "created_at": "2022-03-09T12:00:00.000000Z", "updated_at": "2022-03-09T12:00:00.000000Z", "website": "https://fxcryptolimited.com/", "imposter": false, "copycat": false}, {"id": 13061, "name": "Marshals Twix", "short_description": "Based on our experience and/or the warnings of official regulatory bodies, this company, and/or some of its practices, were flagged as a scam/fraud.", "review": "", "fca_link": "https://www.fca.org.uk/news/warnings/twix-marshals", "logo": "", "screenshot": "", "created_at": "2022-03-09T12:00:00.000000Z", "updated_at": "2022-03-09T12:00:00.000000Z", "website": "www.twixmarshalsfx.com", "imposter": false, "copycat": false}, {"id": 13062, "name": "Finance One Tiger", "short_description": "Based on our experience and/or the warnings of official regulatory bodies, this company, and/or some of its practices, were flagged as a scam/fraud.", "review": "", "fca_link": "https://www.fca.org.uk/news/warnings/tiger-one-finance-clone-fca-authorised-firm", "logo": "", "screenshot": "", "created_at": "2022-03-09T12:00:00.000000Z", "updated_at": "2022-10-26T11:00:00.000000Z", "website": "https://tigeronefinance.com, https://my.tigeronefinance.com/en/auth/signin, https://my.tigeronefinance.com", "imposter": false, "copycat": false}, {"id": 13063, "name": "Fxbitmarketoption Ltd", "short_description": "Based on our experience and/or the warnings of official regulatory bodies, this company, and/or some of its practices, were flagged as a scam/fraud.", "review": "", "fca_link": "https://www.fca.org.uk/news/warnings/fxbitmarketoption-ltd", "logo": "", "screenshot": "", "created_at": "2022-03-09T12:00:00.000000Z", "updated_at": "2022-03-09T12:00:00.000000Z", "website": "https://fxbitmarketoption.com/", "imposter": false, "copycat": false}, {"id": 13064, "name": "Fxfastgrowingcapital", "short_description": "Based on our experience and/or the warnings of official regulatory bodies, this company, and/or some of its practices, were flagged as a scam/fraud.", "review": "", "fca_link": "https://www.fca.org.uk/news/warnings/fxfastgrowingcapital", "logo": "", "screenshot": "", "created_at": "2022-03-09T12:00:00.000000Z", "updated_at": "2022-03-09T12:00:00.000000Z", "website": "www.fxfcapita.online", "imposter": false, "copycat": false}, {"id": 13065, "name": "Chase Uk", "short_description": "Based on our experience and/or the warnings of official regulatory bodies, this company, and/or some of its practices, were flagged as a scam/fraud.", "review": "", "fca_link": "https://www.fca.org.uk/news/warnings/chase-uk-clone-fca-authorised-firm", "logo": "", "screenshot": "", "created_at": "2022-03-09T12:00:00.000000Z", "updated_at": "2022-04-04T11:00:00.000000Z", "website": "", "imposter": false, "copycat": false}, {"id": 13066, "name": "Forex24 Ltd Market", "short_description": "Based on our experience and/or the warnings of official regulatory bodies, this company, and/or some of its practices, were flagged as a scam/fraud.", "review": "", "fca_link": "https://www.fca.org.uk/news/warnings/forex24-market-ltd", "logo": "", "screenshot": "", "created_at": "2022-03-09T12:00:00.000000Z", "updated_at": "2022-03-09T12:00:00.000000Z", "website": "https://forex24market.com/", "imposter": false, "copycat": false}, {"id": 13067, "name": "Cloud Cryptox", "short_description": "Based on our experience and/or the warnings of official regulatory bodies, this company, and/or some of its practices, were flagged as a scam/fraud.", "review": "", "fca_link": "https://www.fca.org.uk/news/warnings/cryptox-cloud", "logo": "", "screenshot": "", "created_at": "2022-03-08T12:00:00.000000Z", "updated_at": "2022-03-08T12:00:00.000000Z", "website": "https://Cryptox-cloud.com/", "imposter": false, "copycat": false}, {"id": 13068, "name": "Crypto Limited Mining", "short_description": "Based on our experience and/or the warnings of official regulatory bodies, this company, and/or some of its practices, were flagged as a scam/fraud.", "review": "", "fca_link": "https://www.fca.org.uk/news/warnings/crypto-mining-limited", "logo": "", "screenshot": "", "created_at": "2022-03-08T12:00:00.000000Z", "updated_at": "2022-03-14T12:00:00.000000Z", "website": "https://crypto-miningltd.com/", "imposter": false, "copycat": false}, {"id": 13069, "name": "E-Quantumoptions", "short_description": "Based on our experience and/or the warnings of official regulatory bodies, this company, and/or some of its practices, were flagged as a scam/fraud.", "review": "", "fca_link": "https://www.fca.org.uk/news/warnings/e-quantumoptionscom", "logo": "", "screenshot": "", "created_at": "2022-03-08T12:00:00.000000Z", "updated_at": "2022-03-09T12:00:00.000000Z", "website": "https://e-quantumoptions.com/", "imposter": false, "copycat": false}, {"id": 13070, "name": "Empire Miner", "short_description": "Based on our experience and/or the warnings of official regulatory bodies, this company, and/or some of its practices, were flagged as a scam/fraud.", "review": "", "fca_link": "https://www.fca.org.uk/news/warnings/empire-miner", "logo": "", "screenshot": "", "created_at": "2022-03-08T12:00:00.000000Z", "updated_at": "2022-03-09T12:00:00.000000Z", "website": "https://empireminer.com/", "imposter": false, "copycat": false}, {"id": 13071, "name": " Authorised Clone Fca Financial Finviz Firm Group Of Vision", "short_description": "Based on our experience and/or the warnings of official regulatory bodies, this company, and/or some of its practices, were flagged as a scam/fraud.", "review": "", "fca_link": "https://www.fca.org.uk/news/warnings/financial-vision-finviz-group-clone-fca-authorised-firm-clone-fca-authorised-firm", "logo": "", "screenshot": "", "created_at": "2022-03-08T12:00:00.000000Z", "updated_at": "2022-03-08T12:00:00.000000Z", "website": "www.financialvizion.com", "imposter": false, "copycat": false}, {"id": 13072, "name": "Capital Chain Elite", "short_description": "Based on our experience and/or the warnings of official regulatory bodies, this company, and/or some of its practices, were flagged as a scam/fraud.", "review": "", "fca_link": "https://www.fca.org.uk/news/warnings/elite-chain-capital", "logo": "", "screenshot": "", "created_at": "2022-03-08T12:00:00.000000Z", "updated_at": "2022-03-09T12:00:00.000000Z", "website": "https://elitechaincapital.com/", "imposter": false, "copycat": false}, {"id": 13073, "name": "Coyinvest", "short_description": "Based on our experience and/or the warnings of official regulatory bodies, this company, and/or some of its practices, were flagged as a scam/fraud.", "review": "", "fca_link": "https://www.fca.org.uk/news/warnings/coyinvest", "logo": "", "screenshot": "", "created_at": "2022-03-08T12:00:00.000000Z", "updated_at": "2022-03-08T12:00:00.000000Z", "website": "https://coyinvest.com/", "imposter": false, "copycat": false}, {"id": 13074, "name": "Funds Hantec", "short_description": "Based on our experience and/or the warnings of official regulatory bodies, this company, and/or some of its practices, were flagged as a scam/fraud.", "review": "", "fca_link": "https://www.fca.org.uk/news/warnings/hantec-funds", "logo": "", "screenshot": "", "created_at": "2022-03-08T12:00:00.000000Z", "updated_at": "2022-03-08T12:00:00.000000Z", "website": "www.hantecfunds.com", "imposter": false, "copycat": false}, {"id": 13075, "name": "Gs-Partnership", "short_description": "Based on our experience and/or the warnings of official regulatory bodies, this company, and/or some of its practices, were flagged as a scam/fraud.", "review": "", "fca_link": "https://www.fca.org.uk/news/warnings/gs-partnership", "logo": "", "screenshot": "", "created_at": "2022-03-08T12:00:00.000000Z", "updated_at": "2022-03-08T12:00:00.000000Z", "website": "www.gs-partnership.com", "imposter": false, "copycat": false}, {"id": 13076, "name": "Goldenvaluebtc", "short_description": "Based on our experience and/or the warnings of official regulatory bodies, this company, and/or some of its practices, were flagged as a scam/fraud.", "review": "", "fca_link": "https://www.fca.org.uk/news/warnings/goldenvaluebtccom", "logo": "", "screenshot": "", "created_at": "2022-03-08T12:00:00.000000Z", "updated_at": "2022-03-08T12:00:00.000000Z", "website": "https://goldenvaluebtc.com/", "imposter": false, "copycat": false}, {"id": 13077, "name": "Capital Global", "short_description": "Based on our experience and/or the warnings of official regulatory bodies, this company, and/or some of its practices, were flagged as a scam/fraud.", "review": "", "fca_link": "https://www.fca.org.uk/news/warnings/global-capital", "logo": "", "screenshot": "", "created_at": "2022-03-08T12:00:00.000000Z", "updated_at": "2022-08-11T11:00:00.000000Z", "website": "https://Global-capital.live", "imposter": false, "copycat": false}, {"id": 13078, "name": "Fxt Ltd Management", "short_description": "Based on our experience and/or the warnings of official regulatory bodies, this company, and/or some of its practices, were flagged as a scam/fraud.", "review": "", "fca_link": "https://www.fca.org.uk/news/warnings/fxt-management-ltd", "logo": "", "screenshot": "", "created_at": "2022-03-08T12:00:00.000000Z", "updated_at": "2022-03-08T12:00:00.000000Z", "website": "https://fxtminvest.ltd", "imposter": false, "copycat": false}, {"id": 13079, "name": "Finance Hub", "short_description": "Based on our experience and/or the warnings of official regulatory bodies, this company, and/or some of its practices, were flagged as a scam/fraud.", "review": "", "fca_link": "https://www.fca.org.uk/news/warnings/hub-finance", "logo": "", "screenshot": "", "created_at": "2022-03-08T12:00:00.000000Z", "updated_at": "2022-03-08T12:00:00.000000Z", "website": "www.hub-finance.com", "imposter": false, "copycat": false}], "first_page_url": "https://api.payback-ltd.com/api/blacklist?page=1", "from": 3126, "last_page": 486, "last_page_url": "https://api.payback-ltd.com/api/blacklist?page=486", "links": [{"url": "https://api.payback-ltd.com/api/blacklist?page=125", "label": "&laquo; Previous", "active": false}, {"url": "https://api.payback-ltd.com/api/blacklist?page=1", "label": "1", "active": false}, {"url": "https://api.payback-ltd.com/api/blacklist?page=2", "label": "2", "active": false}, {"url": null, "label": "...", "active": false}, {"url": "https://api.payback-ltd.com/api/blacklist?page=123", "label": "123", "active": false}, {"url": "https://api.payback-ltd.com/api/blacklist?page=124", "label": "124", "active": false}, {"url": "https://api.payback-ltd.com/api/blacklist?page=125", "label": "125", "active": false}, {"url": "https://api.payback-ltd.com/api/blacklist?page=126", "label": "126", "active": true}, {"url": "https://api.payback-ltd.com/api/blacklist?page=127", "label": "127", "active": false}, {"url": "https://api.payback-ltd.com/api/blacklist?page=128", "label": "128", "active": false}, {"url": "https://api.payback-ltd.com/api/blacklist?page=129", "label": "129", "active": false}, {"url": null, "label": "...", "active": false}, {"url": "https://api.payback-ltd.com/api/blacklist?page=485", "label": "485", "active": false}, {"url": "https://api.payback-ltd.com/api/blacklist?page=486", "label": "486", "active": false}, {"url": "https://api.payback-ltd.com/api/blacklist?page=127", "label": "Next &raquo;", "active": false}], "next_page_url": "https://api.payback-ltd.com/api/blacklist?page=127", "path": "https://api.payback-ltd.com/api/blacklist", "per_page": 25, "prev_page_url": "https://api.payback-ltd.com/api/blacklist?page=125", "to": 3150, "total": 12140}