{"current_page": 32, "data": [{"id": 10705, "name": "Ava Avacapitaltrade Capital De-Lighttrustproof De-Lighttrustproofs Trade", "short_description": "Based on our experience and/or the warnings of official regulatory bodies, this company, and/or some of its practices, were flagged as a scam/fraud.", "review": "", "fca_link": "https://www.fca.org.uk/news/warnings/avacapitaltrade-ava-capital-trade-de-lighttrustproof-de-lighttrustproofs", "logo": "", "screenshot": "", "created_at": "2023-07-24T11:00:00.000000Z", "updated_at": "2023-09-07T11:00:00.000000Z", "website": "https://de-lighttrustproofs.com, https://avacapitaltrade.com, https://de-lighttrustproof.com", "imposter": false, "copycat": false}, {"id": 10706, "name": "Bxcrypto Company Investment Trading", "short_description": "Based on our experience and/or the warnings of official regulatory bodies, this company, and/or some of its practices, were flagged as a scam/fraud.", "review": "", "fca_link": "https://www.fca.org.uk/news/warnings/bxcrypto-trading-investment-company", "logo": "", "screenshot": "", "created_at": "2023-07-21T11:00:00.000000Z", "updated_at": "2023-07-21T11:00:00.000000Z", "website": "www.bxcryptotrading.com", "imposter": false, "copycat": false}, {"id": 10707, "name": "Rapidcointrades", "short_description": "Based on our experience and/or the warnings of official regulatory bodies, this company, and/or some of its practices, were flagged as a scam/fraud.", "review": "", "fca_link": "https://www.fca.org.uk/news/warnings/rapidcointrades", "logo": "", "screenshot": "", "created_at": "2023-07-21T11:00:00.000000Z", "updated_at": "2023-07-21T11:00:00.000000Z", "website": "www.rapidcointrades.net", "imposter": false, "copycat": false}, {"id": 10708, "name": "Limited Ominecoin", "short_description": "Based on our experience and/or the warnings of official regulatory bodies, this company, and/or some of its practices, were flagged as a scam/fraud.", "review": "", "fca_link": "https://www.fca.org.uk/news/warnings/ominecoin-limited", "logo": "", "screenshot": "", "created_at": "2023-07-21T11:00:00.000000Z", "updated_at": "2023-07-21T11:00:00.000000Z", "website": "www.ominecoinltd.com", "imposter": false, "copycat": false}, {"id": 10709, "name": "Charles Morgen", "short_description": "Based on our experience and/or the warnings of official regulatory bodies, this company, and/or some of its practices, were flagged as a scam/fraud.", "review": "", "fca_link": "https://www.fca.org.uk/news/warnings/morgen-charles", "logo": "", "screenshot": "", "created_at": "2023-07-21T11:00:00.000000Z", "updated_at": "2023-07-21T11:00:00.000000Z", "website": "www.morgencharles.com", "imposter": false, "copycat": false}, {"id": 10710, "name": "Circle Crypto Inner", "short_description": "Based on our experience and/or the warnings of official regulatory bodies, this company, and/or some of its practices, were flagged as a scam/fraud.", "review": "", "fca_link": "https://www.fca.org.uk/news/warnings/crypto-inner-circle", "logo": "", "screenshot": "", "created_at": "2023-07-21T11:00:00.000000Z", "updated_at": "2023-07-21T11:00:00.000000Z", "website": "www.cryptoinnercircle.org", "imposter": false, "copycat": false}, {"id": 10711, "name": "First Market Mining Trade", "short_description": "Based on our experience and/or the warnings of official regulatory bodies, this company, and/or some of its practices, were flagged as a scam/fraud.", "review": "", "fca_link": "https://www.fca.org.uk/news/warnings/first-trade-mining-market", "logo": "", "screenshot": "", "created_at": "2023-07-21T11:00:00.000000Z", "updated_at": "2023-07-21T11:00:00.000000Z", "website": "www.firsttrademiningmkt.com", "imposter": false, "copycat": false}, {"id": 10712, "name": "Etor Fx Trading", "short_description": "Based on our experience and/or the warnings of official regulatory bodies, this company, and/or some of its practices, were flagged as a scam/fraud.", "review": "", "fca_link": "https://www.fca.org.uk/news/warnings/etor-fx-trading", "logo": "", "screenshot": "", "created_at": "2023-07-21T11:00:00.000000Z", "updated_at": "2023-07-21T11:00:00.000000Z", "website": "www.etorfxtrading.com", "imposter": false, "copycat": false}, {"id": 10713, "name": "Ltd Saferhavenfx", "short_description": "Based on our experience and/or the warnings of official regulatory bodies, this company, and/or some of its practices, were flagged as a scam/fraud.", "review": "", "fca_link": "https://www.fca.org.uk/news/warnings/saferhavenfx-ltd", "logo": "", "screenshot": "", "created_at": "2023-07-21T11:00:00.000000Z", "updated_at": "2023-07-21T11:00:00.000000Z", "website": "www.saferhavenfx.com", "imposter": false, "copycat": false}, {"id": 10714, "name": "Capital Elite Pro", "short_description": "Based on our experience and/or the warnings of official regulatory bodies, this company, and/or some of its practices, were flagged as a scam/fraud.", "review": "", "fca_link": "https://www.fca.org.uk/news/warnings/elite-capital-pro", "logo": "", "screenshot": "", "created_at": "2023-07-21T11:00:00.000000Z", "updated_at": "2023-07-21T11:00:00.000000Z", "website": "www.elitecapitalpro.com", "imposter": false, "copycat": false}, {"id": 10715, "name": "Megafoxtrade", "short_description": "Based on our experience and/or the warnings of official regulatory bodies, this company, and/or some of its practices, were flagged as a scam/fraud.", "review": "", "fca_link": "https://www.fca.org.uk/news/warnings/megafoxtrade", "logo": "", "screenshot": "", "created_at": "2023-07-21T11:00:00.000000Z", "updated_at": "2023-07-21T11:00:00.000000Z", "website": "www.megafoxtraders.com", "imposter": false, "copycat": false}, {"id": 10716, "name": "Invest Nerofx", "short_description": "Based on our experience and/or the warnings of official regulatory bodies, this company, and/or some of its practices, were flagged as a scam/fraud.", "review": "", "fca_link": "https://www.fca.org.uk/news/warnings/nerofx-invest", "logo": "", "screenshot": "", "created_at": "2023-07-20T11:00:00.000000Z", "updated_at": "2023-07-20T11:00:00.000000Z", "website": "https://nerofxinvest.com", "imposter": false, "copycat": false}, {"id": 10717, "name": "Fund Llc Managament Reliance Wealth", "short_description": "Based on our experience and/or the warnings of official regulatory bodies, this company, and/or some of its practices, were flagged as a scam/fraud.", "review": "", "fca_link": "https://www.fca.org.uk/news/warnings/reliance-wealth-fund-managament-llc", "logo": "", "screenshot": "", "created_at": "2023-07-20T11:00:00.000000Z", "updated_at": "2023-07-20T11:00:00.000000Z", "website": "www.reliancewealthfundmgt.com", "imposter": false, "copycat": false}, {"id": 10718, "name": "Assets Caltex Investments", "short_description": "Based on our experience and/or the warnings of official regulatory bodies, this company, and/or some of its practices, were flagged as a scam/fraud.", "review": "", "fca_link": "https://www.fca.org.uk/news/warnings/caltex-assets-investments", "logo": "", "screenshot": "", "created_at": "2023-07-20T11:00:00.000000Z", "updated_at": "2023-07-20T11:00:00.000000Z", "website": "www.caltexassets.org", "imposter": false, "copycat": false}, {"id": 10719, "name": "Sinceresystemsgroupltd", "short_description": "Based on our experience and/or the warnings of official regulatory bodies, this company, and/or some of its practices, were flagged as a scam/fraud.", "review": "", "fca_link": "https://www.fca.org.uk/news/warnings/sinceresystemsgroupltdcc", "logo": "", "screenshot": "", "created_at": "2023-07-20T11:00:00.000000Z", "updated_at": "2023-07-20T11:00:00.000000Z", "website": "https://sinceresystemsgroupltd.cc", "imposter": false, "copycat": false}, {"id": 10720, "name": "Access Gallant", "short_description": "Based on our experience and/or the warnings of official regulatory bodies, this company, and/or some of its practices, were flagged as a scam/fraud.", "review": "", "fca_link": "https://www.fca.org.uk/news/warnings/gallant-access", "logo": "", "screenshot": "", "created_at": "2023-07-20T11:00:00.000000Z", "updated_at": "2023-07-20T11:00:00.000000Z", "website": "www.gallantaccess.live", "imposter": false, "copycat": false}, {"id": 10721, "name": "Apollo Associates Blue Business", "short_description": "Based on our experience and/or the warnings of official regulatory bodies, this company, and/or some of its practices, were flagged as a scam/fraud.", "review": "", "fca_link": "https://www.fca.org.uk/news/warnings/apollo-blue-business-associates", "logo": "", "screenshot": "", "created_at": "2023-07-20T11:00:00.000000Z", "updated_at": "2023-07-20T11:00:00.000000Z", "website": "www.apollobluebusinessassoc.com", "imposter": false, "copycat": false}, {"id": 10722, "name": "Durban Tradefx", "short_description": "Based on our experience and/or the warnings of official regulatory bodies, this company, and/or some of its practices, were flagged as a scam/fraud.", "review": "", "fca_link": "https://www.fca.org.uk/news/warnings/durban-tradefx", "logo": "", "screenshot": "", "created_at": "2023-07-20T11:00:00.000000Z", "updated_at": "2023-07-20T11:00:00.000000Z", "website": "www.durbantradefx.com", "imposter": false, "copycat": false}, {"id": 10723, "name": "Fx Tradingbroker", "short_description": "Based on our experience and/or the warnings of official regulatory bodies, this company, and/or some of its practices, were flagged as a scam/fraud.", "review": "", "fca_link": "https://www.fca.org.uk/news/warnings/tradingbroker-fx", "logo": "", "screenshot": "", "created_at": "2023-07-19T11:00:00.000000Z", "updated_at": "2023-07-19T11:00:00.000000Z", "website": "https://tradebrokerfx.com", "imposter": false, "copycat": false}, {"id": 10724, "name": "Cryptomainia Cryptomania Trade", "short_description": "Based on our experience and/or the warnings of official regulatory bodies, this company, and/or some of its practices, were flagged as a scam/fraud.", "review": "", "fca_link": "https://www.fca.org.uk/news/warnings/cryptomainia-cryptomania-trade", "logo": "", "screenshot": "", "created_at": "2023-07-19T11:00:00.000000Z", "updated_at": "2023-07-19T11:00:00.000000Z", "website": "www.cryptomainia.com", "imposter": false, "copycat": false}, {"id": 10725, "name": "Capitalfinancialpartnersltd", "short_description": "Based on our experience and/or the warnings of official regulatory bodies, this company, and/or some of its practices, were flagged as a scam/fraud.", "review": "", "fca_link": "https://www.fca.org.uk/news/warnings/capitalfinancialpartnersltdcom-clone-fca-authorised-firm", "logo": "", "screenshot": "", "created_at": "2023-07-19T11:00:00.000000Z", "updated_at": "2023-07-19T11:00:00.000000Z", "website": "https://capitalfinancialpartnersltd.com/", "imposter": false, "copycat": false}, {"id": 10726, "name": "Alan Group Kirkhope", "short_description": "Based on our experience and/or the warnings of official regulatory bodies, this company, and/or some of its practices, were flagged as a scam/fraud.", "review": "", "fca_link": "https://www.fca.org.uk/news/warnings/alan-kirkhope-group", "logo": "", "screenshot": "", "created_at": "2023-07-19T11:00:00.000000Z", "updated_at": "2023-07-19T11:00:00.000000Z", "website": "https://alankirkhopegroup.com", "imposter": false, "copycat": false}, {"id": 10727, "name": "Fx Venus Venusfx", "short_description": "Based on our experience and/or the warnings of official regulatory bodies, this company, and/or some of its practices, were flagged as a scam/fraud.", "review": "", "fca_link": "https://www.fca.org.uk/news/warnings/venus-fx-venusfxco", "logo": "", "screenshot": "", "created_at": "2023-07-18T11:00:00.000000Z", "updated_at": "2023-07-18T11:00:00.000000Z", "website": "www.venusfx.co", "imposter": false, "copycat": false}, {"id": 10728, "name": "Express Express-Safepayout Safepay", "short_description": "Based on our experience and/or the warnings of official regulatory bodies, this company, and/or some of its practices, were flagged as a scam/fraud.", "review": "", "fca_link": "https://www.fca.org.uk/news/warnings/express-safepay-express-safepayoutcom", "logo": "", "screenshot": "", "created_at": "2023-07-18T11:00:00.000000Z", "updated_at": "2023-07-18T11:00:00.000000Z", "website": "www.express-safepayout.com", "imposter": false, "copycat": false}, {"id": 10729, "name": "Debtify", "short_description": "Based on our experience and/or the warnings of official regulatory bodies, this company, and/or some of its practices, were flagged as a scam/fraud.", "review": "", "fca_link": "https://www.fca.org.uk/news/warnings/debtify-debtifycouk", "logo": "", "screenshot": "", "created_at": "2023-07-18T11:00:00.000000Z", "updated_at": "2023-07-18T11:00:00.000000Z", "website": "https://www.debtify.co.uk/", "imposter": false, "copycat": false}], "first_page_url": "https://api.payback-ltd.com/api/blacklist?page=1", "from": 776, "last_page": 486, "last_page_url": "https://api.payback-ltd.com/api/blacklist?page=486", "links": [{"url": "https://api.payback-ltd.com/api/blacklist?page=31", "label": "&laquo; Previous", "active": false}, {"url": "https://api.payback-ltd.com/api/blacklist?page=1", "label": "1", "active": false}, {"url": "https://api.payback-ltd.com/api/blacklist?page=2", "label": "2", "active": false}, {"url": null, "label": "...", "active": false}, {"url": "https://api.payback-ltd.com/api/blacklist?page=29", "label": "29", "active": false}, {"url": "https://api.payback-ltd.com/api/blacklist?page=30", "label": "30", "active": false}, {"url": "https://api.payback-ltd.com/api/blacklist?page=31", "label": "31", "active": false}, {"url": "https://api.payback-ltd.com/api/blacklist?page=32", "label": "32", "active": true}, {"url": "https://api.payback-ltd.com/api/blacklist?page=33", "label": "33", "active": false}, {"url": "https://api.payback-ltd.com/api/blacklist?page=34", "label": "34", "active": false}, {"url": "https://api.payback-ltd.com/api/blacklist?page=35", "label": "35", "active": false}, {"url": null, "label": "...", "active": false}, {"url": "https://api.payback-ltd.com/api/blacklist?page=485", "label": "485", "active": false}, {"url": "https://api.payback-ltd.com/api/blacklist?page=486", "label": "486", "active": false}, {"url": "https://api.payback-ltd.com/api/blacklist?page=33", "label": "Next &raquo;", "active": false}], "next_page_url": "https://api.payback-ltd.com/api/blacklist?page=33", "path": "https://api.payback-ltd.com/api/blacklist", "per_page": 25, "prev_page_url": "https://api.payback-ltd.com/api/blacklist?page=31", "to": 800, "total": 12140}