{"current_page": 85, "data": [{"id": 12030, "name": "Exodusorbitalinvest", "short_description": "Based on our experience and/or the warnings of official regulatory bodies, this company, and/or some of its practices, were flagged as a scam/fraud.", "review": "", "fca_link": "https://www.fca.org.uk/news/warnings/exodusorbitalinvestltd", "logo": "", "screenshot": "", "created_at": "2022-11-28T12:00:00.000000Z", "updated_at": "2022-11-28T12:00:00.000000Z", "website": "www.exodusorbitalinvest.ltd", "imposter": false, "copycat": false}, {"id": 12031, "name": "Cryptoforextrading50", "short_description": "Based on our experience and/or the warnings of official regulatory bodies, this company, and/or some of its practices, were flagged as a scam/fraud.", "review": "", "fca_link": "https://www.fca.org.uk/news/warnings/cryptoforextrading50", "logo": "", "screenshot": "", "created_at": "2022-11-28T12:00:00.000000Z", "updated_at": "2022-11-28T12:00:00.000000Z", "website": "https://cryptoforextrading50.com/", "imposter": false, "copycat": false}, {"id": 12032, "name": "Fxcfdtraders", "short_description": "Based on our experience and/or the warnings of official regulatory bodies, this company, and/or some of its practices, were flagged as a scam/fraud.", "review": "", "fca_link": "https://www.fca.org.uk/news/warnings/fxcfdtraders", "logo": "", "screenshot": "", "created_at": "2022-11-28T12:00:00.000000Z", "updated_at": "2022-11-29T12:00:00.000000Z", "website": "https://fxcfdtraders.co.uk/", "imposter": false, "copycat": false}, {"id": 12033, "name": "Investment Real Wealth", "short_description": "Based on our experience and/or the warnings of official regulatory bodies, this company, and/or some of its practices, were flagged as a scam/fraud.", "review": "", "fca_link": "https://www.fca.org.uk/news/warnings/real-wealth-investment", "logo": "", "screenshot": "", "created_at": "2022-11-28T12:00:00.000000Z", "updated_at": "2022-11-28T12:00:00.000000Z", "website": "https://realwealthinvestment.com/", "imposter": false, "copycat": false}, {"id": 12034, "name": "Bank Eu Fx", "short_description": "Based on our experience and/or the warnings of official regulatory bodies, this company, and/or some of its practices, were flagged as a scam/fraud.", "review": "", "fca_link": "https://www.fca.org.uk/news/warnings/eu-fx-bank", "logo": "", "screenshot": "", "created_at": "2022-11-28T12:00:00.000000Z", "updated_at": "2022-11-28T12:00:00.000000Z", "website": "https://eufxbank.com/", "imposter": false, "copycat": false}, {"id": 12035, "name": "Albitfx-Trade", "short_description": "Based on our experience and/or the warnings of official regulatory bodies, this company, and/or some of its practices, were flagged as a scam/fraud.", "review": "", "fca_link": "https://www.fca.org.uk/news/warnings/albitfx-trade", "logo": "", "screenshot": "", "created_at": "2022-11-28T12:00:00.000000Z", "updated_at": "2022-11-28T12:00:00.000000Z", "website": "www.albitfx-trade.online", "imposter": false, "copycat": false}, {"id": 12036, "name": "Crypto Global Trades", "short_description": "Based on our experience and/or the warnings of official regulatory bodies, this company, and/or some of its practices, were flagged as a scam/fraud.", "review": "", "fca_link": "https://www.fca.org.uk/news/warnings/crypto-global-trades", "logo": "", "screenshot": "", "created_at": "2022-11-28T12:00:00.000000Z", "updated_at": "2022-11-28T12:00:00.000000Z", "website": "www.cryptoglobaltrade.live", "imposter": false, "copycat": false}, {"id": 12037, "name": "Crypto Forex Payout", "short_description": "Based on our experience and/or the warnings of official regulatory bodies, this company, and/or some of its practices, were flagged as a scam/fraud.", "review": "", "fca_link": "https://www.fca.org.uk/news/warnings/forex-crypto-payout", "logo": "", "screenshot": "", "created_at": "2022-11-28T12:00:00.000000Z", "updated_at": "2022-11-28T12:00:00.000000Z", "website": "www.forexcryptopayout.com", "imposter": false, "copycat": false}, {"id": 12038, "name": "Capital Crypto Live", "short_description": "Based on our experience and/or the warnings of official regulatory bodies, this company, and/or some of its practices, were flagged as a scam/fraud.", "review": "", "fca_link": "https://www.fca.org.uk/news/warnings/crypto-live-capital", "logo": "", "screenshot": "", "created_at": "2022-11-25T12:00:00.000000Z", "updated_at": "2022-11-25T12:00:00.000000Z", "website": "www.cryptolivecapitals.com", "imposter": false, "copycat": false}, {"id": 12039, "name": "Crypto Renewed", "short_description": "Based on our experience and/or the warnings of official regulatory bodies, this company, and/or some of its practices, were flagged as a scam/fraud.", "review": "", "fca_link": "https://www.fca.org.uk/news/warnings/crypto-renewed", "logo": "", "screenshot": "", "created_at": "2022-11-25T12:00:00.000000Z", "updated_at": "2022-11-25T12:00:00.000000Z", "website": "www.cryptorenewed.org", "imposter": false, "copycat": false}, {"id": 12040, "name": "Cryptocrestinvestment247", "short_description": "Based on our experience and/or the warnings of official regulatory bodies, this company, and/or some of its practices, were flagged as a scam/fraud.", "review": "", "fca_link": "https://www.fca.org.uk/news/warnings/cryptocrestinvestment247", "logo": "", "screenshot": "", "created_at": "2022-11-25T12:00:00.000000Z", "updated_at": "2022-11-25T12:00:00.000000Z", "website": "www.cryptocrestinvestment247.com/", "imposter": false, "copycat": false}, {"id": 12041, "name": "Assetslite Investment", "short_description": "Based on our experience and/or the warnings of official regulatory bodies, this company, and/or some of its practices, were flagged as a scam/fraud.", "review": "", "fca_link": "https://www.fca.org.uk/news/warnings/assetslite-investment", "logo": "", "screenshot": "", "created_at": "2022-11-25T12:00:00.000000Z", "updated_at": "2022-11-25T12:00:00.000000Z", "website": "www.assetslite.live", "imposter": false, "copycat": false}, {"id": 12042, "name": "Conference Fx Platform", "short_description": "Based on our experience and/or the warnings of official regulatory bodies, this company, and/or some of its practices, were flagged as a scam/fraud.", "review": "", "fca_link": "https://www.fca.org.uk/news/warnings/conference-fx-platform", "logo": "", "screenshot": "", "created_at": "2022-11-25T12:00:00.000000Z", "updated_at": "2022-11-25T12:00:00.000000Z", "website": "www.conferencefxplatform.com", "imposter": false, "copycat": false}, {"id": 12043, "name": "Clone Company Investments Ltd Mondial Of Registered Uk", "short_description": "Based on our experience and/or the warnings of official regulatory bodies, this company, and/or some of its practices, were flagged as a scam/fraud.", "review": "", "fca_link": "https://www.fca.org.uk/news/warnings/mondial-investments-clone-uk-registered-company-mondial-investments-ltd", "logo": "", "screenshot": "", "created_at": "2022-11-25T12:00:00.000000Z", "updated_at": "2023-09-13T11:00:00.000000Z", "website": "www.mondialinvestmentsltd.vip, www.mondialinvestmentsltd.com", "imposter": false, "copycat": false}, {"id": 12044, "name": "Excryptotradefx", "short_description": "Based on our experience and/or the warnings of official regulatory bodies, this company, and/or some of its practices, were flagged as a scam/fraud.", "review": "", "fca_link": "https://www.fca.org.uk/news/warnings/excryptotradefx", "logo": "", "screenshot": "", "created_at": "2022-11-25T12:00:00.000000Z", "updated_at": "2022-11-25T12:00:00.000000Z", "website": "https://excryptotradefx.online/", "imposter": false, "copycat": false}, {"id": 12045, "name": "Universalspotbank", "short_description": "Based on our experience and/or the warnings of official regulatory bodies, this company, and/or some of its practices, were flagged as a scam/fraud.", "review": "", "fca_link": "https://www.fca.org.uk/news/warnings/universalspotbank", "logo": "", "screenshot": "", "created_at": "2022-11-25T12:00:00.000000Z", "updated_at": "2022-11-25T12:00:00.000000Z", "website": "https://universalspotbank.com/", "imposter": false, "copycat": false}, {"id": 12046, "name": "Ckb Investment Traders", "short_description": "Based on our experience and/or the warnings of official regulatory bodies, this company, and/or some of its practices, were flagged as a scam/fraud.", "review": "", "fca_link": "https://www.fca.org.uk/news/warnings/ckb-traders-investment", "logo": "", "screenshot": "", "created_at": "2022-11-25T12:00:00.000000Z", "updated_at": "2022-11-25T12:00:00.000000Z", "website": "http://ckbmineinvestment.com/", "imposter": false, "copycat": false}, {"id": 12047, "name": "Exodustradfx", "short_description": "Based on our experience and/or the warnings of official regulatory bodies, this company, and/or some of its practices, were flagged as a scam/fraud.", "review": "", "fca_link": "https://www.fca.org.uk/news/warnings/exodustradfxcom", "logo": "", "screenshot": "", "created_at": "2022-11-25T12:00:00.000000Z", "updated_at": "2022-11-25T12:00:00.000000Z", "website": "https://exodustradfx.com/", "imposter": false, "copycat": false}, {"id": 12048, "name": "Wintonfundmanagement", "short_description": "Based on our experience and/or the warnings of official regulatory bodies, this company, and/or some of its practices, were flagged as a scam/fraud.", "review": "", "fca_link": "https://www.fca.org.uk/news/warnings/wwwwintonfundmanagementie-wwwwintonfundmanagementirelandcom-clone-fca-authorised-schedule-5-firm", "logo": "", "screenshot": "", "created_at": "2022-11-25T12:00:00.000000Z", "updated_at": "2022-11-30T12:00:00.000000Z", "website": "www.wintonfundmanagement.ie, www.wintonfundmanagementireland.com", "imposter": false, "copycat": false}, {"id": 12049, "name": "Blue Group Investment Ray", "short_description": "Based on our experience and/or the warnings of official regulatory bodies, this company, and/or some of its practices, were flagged as a scam/fraud.", "review": "", "fca_link": "https://www.fca.org.uk/news/warnings/blue-ray-investment-group", "logo": "", "screenshot": "", "created_at": "2022-11-25T12:00:00.000000Z", "updated_at": "2022-11-25T12:00:00.000000Z", "website": "www.bluerayinvestmentgroup.com", "imposter": false, "copycat": false}, {"id": 12050, "name": "Ex Investment", "short_description": "Based on our experience and/or the warnings of official regulatory bodies, this company, and/or some of its practices, were flagged as a scam/fraud.", "review": "", "fca_link": "https://www.fca.org.uk/news/warnings/ex-investment", "logo": "", "screenshot": "", "created_at": "2022-11-25T12:00:00.000000Z", "updated_at": "2022-11-25T12:00:00.000000Z", "website": "www.ex-investment.com", "imposter": false, "copycat": false}, {"id": 12051, "name": "Mar", "short_description": "Based on our experience and/or the warnings of official regulatory bodies, this company, and/or some of its practices, were flagged as a scam/fraud.", "review": "", "fca_link": "https://www.fca.org.uk/news/warnings/maryamfx-clone-fca-authorised-firm", "logo": "", "screenshot": "", "created_at": "2022-11-25T12:00:00.000000Z", "updated_at": "2022-11-25T12:00:00.000000Z", "website": "www.instagram.com/mar.yamfx", "imposter": false, "copycat": false}, {"id": 12052, "name": "Cryptosaur", "short_description": "Based on our experience and/or the warnings of official regulatory bodies, this company, and/or some of its practices, were flagged as a scam/fraud.", "review": "", "fca_link": "https://www.fca.org.uk/news/warnings/wwwcryptosaurcouk-clone-previously-registered-firm", "logo": "", "screenshot": "", "created_at": "2022-11-25T12:00:00.000000Z", "updated_at": "2023-10-08T11:00:00.000000Z", "website": "www.cryptosaur.co.uk", "imposter": false, "copycat": false}, {"id": 12053, "name": "Finance Ltd Superb", "short_description": "Based on our experience and/or the warnings of official regulatory bodies, this company, and/or some of its practices, were flagged as a scam/fraud.", "review": "", "fca_link": "https://www.fca.org.uk/news/warnings/superb-finance-ltd", "logo": "", "screenshot": "", "created_at": "2022-11-25T12:00:00.000000Z", "updated_at": "2022-11-25T12:00:00.000000Z", "website": "www.superb-finance.co.uk", "imposter": false, "copycat": false}, {"id": 12054, "name": "Fx Profitschain", "short_description": "Based on our experience and/or the warnings of official regulatory bodies, this company, and/or some of its practices, were flagged as a scam/fraud.", "review": "", "fca_link": "https://www.fca.org.uk/news/warnings/profitschain-fx", "logo": "", "screenshot": "", "created_at": "2022-11-25T12:00:00.000000Z", "updated_at": "2022-11-25T12:00:00.000000Z", "website": "www.profitschainfx.com", "imposter": false, "copycat": false}], "first_page_url": "https://api.payback-ltd.com/api/blacklist?page=1", "from": 2101, "last_page": 486, "last_page_url": "https://api.payback-ltd.com/api/blacklist?page=486", "links": [{"url": "https://api.payback-ltd.com/api/blacklist?page=84", "label": "&laquo; Previous", "active": false}, {"url": "https://api.payback-ltd.com/api/blacklist?page=1", "label": "1", "active": false}, {"url": "https://api.payback-ltd.com/api/blacklist?page=2", "label": "2", "active": false}, {"url": null, "label": "...", "active": false}, {"url": "https://api.payback-ltd.com/api/blacklist?page=82", "label": "82", "active": false}, {"url": "https://api.payback-ltd.com/api/blacklist?page=83", "label": "83", "active": false}, {"url": "https://api.payback-ltd.com/api/blacklist?page=84", "label": "84", "active": false}, {"url": "https://api.payback-ltd.com/api/blacklist?page=85", "label": "85", "active": true}, {"url": "https://api.payback-ltd.com/api/blacklist?page=86", "label": "86", "active": false}, {"url": "https://api.payback-ltd.com/api/blacklist?page=87", "label": "87", "active": false}, {"url": "https://api.payback-ltd.com/api/blacklist?page=88", "label": "88", "active": false}, {"url": null, "label": "...", "active": false}, {"url": "https://api.payback-ltd.com/api/blacklist?page=485", "label": "485", "active": false}, {"url": "https://api.payback-ltd.com/api/blacklist?page=486", "label": "486", "active": false}, {"url": "https://api.payback-ltd.com/api/blacklist?page=86", "label": "Next &raquo;", "active": false}], "next_page_url": "https://api.payback-ltd.com/api/blacklist?page=86", "path": "https://api.payback-ltd.com/api/blacklist", "per_page": 25, "prev_page_url": "https://api.payback-ltd.com/api/blacklist?page=84", "to": 2125, "total": 12140}