{"current_page": 117, "data": [{"id": 12830, "name": "Lombardodierfunds", "short_description": "Based on our experience and/or the warnings of official regulatory bodies, this company, and/or some of its practices, were flagged as a scam/fraud.", "review": "", "fca_link": "https://www.fca.org.uk/news/warnings/https-lombardodierfundscom-clone-fca-authorised-firm", "logo": "", "screenshot": "", "created_at": "2022-04-22T11:00:00.000000Z", "updated_at": "2022-04-22T11:00:00.000000Z", "website": "https://lombardodierfunds.com/", "imposter": false, "copycat": false}, {"id": 12831, "name": "Btcboxcryptocurrency", "short_description": "Based on our experience and/or the warnings of official regulatory bodies, this company, and/or some of its practices, were flagged as a scam/fraud.", "review": "", "fca_link": "https://www.fca.org.uk/news/warnings/btcboxcryptocurrency", "logo": "", "screenshot": "", "created_at": "2022-04-22T11:00:00.000000Z", "updated_at": "2022-04-22T11:00:00.000000Z", "website": "www.btcboxcryptocurrency.com", "imposter": false, "copycat": false}, {"id": 12832, "name": "Fx Global", "short_description": "Based on our experience and/or the warnings of official regulatory bodies, this company, and/or some of its practices, were flagged as a scam/fraud.", "review": "", "fca_link": "https://www.fca.org.uk/news/warnings/global-fx", "logo": "", "screenshot": "", "created_at": "2022-04-22T11:00:00.000000Z", "updated_at": "2022-04-22T11:00:00.000000Z", "website": "www.global-fxbinaryoption.com", "imposter": false, "copycat": false}, {"id": 12833, "name": "Is Money Rates This", "short_description": "Based on our experience and/or the warnings of official regulatory bodies, this company, and/or some of its practices, were flagged as a scam/fraud.", "review": "", "fca_link": "https://www.fca.org.uk/news/warnings/money-rates-clone-appointed-representative-0", "logo": "", "screenshot": "", "created_at": "2022-04-22T11:00:00.000000Z", "updated_at": "2022-04-28T11:00:00.000000Z", "website": "https://thisismoneyrates.com", "imposter": false, "copycat": false}, {"id": 12834, "name": "Fxbit Trader", "short_description": "Based on our experience and/or the warnings of official regulatory bodies, this company, and/or some of its practices, were flagged as a scam/fraud.", "review": "", "fca_link": "https://www.fca.org.uk/news/warnings/fxbit-trader", "logo": "", "screenshot": "", "created_at": "2022-04-22T11:00:00.000000Z", "updated_at": "2022-04-22T11:00:00.000000Z", "website": "www.fxbit-traders.com", "imposter": false, "copycat": false}, {"id": 12835, "name": "Autoforex Direct", "short_description": "Based on our experience and/or the warnings of official regulatory bodies, this company, and/or some of its practices, were flagged as a scam/fraud.", "review": "", "fca_link": "https://www.fca.org.uk/news/warnings/autoforex-direct", "logo": "", "screenshot": "", "created_at": "2022-04-22T11:00:00.000000Z", "updated_at": "2022-04-22T11:00:00.000000Z", "website": "www.afxdt.com", "imposter": false, "copycat": false}, {"id": 12836, "name": "Baimaas Fx", "short_description": "Based on our experience and/or the warnings of official regulatory bodies, this company, and/or some of its practices, were flagged as a scam/fraud.", "review": "", "fca_link": "https://www.fca.org.uk/news/warnings/baimaas-fx", "logo": "", "screenshot": "", "created_at": "2022-04-22T11:00:00.000000Z", "updated_at": "2022-04-22T11:00:00.000000Z", "website": "www.baimaasfx.com", "imposter": false, "copycat": false}, {"id": 12837, "name": "Cryptovaulttraders", "short_description": "Based on our experience and/or the warnings of official regulatory bodies, this company, and/or some of its practices, were flagged as a scam/fraud.", "review": "", "fca_link": "https://www.fca.org.uk/news/warnings/cryptovaulttraders", "logo": "", "screenshot": "", "created_at": "2022-04-22T11:00:00.000000Z", "updated_at": "2022-04-22T11:00:00.000000Z", "website": "www.cryptovaulttraders.com", "imposter": false, "copycat": false}, {"id": 12838, "name": "Loadstone Lodestone Partners", "short_description": "Based on our experience and/or the warnings of official regulatory bodies, this company, and/or some of its practices, were flagged as a scam/fraud.", "review": "", "fca_link": "https://www.fca.org.uk/news/warnings/lodestone-partners-loadstone", "logo": "", "screenshot": "", "created_at": "2022-04-21T11:00:00.000000Z", "updated_at": "2022-06-21T11:00:00.000000Z", "website": "http://lodestonepartnersllc.com/", "imposter": false, "copycat": false}, {"id": 12839, "name": "Fin-Atlantic Inc Securities", "short_description": "Based on our experience and/or the warnings of official regulatory bodies, this company, and/or some of its practices, were flagged as a scam/fraud.", "review": "", "fca_link": "https://www.fca.org.uk/news/warnings/fin-atlantic-securities-inc", "logo": "", "screenshot": "", "created_at": "2022-04-20T11:00:00.000000Z", "updated_at": "2022-04-27T11:00:00.000000Z", "website": "www.fin-atlantic.com", "imposter": false, "copycat": false}, {"id": 12840, "name": "Consulting Iwl", "short_description": "Based on our experience and/or the warnings of official regulatory bodies, this company, and/or some of its practices, were flagged as a scam/fraud.", "review": "", "fca_link": "https://www.fca.org.uk/news/warnings/iwl-consulting", "logo": "", "screenshot": "", "created_at": "2022-04-20T11:00:00.000000Z", "updated_at": "2022-04-20T11:00:00.000000Z", "website": "www.iwlconsulting.com", "imposter": false, "copycat": false}, {"id": 12841, "name": "Cryptopreco", "short_description": "Based on our experience and/or the warnings of official regulatory bodies, this company, and/or some of its practices, were flagged as a scam/fraud.", "review": "", "fca_link": "https://www.fca.org.uk/news/warnings/cryptopreco", "logo": "", "screenshot": "", "created_at": "2022-04-19T11:00:00.000000Z", "updated_at": "2022-04-19T11:00:00.000000Z", "website": "https://cryptopreco.com/", "imposter": false, "copycat": false}, {"id": 12842, "name": "Tech Trading", "short_description": "Based on our experience and/or the warnings of official regulatory bodies, this company, and/or some of its practices, were flagged as a scam/fraud.", "review": "", "fca_link": "https://www.fca.org.uk/news/warnings/trading-tech-clone-fca-authorised-firm", "logo": "", "screenshot": "", "created_at": "2022-04-19T11:00:00.000000Z", "updated_at": "2022-04-20T11:00:00.000000Z", "website": "https://tradingtech.io", "imposter": false, "copycat": false}, {"id": 12843, "name": "Instant-Profit-Fx", "short_description": "Based on our experience and/or the warnings of official regulatory bodies, this company, and/or some of its practices, were flagged as a scam/fraud.", "review": "", "fca_link": "https://www.fca.org.uk/news/warnings/instant-profit-fxcom", "logo": "", "screenshot": "", "created_at": "2022-04-14T11:00:00.000000Z", "updated_at": "2022-04-14T11:00:00.000000Z", "website": "https://instant-profit-fx.com/", "imposter": false, "copycat": false}, {"id": 12844, "name": "Metaversefx", "short_description": "Based on our experience and/or the warnings of official regulatory bodies, this company, and/or some of its practices, were flagged as a scam/fraud.", "review": "", "fca_link": "https://www.fca.org.uk/news/warnings/metaversefx", "logo": "", "screenshot": "", "created_at": "2022-04-14T11:00:00.000000Z", "updated_at": "2022-04-14T11:00:00.000000Z", "website": "https://metaversefx.online/", "imposter": false, "copycat": false}, {"id": 12845, "name": "Bit Fx Ltd Signals", "short_description": "Based on our experience and/or the warnings of official regulatory bodies, this company, and/or some of its practices, were flagged as a scam/fraud.", "review": "", "fca_link": "https://www.fca.org.uk/news/warnings/fx-bit-signals-ltd", "logo": "", "screenshot": "", "created_at": "2022-04-14T11:00:00.000000Z", "updated_at": "2022-04-14T11:00:00.000000Z", "website": "https://fxbitsignalsltd.com/", "imposter": false, "copycat": false}, {"id": 12846, "name": "Llc Portmann Securities", "short_description": "Based on our experience and/or the warnings of official regulatory bodies, this company, and/or some of its practices, were flagged as a scam/fraud.", "review": "", "fca_link": "https://www.fca.org.uk/news/warnings/portmann-securities-llc", "logo": "", "screenshot": "", "created_at": "2022-04-14T11:00:00.000000Z", "updated_at": "2022-05-04T11:00:00.000000Z", "website": "http://www.portmannsecurities.com/, www.portmansecurities.com", "imposter": false, "copycat": false}, {"id": 12847, "name": "Nimblefxpro", "short_description": "Based on our experience and/or the warnings of official regulatory bodies, this company, and/or some of its practices, were flagged as a scam/fraud.", "review": "", "fca_link": "https://www.fca.org.uk/news/warnings/nimblefxpro", "logo": "", "screenshot": "", "created_at": "2022-04-13T11:00:00.000000Z", "updated_at": "2022-04-13T11:00:00.000000Z", "website": "https://nimblefxpro.com/", "imposter": false, "copycat": false}, {"id": 12848, "name": "Forex Trading United", "short_description": "Based on our experience and/or the warnings of official regulatory bodies, this company, and/or some of its practices, were flagged as a scam/fraud.", "review": "", "fca_link": "https://www.fca.org.uk/news/warnings/united-forex-trading", "logo": "", "screenshot": "", "created_at": "2022-04-13T11:00:00.000000Z", "updated_at": "2022-04-13T11:00:00.000000Z", "website": "https://unitedfxtrade.xyz/", "imposter": false, "copycat": false}, {"id": 12849, "name": "Bcfxtrading", "short_description": "Based on our experience and/or the warnings of official regulatory bodies, this company, and/or some of its practices, were flagged as a scam/fraud.", "review": "", "fca_link": "https://www.fca.org.uk/news/warnings/bcfxtradingnet", "logo": "", "screenshot": "", "created_at": "2022-04-13T11:00:00.000000Z", "updated_at": "2022-04-13T11:00:00.000000Z", "website": "https://bcfxtrading.net/", "imposter": false, "copycat": false}, {"id": 12850, "name": "Astro Fx Mining Trades", "short_description": "Based on our experience and/or the warnings of official regulatory bodies, this company, and/or some of its practices, were flagged as a scam/fraud.", "review": "", "fca_link": "https://www.fca.org.uk/news/warnings/astro-mining-fx-trades", "logo": "", "screenshot": "", "created_at": "2022-04-12T11:00:00.000000Z", "updated_at": "2022-04-12T11:00:00.000000Z", "website": "https://astrominingfxtrades.com/", "imposter": false, "copycat": false}, {"id": 12851, "name": "Crypto Place", "short_description": "Based on our experience and/or the warnings of official regulatory bodies, this company, and/or some of its practices, were flagged as a scam/fraud.", "review": "", "fca_link": "https://www.fca.org.uk/news/warnings/crypto-place", "logo": "", "screenshot": "", "created_at": "2022-04-12T11:00:00.000000Z", "updated_at": "2022-04-12T11:00:00.000000Z", "website": "https://cryptoplaceltd.com/", "imposter": false, "copycat": false}, {"id": 12852, "name": "Key Trending", "short_description": "Based on our experience and/or the warnings of official regulatory bodies, this company, and/or some of its practices, were flagged as a scam/fraud.", "review": "", "fca_link": "https://www.fca.org.uk/news/warnings/key-trending", "logo": "", "screenshot": "", "created_at": "2022-04-12T11:00:00.000000Z", "updated_at": "2022-04-12T11:00:00.000000Z", "website": "https://www.keytrending.com/, www.key-trending.com", "imposter": false, "copycat": false}, {"id": 12853, "name": "Calcuxfx", "short_description": "Based on our experience and/or the warnings of official regulatory bodies, this company, and/or some of its practices, were flagged as a scam/fraud.", "review": "", "fca_link": "https://www.fca.org.uk/news/warnings/calcuxfx", "logo": "", "screenshot": "", "created_at": "2022-04-12T11:00:00.000000Z", "updated_at": "2022-04-12T11:00:00.000000Z", "website": "https://calcuxfx.com/", "imposter": false, "copycat": false}, {"id": 12854, "name": "Exclusive Forex Trading", "short_description": "Based on our experience and/or the warnings of official regulatory bodies, this company, and/or some of its practices, were flagged as a scam/fraud.", "review": "", "fca_link": "https://www.fca.org.uk/news/warnings/exclusive-forex-trading", "logo": "", "screenshot": "", "created_at": "2022-04-12T11:00:00.000000Z", "updated_at": "2022-04-12T11:00:00.000000Z", "website": "https://exclusiveforextradings.com/", "imposter": false, "copycat": false}], "first_page_url": "https://api.payback-ltd.com/api/blacklist?page=1", "from": 2901, "last_page": 486, "last_page_url": "https://api.payback-ltd.com/api/blacklist?page=486", "links": [{"url": "https://api.payback-ltd.com/api/blacklist?page=116", "label": "&laquo; Previous", "active": false}, {"url": "https://api.payback-ltd.com/api/blacklist?page=1", "label": "1", "active": false}, {"url": "https://api.payback-ltd.com/api/blacklist?page=2", "label": "2", "active": false}, {"url": null, "label": "...", "active": false}, {"url": "https://api.payback-ltd.com/api/blacklist?page=114", "label": "114", "active": false}, {"url": "https://api.payback-ltd.com/api/blacklist?page=115", "label": "115", "active": false}, {"url": "https://api.payback-ltd.com/api/blacklist?page=116", "label": "116", "active": false}, {"url": "https://api.payback-ltd.com/api/blacklist?page=117", "label": "117", "active": true}, {"url": "https://api.payback-ltd.com/api/blacklist?page=118", "label": "118", "active": false}, {"url": "https://api.payback-ltd.com/api/blacklist?page=119", "label": "119", "active": false}, {"url": "https://api.payback-ltd.com/api/blacklist?page=120", "label": "120", "active": false}, {"url": null, "label": "...", "active": false}, {"url": "https://api.payback-ltd.com/api/blacklist?page=485", "label": "485", "active": false}, {"url": "https://api.payback-ltd.com/api/blacklist?page=486", "label": "486", "active": false}, {"url": "https://api.payback-ltd.com/api/blacklist?page=118", "label": "Next &raquo;", "active": false}], "next_page_url": "https://api.payback-ltd.com/api/blacklist?page=118", "path": "https://api.payback-ltd.com/api/blacklist", "per_page": 25, "prev_page_url": "https://api.payback-ltd.com/api/blacklist?page=116", "to": 2925, "total": 12140}