{"current_page": 11, "data": [{"id": 10180, "name": "Cryptocapital-Limited", "short_description": "Based on our experience and/or the warnings of official regulatory bodies, this company, and/or some of its practices, were flagged as a scam/fraud.", "review": "", "fca_link": "https://www.fca.org.uk/news/warnings/https-cryptocapital-limitednet", "logo": "", "screenshot": "", "created_at": "2023-10-08T11:00:00.000000Z", "updated_at": "2023-10-11T11:00:00.000000Z", "website": "fxxminings.com", "imposter": false, "copycat": false}, {"id": 10181, "name": "First Investment Ltd Rock Zack", "short_description": "Based on our experience and/or the warnings of official regulatory bodies, this company, and/or some of its practices, were flagged as a scam/fraud.", "review": "", "fca_link": "https://www.fca.org.uk/news/warnings/zack-rock-first-investment-ltd", "logo": "", "screenshot": "", "created_at": "2023-10-08T11:00:00.000000Z", "updated_at": "2023-10-08T11:00:00.000000Z", "website": "www.zackrockfirst.com", "imposter": false, "copycat": false}, {"id": 10182, "name": "Cryptoairdrops", "short_description": "Based on our experience and/or the warnings of official regulatory bodies, this company, and/or some of its practices, were flagged as a scam/fraud.", "review": "", "fca_link": "https://www.fca.org.uk/news/warnings/cryptoairdrops", "logo": "", "screenshot": "", "created_at": "2023-10-08T11:00:00.000000Z", "updated_at": "2023-10-08T11:00:00.000000Z", "website": "www.cryptoairdrops.uk", "imposter": false, "copycat": false}, {"id": 10183, "name": "Megastockcrypto", "short_description": "Based on our experience and/or the warnings of official regulatory bodies, this company, and/or some of its practices, were flagged as a scam/fraud.", "review": "", "fca_link": "https://www.fca.org.uk/news/warnings/megastockcrypto", "logo": "", "screenshot": "", "created_at": "2023-10-08T11:00:00.000000Z", "updated_at": "2023-10-08T11:00:00.000000Z", "website": "www.megastockcrypto.com", "imposter": false, "copycat": false}, {"id": 10184, "name": "Globalfxmultitrade", "short_description": "Based on our experience and/or the warnings of official regulatory bodies, this company, and/or some of its practices, were flagged as a scam/fraud.", "review": "", "fca_link": "https://www.fca.org.uk/news/warnings/globalfxmultitrade-globalfxmultitradecom", "logo": "", "screenshot": "", "created_at": "2023-10-08T11:00:00.000000Z", "updated_at": "2023-10-08T11:00:00.000000Z", "website": "http://globalfxmultitrade.com/", "imposter": false, "copycat": false}, {"id": 10185, "name": "Club Eurobit", "short_description": "Based on our experience and/or the warnings of official regulatory bodies, this company, and/or some of its practices, were flagged as a scam/fraud.", "review": "", "fca_link": "https://www.fca.org.uk/news/warnings/eurobit-club-https-eurobitclub", "logo": "", "screenshot": "", "created_at": "2023-10-08T11:00:00.000000Z", "updated_at": "2023-10-08T11:00:00.000000Z", "website": "https://eurobit.club/", "imposter": false, "copycat": false}, {"id": 10186, "name": "Spikefxfasttrade ", "short_description": "Based on our experience and/or the warnings of official regulatory bodies, this company, and/or some of its practices, were flagged as a scam/fraud.", "review": "", "fca_link": "https://www.fca.org.uk/news/warnings/spikefxfasttrade-spikefxfasttradecom", "logo": "", "screenshot": "", "created_at": "2023-10-08T11:00:00.000000Z", "updated_at": "2023-10-08T11:00:00.000000Z", "website": "spikefxfasttrade.com", "imposter": false, "copycat": false}, {"id": 10187, "name": "Crypto Dcryptopromanager Investment Ltd Manager Pro", "short_description": "Based on our experience and/or the warnings of official regulatory bodies, this company, and/or some of its practices, were flagged as a scam/fraud.", "review": "", "fca_link": "https://www.fca.org.uk/news/warnings/dcryptopromanagercom-ltd-crypto-pro-manager-investment-ltd", "logo": "", "screenshot": "", "created_at": "2023-10-08T11:00:00.000000Z", "updated_at": "2023-10-08T11:00:00.000000Z", "website": "https://dcryptopromanager.com/", "imposter": false, "copycat": false}, {"id": 10188, "name": " AHome Deltacoin Limited", "short_description": "Based on our experience and/or the warnings of official regulatory bodies, this company, and/or some of its practices, were flagged as a scam/fraud.", "review": "", "fca_link": "https://www.fca.org.uk/news/warnings/deltacoin-limited-https-deltacoinlimited-ahome", "logo": "", "screenshot": "", "created_at": "2023-10-08T11:00:00.000000Z", "updated_at": "2023-10-08T11:00:00.000000Z", "website": "https://deltacoin.limited", "imposter": false, "copycat": false}, {"id": 10189, "name": "Cryptopro Trade Vip", "short_description": "Based on our experience and/or the warnings of official regulatory bodies, this company, and/or some of its practices, were flagged as a scam/fraud.", "review": "", "fca_link": "https://www.fca.org.uk/news/warnings/cryptopro-vip-trade", "logo": "", "screenshot": "", "created_at": "2023-10-08T11:00:00.000000Z", "updated_at": "2023-10-08T11:00:00.000000Z", "website": "https://cryptoproviptrade.com/", "imposter": false, "copycat": false}, {"id": 10190, "name": "Gravityventue Gravityventure", "short_description": "Based on our experience and/or the warnings of official regulatory bodies, this company, and/or some of its practices, were flagged as a scam/fraud.", "review": "", "fca_link": "https://www.fca.org.uk/news/warnings/gravityventure-gravityventuenet", "logo": "", "screenshot": "", "created_at": "2023-10-08T11:00:00.000000Z", "updated_at": "2023-10-08T11:00:00.000000Z", "website": "https://gravityventue.net/", "imposter": false, "copycat": false}, {"id": 10191, "name": "Cryptocapital-Investment", "short_description": "Based on our experience and/or the warnings of official regulatory bodies, this company, and/or some of its practices, were flagged as a scam/fraud.", "review": "", "fca_link": "https://www.fca.org.uk/news/warnings/cryptocapital-investment", "logo": "", "screenshot": "", "created_at": "2023-10-08T11:00:00.000000Z", "updated_at": "2023-10-08T11:00:00.000000Z", "website": "www.cryptocapital-investment.uk", "imposter": false, "copycat": false}, {"id": 10192, "name": "Fast Fx Mine", "short_description": "Based on our experience and/or the warnings of official regulatory bodies, this company, and/or some of its practices, were flagged as a scam/fraud.", "review": "", "fca_link": "https://www.fca.org.uk/news/warnings/fast-mine-fx-https-fastminefxcom", "logo": "", "screenshot": "", "created_at": "2023-10-08T11:00:00.000000Z", "updated_at": "2023-10-08T11:00:00.000000Z", "website": "https://fastminefx.com/", "imposter": false, "copycat": false}, {"id": 10193, "name": "Iqcoinfx", "short_description": "Based on our experience and/or the warnings of official regulatory bodies, this company, and/or some of its practices, were flagged as a scam/fraud.", "review": "", "fca_link": "https://www.fca.org.uk/news/warnings/iqcoinfxcom", "logo": "", "screenshot": "", "created_at": "2023-10-08T11:00:00.000000Z", "updated_at": "2023-10-08T11:00:00.000000Z", "website": "www.iqcoinfx.com", "imposter": false, "copycat": false}, {"id": 10194, "name": "Nvg-7fx-Bots", "short_description": "Based on our experience and/or the warnings of official regulatory bodies, this company, and/or some of its practices, were flagged as a scam/fraud.", "review": "", "fca_link": "https://www.fca.org.uk/news/warnings/nvg-7fx-bots-https-nvg7fxb0tscom", "logo": "", "screenshot": "", "created_at": "2023-10-08T11:00:00.000000Z", "updated_at": "2023-10-08T11:00:00.000000Z", "website": "https://nvg7fxb0ts.com/", "imposter": false, "copycat": false}, {"id": 10195, "name": "Prodigitalearners", "short_description": "Based on our experience and/or the warnings of official regulatory bodies, this company, and/or some of its practices, were flagged as a scam/fraud.", "review": "", "fca_link": "https://www.fca.org.uk/news/warnings/prodigitalearners-https-prodigitalearnerscom", "logo": "", "screenshot": "", "created_at": "2023-10-08T11:00:00.000000Z", "updated_at": "2023-10-08T11:00:00.000000Z", "website": "https://prodigitalearners.com", "imposter": false, "copycat": false}, {"id": 10196, "name": "Cryptomining Fx Safe", "short_description": "Based on our experience and/or the warnings of official regulatory bodies, this company, and/or some of its practices, were flagged as a scam/fraud.", "review": "", "fca_link": "https://www.fca.org.uk/news/warnings/safe-cryptomining-fx", "logo": "", "screenshot": "", "created_at": "2023-10-08T11:00:00.000000Z", "updated_at": "2023-10-08T11:00:00.000000Z", "website": "www.safecryptominingfx.net", "imposter": false, "copycat": false}, {"id": 10197, "name": "Autoforextradesignal", "short_description": "Based on our experience and/or the warnings of official regulatory bodies, this company, and/or some of its practices, were flagged as a scam/fraud.", "review": "", "fca_link": "https://www.fca.org.uk/news/warnings/autoforextradesignal-autoforextradesignalcom", "logo": "", "screenshot": "", "created_at": "2023-10-08T11:00:00.000000Z", "updated_at": "2023-10-08T11:00:00.000000Z", "website": "https://autoforextradesignal.com/", "imposter": false, "copycat": false}, {"id": 10198, "name": "Trendverce", "short_description": "Based on our experience and/or the warnings of official regulatory bodies, this company, and/or some of its practices, were flagged as a scam/fraud.", "review": "", "fca_link": "https://www.fca.org.uk/news/warnings/trendverce-trendvercecom", "logo": "", "screenshot": "", "created_at": "2023-10-08T11:00:00.000000Z", "updated_at": "2023-10-08T11:00:00.000000Z", "website": "https://trendverce.com/", "imposter": false, "copycat": false}, {"id": 10199, "name": "Stockgainfx", "short_description": "Based on our experience and/or the warnings of official regulatory bodies, this company, and/or some of its practices, were flagged as a scam/fraud.", "review": "", "fca_link": "https://www.fca.org.uk/news/warnings/stockgainfxcom", "logo": "", "screenshot": "", "created_at": "2023-10-08T11:00:00.000000Z", "updated_at": "2023-10-08T11:00:00.000000Z", "website": "www.stockgainfx.com", "imposter": false, "copycat": false}, {"id": 10200, "name": "Analyst Markets", "short_description": "Based on our experience and/or the warnings of official regulatory bodies, this company, and/or some of its practices, were flagged as a scam/fraud.", "review": "", "fca_link": "https://www.fca.org.uk/news/warnings/markets-analyst-https-markets-analystcom", "logo": "", "screenshot": "", "created_at": "2023-10-08T11:00:00.000000Z", "updated_at": "2023-10-08T11:00:00.000000Z", "website": "https://markets-analyst.com/", "imposter": false, "copycat": false}, {"id": 10201, "name": "Ledger Option Swift Swiftledgeroption", "short_description": "Based on our experience and/or the warnings of official regulatory bodies, this company, and/or some of its practices, were flagged as a scam/fraud.", "review": "", "fca_link": "https://www.fca.org.uk/news/warnings/swiftledgeroption-swift-ledger-option", "logo": "", "screenshot": "", "created_at": "2023-10-08T11:00:00.000000Z", "updated_at": "2023-10-08T11:00:00.000000Z", "website": "https://swiftledgeroption.com/", "imposter": false, "copycat": false}, {"id": 10202, "name": "Bit Pivot Pivot-Bit", "short_description": "Based on our experience and/or the warnings of official regulatory bodies, this company, and/or some of its practices, were flagged as a scam/fraud.", "review": "", "fca_link": "https://www.fca.org.uk/news/warnings/pivot-bit-pivot-bitcom", "logo": "", "screenshot": "", "created_at": "2023-10-08T11:00:00.000000Z", "updated_at": "2023-10-08T11:00:00.000000Z", "website": "https://pivot-bit.com", "imposter": false, "copycat": false}, {"id": 10203, "name": " Microglobalfx", "short_description": "Based on our experience and/or the warnings of official regulatory bodies, this company, and/or some of its practices, were flagged as a scam/fraud.", "review": "", "fca_link": "https://www.fca.org.uk/news/warnings/microglobalfx-https-microglobalfxcom", "logo": "", "screenshot": "", "created_at": "2023-10-08T11:00:00.000000Z", "updated_at": "2023-10-08T11:00:00.000000Z", "website": "https://microglobalfx.com", "imposter": false, "copycat": false}, {"id": 10204, "name": "Cadocinvestments", "short_description": "Based on our experience and/or the warnings of official regulatory bodies, this company, and/or some of its practices, were flagged as a scam/fraud.", "review": "", "fca_link": "https://www.fca.org.uk/news/warnings/cadocinvestments", "logo": "", "screenshot": "", "created_at": "2023-10-08T11:00:00.000000Z", "updated_at": "2023-10-08T11:00:00.000000Z", "website": "www.cadocinvestments.uk", "imposter": false, "copycat": false}], "first_page_url": "https://api.payback-ltd.com/api/blacklist?page=1", "from": 251, "last_page": 486, "last_page_url": "https://api.payback-ltd.com/api/blacklist?page=486", "links": [{"url": "https://api.payback-ltd.com/api/blacklist?page=10", "label": "&laquo; Previous", "active": false}, {"url": "https://api.payback-ltd.com/api/blacklist?page=1", "label": "1", "active": false}, {"url": "https://api.payback-ltd.com/api/blacklist?page=2", "label": "2", "active": false}, {"url": null, "label": "...", "active": false}, {"url": "https://api.payback-ltd.com/api/blacklist?page=8", "label": "8", "active": false}, {"url": "https://api.payback-ltd.com/api/blacklist?page=9", "label": "9", "active": false}, {"url": "https://api.payback-ltd.com/api/blacklist?page=10", "label": "10", "active": false}, {"url": "https://api.payback-ltd.com/api/blacklist?page=11", "label": "11", "active": true}, {"url": "https://api.payback-ltd.com/api/blacklist?page=12", "label": "12", "active": false}, {"url": "https://api.payback-ltd.com/api/blacklist?page=13", "label": "13", "active": false}, {"url": "https://api.payback-ltd.com/api/blacklist?page=14", "label": "14", "active": false}, {"url": null, "label": "...", "active": false}, {"url": "https://api.payback-ltd.com/api/blacklist?page=485", "label": "485", "active": false}, {"url": "https://api.payback-ltd.com/api/blacklist?page=486", "label": "486", "active": false}, {"url": "https://api.payback-ltd.com/api/blacklist?page=12", "label": "Next &raquo;", "active": false}], "next_page_url": "https://api.payback-ltd.com/api/blacklist?page=12", "path": "https://api.payback-ltd.com/api/blacklist", "per_page": 25, "prev_page_url": "https://api.payback-ltd.com/api/blacklist?page=10", "to": 275, "total": 12140}