{"current_page": 105, "data": [{"id": 12530, "name": "Crypto-X-Options", "short_description": "Based on our experience and/or the warnings of official regulatory bodies, this company, and/or some of its practices, were flagged as a scam/fraud.", "review": "", "fca_link": "https://www.fca.org.uk/news/warnings/crypto-x-options", "logo": "", "screenshot": "", "created_at": "2022-08-08T11:00:00.000000Z", "updated_at": "2022-08-08T11:00:00.000000Z", "website": "www.crypto-x-options.com", "imposter": false, "copycat": false}, {"id": 12531, "name": "Crypto Defi Management", "short_description": "Based on our experience and/or the warnings of official regulatory bodies, this company, and/or some of its practices, were flagged as a scam/fraud.", "review": "", "fca_link": "https://www.fca.org.uk/news/warnings/crypto-defi-management", "logo": "", "screenshot": "", "created_at": "2022-08-08T11:00:00.000000Z", "updated_at": "2022-08-08T11:00:00.000000Z", "website": "https://cryptodefimgt.com/", "imposter": false, "copycat": false}, {"id": 12532, "name": "Cryptotechuniverse", "short_description": "Based on our experience and/or the warnings of official regulatory bodies, this company, and/or some of its practices, were flagged as a scam/fraud.", "review": "", "fca_link": "https://www.fca.org.uk/news/warnings/cryptotechuniverse", "logo": "", "screenshot": "", "created_at": "2022-08-08T11:00:00.000000Z", "updated_at": "2022-08-08T11:00:00.000000Z", "website": "https://cryptotechuniverse.com/", "imposter": false, "copycat": false}, {"id": 12533, "name": "Wixi", "short_description": "Based on our experience and/or the warnings of official regulatory bodies, this company, and/or some of its practices, were flagged as a scam/fraud.", "review": "", "fca_link": "https://www.fca.org.uk/news/warnings/wixi", "logo": "", "screenshot": "", "created_at": "2022-08-08T11:00:00.000000Z", "updated_at": "2022-08-08T11:00:00.000000Z", "website": "https://wixi.io/", "imposter": false, "copycat": false}, {"id": 12534, "name": "First Infinity Loans", "short_description": "Based on our experience and/or the warnings of official regulatory bodies, this company, and/or some of its practices, were flagged as a scam/fraud.", "review": "", "fca_link": "https://www.fca.org.uk/news/warnings/first-infinity-loans", "logo": "", "screenshot": "", "created_at": "2022-08-08T11:00:00.000000Z", "updated_at": "2022-08-08T11:00:00.000000Z", "website": "www.firstinfinityloans.co.uk", "imposter": false, "copycat": false}, {"id": 12535, "name": "Business Credit Finance", "short_description": "Based on our experience and/or the warnings of official regulatory bodies, this company, and/or some of its practices, were flagged as a scam/fraud.", "review": "", "fca_link": "https://www.fca.org.uk/news/warnings/credit-business-finance-clone-fca-authorised-firm", "logo": "", "screenshot": "", "created_at": "2022-08-05T11:00:00.000000Z", "updated_at": "2022-08-05T11:00:00.000000Z", "website": "", "imposter": false, "copycat": false}, {"id": 12536, "name": "01-Investing", "short_description": "Based on our experience and/or the warnings of official regulatory bodies, this company, and/or some of its practices, were flagged as a scam/fraud.", "review": "", "fca_link": "https://www.fca.org.uk/news/warnings/101-investing-101-investingnet", "logo": "", "screenshot": "", "created_at": "2022-08-05T11:00:00.000000Z", "updated_at": "2022-08-05T11:00:00.000000Z", "website": "www.101-investing.net", "imposter": false, "copycat": false}, {"id": 12537, "name": "Advisory Group Llc Schulze-Winkler Schulze-Winkler", "short_description": "Based on our experience and/or the warnings of official regulatory bodies, this company, and/or some of its practices, were flagged as a scam/fraud.", "review": "", "fca_link": "https://www.fca.org.uk/news/warnings/schulze-winkler-schulze-winkler-advisory-group-llc", "logo": "", "screenshot": "", "created_at": "2022-08-05T11:00:00.000000Z", "updated_at": "2022-08-08T11:00:00.000000Z", "website": "www.schulze-winkler.com", "imposter": false, "copycat": false}, {"id": 12538, "name": "Corp Newton", "short_description": "Based on our experience and/or the warnings of official regulatory bodies, this company, and/or some of its practices, were flagged as a scam/fraud.", "review": "", "fca_link": "https://www.fca.org.uk/news/warnings/newton-corp-clone-fca-authorised-firm", "logo": "", "screenshot": "", "created_at": "2022-08-04T11:00:00.000000Z", "updated_at": "2022-08-04T11:00:00.000000Z", "website": "www.newton-corp.com", "imposter": false, "copycat": false}, {"id": 12539, "name": "A Flooring Ltd Pay Payweeklyflooringuk T Weekly", "short_description": "Based on our experience and/or the warnings of official regulatory bodies, this company, and/or some of its practices, were flagged as a scam/fraud.", "review": "", "fca_link": "https://www.fca.org.uk/news/warnings/payweeklyflooringuk-ltd-t-pay-weekly-flooring", "logo": "", "screenshot": "", "created_at": "2022-08-04T11:00:00.000000Z", "updated_at": "2022-08-04T11:00:00.000000Z", "website": "https://www.payweeklyflooringuk.co.uk/", "imposter": false, "copycat": false}, {"id": 12540, "name": "Brokers Fountain Insurance William", "short_description": "Based on our experience and/or the warnings of official regulatory bodies, this company, and/or some of its practices, were flagged as a scam/fraud.", "review": "", "fca_link": "https://www.fca.org.uk/news/warnings/william-fountain-insurance-brokers-clone-fca-authorised-firm", "logo": "", "screenshot": "", "created_at": "2022-08-03T11:00:00.000000Z", "updated_at": "2022-08-03T11:00:00.000000Z", "website": "www.wfib.co.uk", "imposter": false, "copycat": false}, {"id": 12541, "name": "Eaglestone-Fin Eaglestones Finance", "short_description": "Based on our experience and/or the warnings of official regulatory bodies, this company, and/or some of its practices, were flagged as a scam/fraud.", "review": "", "fca_link": "https://www.fca.org.uk/news/warnings/eaglestones-finance-eaglestone-fincom-clone-fca-authorised-firm", "logo": "", "screenshot": "", "created_at": "2022-08-03T11:00:00.000000Z", "updated_at": "2022-10-05T11:00:00.000000Z", "website": "https://eaglestone-fin.com/en, https://fin-eaglestone.com/en", "imposter": false, "copycat": false}, {"id": 12542, "name": "Experts Reclaim", "short_description": "Based on our experience and/or the warnings of official regulatory bodies, this company, and/or some of its practices, were flagged as a scam/fraud.", "review": "", "fca_link": "https://www.fca.org.uk/news/warnings/reclaim-experts", "logo": "", "screenshot": "", "created_at": "2022-08-03T11:00:00.000000Z", "updated_at": "2022-08-03T11:00:00.000000Z", "website": "https://www.reclaimexperts.co.uk/", "imposter": false, "copycat": false}, {"id": 12543, "name": "Connections Holding Lc Logical", "short_description": "Based on our experience and/or the warnings of official regulatory bodies, this company, and/or some of its practices, were flagged as a scam/fraud.", "review": "", "fca_link": "https://www.fca.org.uk/news/warnings/lc-holding-logical-connections-holding", "logo": "", "screenshot": "", "created_at": "2022-08-03T11:00:00.000000Z", "updated_at": "2022-09-23T11:00:00.000000Z", "website": "www.lc-holding.co.uk, www.lcholding-uk.com, www.lcholding-uk.co.uk", "imposter": false, "copycat": false}, {"id": 12544, "name": "Ability Advisory Corporate", "short_description": "Based on our experience and/or the warnings of official regulatory bodies, this company, and/or some of its practices, were flagged as a scam/fraud.", "review": "", "fca_link": "https://www.fca.org.uk/news/warnings/ability-corporate-advisory", "logo": "", "screenshot": "", "created_at": "2022-08-02T11:00:00.000000Z", "updated_at": "2022-08-02T11:00:00.000000Z", "website": "https://abilitycorporateadvisory.com/", "imposter": false, "copycat": false}, {"id": 12545, "name": "Advisory Claims Service", "short_description": "Based on our experience and/or the warnings of official regulatory bodies, this company, and/or some of its practices, were flagged as a scam/fraud.", "review": "", "fca_link": "https://www.fca.org.uk/news/warnings/claims-advisory-service", "logo": "", "screenshot": "", "created_at": "2022-08-02T11:00:00.000000Z", "updated_at": "2022-08-02T11:00:00.000000Z", "website": "http://www.claimsadvisoryservice.co.uk/", "imposter": false, "copycat": false}, {"id": 12546, "name": "Refundex", "short_description": "Based on our experience and/or the warnings of official regulatory bodies, this company, and/or some of its practices, were flagged as a scam/fraud.", "review": "", "fca_link": "https://www.fca.org.uk/news/warnings/refundex", "logo": "", "screenshot": "", "created_at": "2022-08-02T11:00:00.000000Z", "updated_at": "2022-08-02T11:00:00.000000Z", "website": "www.refundex.io", "imposter": false, "copycat": false}, {"id": 12547, "name": "Capital Central Loans", "short_description": "Based on our experience and/or the warnings of official regulatory bodies, this company, and/or some of its practices, were flagged as a scam/fraud.", "review": "", "fca_link": "https://www.fca.org.uk/news/warnings/loans-central-loans-capital-clone-fca-authorised-firm", "logo": "", "screenshot": "", "created_at": "2022-08-01T11:00:00.000000Z", "updated_at": "2022-08-03T11:00:00.000000Z", "website": "www.loans-central.co.uk, www.loanscapital.co.uk", "imposter": false, "copycat": false}, {"id": 12548, "name": "Gbr Limited Proserv", "short_description": "Based on our experience and/or the warnings of official regulatory bodies, this company, and/or some of its practices, were flagged as a scam/fraud.", "review": "", "fca_link": "https://www.fca.org.uk/news/warnings/proserv-gbr-limited", "logo": "", "screenshot": "", "created_at": "2022-08-01T11:00:00.000000Z", "updated_at": "2022-08-01T11:00:00.000000Z", "website": "", "imposter": false, "copycat": false}, {"id": 12549, "name": "Finance Gb Ltd Premier", "short_description": "Based on our experience and/or the warnings of official regulatory bodies, this company, and/or some of its practices, were flagged as a scam/fraud.", "review": "", "fca_link": "https://www.fca.org.uk/news/warnings/premier-finance-gb-ltd", "logo": "", "screenshot": "", "created_at": "2022-08-01T11:00:00.000000Z", "updated_at": "2022-08-01T11:00:00.000000Z", "website": "", "imposter": false, "copycat": false}, {"id": 12550, "name": "Automotive Avance", "short_description": "Based on our experience and/or the warnings of official regulatory bodies, this company, and/or some of its practices, were flagged as a scam/fraud.", "review": "", "fca_link": "https://www.fca.org.uk/news/warnings/avance-automotive-clone-authorised-firm", "logo": "", "screenshot": "", "created_at": "2022-08-01T11:00:00.000000Z", "updated_at": "2022-08-08T11:00:00.000000Z", "website": "https://avanceautomotiveltd.com, www.instagram.com/avanceautomotive/", "imposter": false, "copycat": false}, {"id": 12551, "name": "Fxokami", "short_description": "Based on our experience and/or the warnings of official regulatory bodies, this company, and/or some of its practices, were flagged as a scam/fraud.", "review": "", "fca_link": "https://www.fca.org.uk/news/warnings/fxokami-clone-authorised-firm", "logo": "", "screenshot": "", "created_at": "2022-07-29T11:00:00.000000Z", "updated_at": "2022-07-29T11:00:00.000000Z", "website": "https://fxokami.com", "imposter": false, "copycat": false}, {"id": 12552, "name": "Coverfast", "short_description": "Based on our experience and/or the warnings of official regulatory bodies, this company, and/or some of its practices, were flagged as a scam/fraud.", "review": "", "fca_link": "https://www.fca.org.uk/news/warnings/coverfast-clone-fca-authorised-firm", "logo": "", "screenshot": "", "created_at": "2022-07-29T11:00:00.000000Z", "updated_at": "2023-09-28T11:00:00.000000Z", "website": "https://coverfast.co.uk/, https://coverfastinsurance.com", "imposter": false, "copycat": false}, {"id": 12553, "name": "Capital Trade Unity", "short_description": "Based on our experience and/or the warnings of official regulatory bodies, this company, and/or some of its practices, were flagged as a scam/fraud.", "review": "", "fca_link": "https://www.fca.org.uk/news/warnings/trade-unity-capital-clone-authorised-firm", "logo": "", "screenshot": "", "created_at": "2022-07-29T11:00:00.000000Z", "updated_at": "2022-11-11T12:00:00.000000Z", "website": "https://tradeunity.co", "imposter": false, "copycat": false}, {"id": 12554, "name": "Click Money", "short_description": "Based on our experience and/or the warnings of official regulatory bodies, this company, and/or some of its practices, were flagged as a scam/fraud.", "review": "", "fca_link": "https://www.fca.org.uk/news/warnings/click-money", "logo": "", "screenshot": "", "created_at": "2022-07-29T11:00:00.000000Z", "updated_at": "2022-07-29T11:00:00.000000Z", "website": "click-moneysystem.com, yanftd.fun, tapmark.icu", "imposter": false, "copycat": false}], "first_page_url": "https://api.payback-ltd.com/api/blacklist?page=1", "from": 2601, "last_page": 486, "last_page_url": "https://api.payback-ltd.com/api/blacklist?page=486", "links": [{"url": "https://api.payback-ltd.com/api/blacklist?page=104", "label": "&laquo; Previous", "active": false}, {"url": "https://api.payback-ltd.com/api/blacklist?page=1", "label": "1", "active": false}, {"url": "https://api.payback-ltd.com/api/blacklist?page=2", "label": "2", "active": false}, {"url": null, "label": "...", "active": false}, {"url": "https://api.payback-ltd.com/api/blacklist?page=102", "label": "102", "active": false}, {"url": "https://api.payback-ltd.com/api/blacklist?page=103", "label": "103", "active": false}, {"url": "https://api.payback-ltd.com/api/blacklist?page=104", "label": "104", "active": false}, {"url": "https://api.payback-ltd.com/api/blacklist?page=105", "label": "105", "active": true}, {"url": "https://api.payback-ltd.com/api/blacklist?page=106", "label": "106", "active": false}, {"url": "https://api.payback-ltd.com/api/blacklist?page=107", "label": "107", "active": false}, {"url": "https://api.payback-ltd.com/api/blacklist?page=108", "label": "108", "active": false}, {"url": null, "label": "...", "active": false}, {"url": "https://api.payback-ltd.com/api/blacklist?page=485", "label": "485", "active": false}, {"url": "https://api.payback-ltd.com/api/blacklist?page=486", "label": "486", "active": false}, {"url": "https://api.payback-ltd.com/api/blacklist?page=106", "label": "Next &raquo;", "active": false}], "next_page_url": "https://api.payback-ltd.com/api/blacklist?page=106", "path": "https://api.payback-ltd.com/api/blacklist", "per_page": 25, "prev_page_url": "https://api.payback-ltd.com/api/blacklist?page=104", "to": 2625, "total": 12140}