{"current_page": 52, "data": [{"id": 11205, "name": "Invest Mortec", "short_description": "Based on our experience and/or the warnings of official regulatory bodies, this company, and/or some of its practices, were flagged as a scam/fraud.", "review": "", "fca_link": "https://www.fca.org.uk/news/warnings/mortec-invest", "logo": "", "screenshot": "", "created_at": "2023-03-31T11:00:00.000000Z", "updated_at": "2023-03-31T11:00:00.000000Z", "website": "www.mortecinvest.com", "imposter": false, "copycat": false}, {"id": 11206, "name": "Cryptolive Trade247", "short_description": "Based on our experience and/or the warnings of official regulatory bodies, this company, and/or some of its practices, were flagged as a scam/fraud.", "review": "", "fca_link": "https://www.fca.org.uk/news/warnings/cryptolive-trade247", "logo": "", "screenshot": "", "created_at": "2023-03-31T11:00:00.000000Z", "updated_at": "2023-03-31T11:00:00.000000Z", "website": "www.cryptolivetrade247.com", "imposter": false, "copycat": false}, {"id": 11207, "name": "Asset Capital Limited Ltd Management Wharton", "short_description": "Based on our experience and/or the warnings of official regulatory bodies, this company, and/or some of its practices, were flagged as a scam/fraud.", "review": "", "fca_link": "https://www.fca.org.uk/news/warnings/wharton-asset-management-capital-limited-wharton-ltd-clone-uk-registered-company", "logo": "", "screenshot": "", "created_at": "2023-03-31T11:00:00.000000Z", "updated_at": "2023-03-31T11:00:00.000000Z", "website": "llpgpro.com/whartonltd, www.whartonlimited.com", "imposter": false, "copycat": false}, {"id": 11208, "name": "Bank Capital Group", "short_description": "Based on our experience and/or the warnings of official regulatory bodies, this company, and/or some of its practices, were flagged as a scam/fraud.", "review": "", "fca_link": "https://www.fca.org.uk/news/warnings/capital-group-bank", "logo": "", "screenshot": "", "created_at": "2023-03-31T11:00:00.000000Z", "updated_at": "2023-03-31T11:00:00.000000Z", "website": "www.capitalgroupbank.com", "imposter": false, "copycat": false}, {"id": 11209, "name": "Confidential Fx Global", "short_description": "Based on our experience and/or the warnings of official regulatory bodies, this company, and/or some of its practices, were flagged as a scam/fraud.", "review": "", "fca_link": "https://www.fca.org.uk/news/warnings/confidential-global-fx", "logo": "", "screenshot": "", "created_at": "2023-03-31T11:00:00.000000Z", "updated_at": "2023-03-31T11:00:00.000000Z", "website": "www.confidentialglobalfx.com", "imposter": false, "copycat": false}, {"id": 11210, "name": "Mega-Capitals", "short_description": "Based on our experience and/or the warnings of official regulatory bodies, this company, and/or some of its practices, were flagged as a scam/fraud.", "review": "", "fca_link": "https://www.fca.org.uk/news/warnings/mega-capitalsltd", "logo": "", "screenshot": "", "created_at": "2023-03-30T11:00:00.000000Z", "updated_at": "2023-03-30T11:00:00.000000Z", "website": "www.mega-capitals.ltd", "imposter": false, "copycat": false}, {"id": 11211, "name": "Fx Scalp Trades", "short_description": "Based on our experience and/or the warnings of official regulatory bodies, this company, and/or some of its practices, were flagged as a scam/fraud.", "review": "", "fca_link": "https://www.fca.org.uk/news/warnings/scalp-fx-trades", "logo": "", "screenshot": "", "created_at": "2023-03-30T11:00:00.000000Z", "updated_at": "2023-03-30T11:00:00.000000Z", "website": "www.scalpfxtrades.com", "imposter": false, "copycat": false}, {"id": 11212, "name": "Floating Money", "short_description": "Based on our experience and/or the warnings of official regulatory bodies, this company, and/or some of its practices, were flagged as a scam/fraud.", "review": "", "fca_link": "https://www.fca.org.uk/news/warnings/floating-money-clone-fca-authorised-firm", "logo": "", "screenshot": "", "created_at": "2023-03-30T11:00:00.000000Z", "updated_at": "2023-03-30T11:00:00.000000Z", "website": "https://floatingmoney.co.uk/", "imposter": false, "copycat": false}, {"id": 11213, "name": "Finco Signals", "short_description": "Based on our experience and/or the warnings of official regulatory bodies, this company, and/or some of its practices, were flagged as a scam/fraud.", "review": "", "fca_link": "https://www.fca.org.uk/news/warnings/finco-signals-clone-fca-authorised-firm", "logo": "", "screenshot": "", "created_at": "2023-03-30T11:00:00.000000Z", "updated_at": "2023-03-30T11:00:00.000000Z", "website": "www.fincosignals.com", "imposter": false, "copycat": false}, {"id": 11214, "name": "Analytica Trading", "short_description": "Based on our experience and/or the warnings of official regulatory bodies, this company, and/or some of its practices, were flagged as a scam/fraud.", "review": "", "fca_link": "https://www.fca.org.uk/news/warnings/analytica-trading", "logo": "", "screenshot": "", "created_at": "2023-03-30T11:00:00.000000Z", "updated_at": "2023-03-30T11:00:00.000000Z", "website": "https://analyticatrading.com/", "imposter": false, "copycat": false}, {"id": 11215, "name": "Bank Crypto Cypto Emcro Goliath Oceania Payments Vault Worldwide", "short_description": "Based on our experience and/or the warnings of official regulatory bodies, this company, and/or some of its practices, were flagged as a scam/fraud.", "review": "", "fca_link": "https://www.fca.org.uk/news/warnings/goliath-cypto-bank-emcro-worldwide-payments-oceania-crypto-vault", "logo": "", "screenshot": "", "created_at": "2023-03-30T11:00:00.000000Z", "updated_at": "2023-07-12T11:00:00.000000Z", "website": "www.goliathbank.online, https://oceaniacv.com/", "imposter": false, "copycat": false}, {"id": 11216, "name": "Value-Tech", "short_description": "Based on our experience and/or the warnings of official regulatory bodies, this company, and/or some of its practices, were flagged as a scam/fraud.", "review": "", "fca_link": "https://www.fca.org.uk/news/warnings/value-techonline", "logo": "", "screenshot": "", "created_at": "2023-03-30T11:00:00.000000Z", "updated_at": "2023-03-30T11:00:00.000000Z", "website": "www.value-tech.online", "imposter": false, "copycat": false}, {"id": 11217, "name": "Edge Power Teams", "short_description": "Based on our experience and/or the warnings of official regulatory bodies, this company, and/or some of its practices, were flagged as a scam/fraud.", "review": "", "fca_link": "https://www.fca.org.uk/news/warnings/edge-teams-power", "logo": "", "screenshot": "", "created_at": "2023-03-30T11:00:00.000000Z", "updated_at": "2023-03-30T11:00:00.000000Z", "website": "https://edgeteamspower.com", "imposter": false, "copycat": false}, {"id": 11218, "name": "Assetxchange-Investment", "short_description": "Based on our experience and/or the warnings of official regulatory bodies, this company, and/or some of its practices, were flagged as a scam/fraud.", "review": "", "fca_link": "https://www.fca.org.uk/news/warnings/assetxchange-investment", "logo": "", "screenshot": "", "created_at": "2023-03-30T11:00:00.000000Z", "updated_at": "2023-03-30T11:00:00.000000Z", "website": "https://assetxchange-investment.com/", "imposter": false, "copycat": false}, {"id": 11219, "name": "Equity Fxte", "short_description": "Based on our experience and/or the warnings of official regulatory bodies, this company, and/or some of its practices, were flagged as a scam/fraud.", "review": "", "fca_link": "https://www.fca.org.uk/news/warnings/equity-fxte", "logo": "", "screenshot": "", "created_at": "2023-03-30T11:00:00.000000Z", "updated_at": "2023-03-30T11:00:00.000000Z", "website": "www.equitysfxtes.com", "imposter": false, "copycat": false}, {"id": 11220, "name": "Edge Powers Pro View", "short_description": "Based on our experience and/or the warnings of official regulatory bodies, this company, and/or some of its practices, were flagged as a scam/fraud.", "review": "", "fca_link": "https://www.fca.org.uk/news/warnings/pro-edge-powers-view", "logo": "", "screenshot": "", "created_at": "2023-03-30T11:00:00.000000Z", "updated_at": "2023-03-30T11:00:00.000000Z", "website": "https://pro-epsviews.com/", "imposter": false, "copycat": false}, {"id": 11221, "name": "Tbanque", "short_description": "Based on our experience and/or the warnings of official regulatory bodies, this company, and/or some of its practices, were flagged as a scam/fraud.", "review": "", "fca_link": "https://www.fca.org.uk/news/warnings/tbanque", "logo": "", "screenshot": "", "created_at": "2023-03-29T11:00:00.000000Z", "updated_at": "2023-03-29T11:00:00.000000Z", "website": "https://tbanque.com/", "imposter": false, "copycat": false}, {"id": 11222, "name": "Capitalindex", "short_description": "Based on our experience and/or the warnings of official regulatory bodies, this company, and/or some of its practices, were flagged as a scam/fraud.", "review": "", "fca_link": "https://www.fca.org.uk/news/warnings/capitalindexorg", "logo": "", "screenshot": "", "created_at": "2023-03-29T11:00:00.000000Z", "updated_at": "2023-06-26T11:00:00.000000Z", "website": "https://capitalindex.org, https://capitalindex.pro/", "imposter": false, "copycat": false}, {"id": 11223, "name": "Crypto Ltd Stock Trades", "short_description": "Based on our experience and/or the warnings of official regulatory bodies, this company, and/or some of its practices, were flagged as a scam/fraud.", "review": "", "fca_link": "https://www.fca.org.uk/news/warnings/crypto-stock-trades-ltd", "logo": "", "screenshot": "", "created_at": "2023-03-29T11:00:00.000000Z", "updated_at": "2023-03-29T11:00:00.000000Z", "website": "www.fxc-pros.com", "imposter": false, "copycat": false}, {"id": 11224, "name": "Cryptolead-Inc", "short_description": "Based on our experience and/or the warnings of official regulatory bodies, this company, and/or some of its practices, were flagged as a scam/fraud.", "review": "", "fca_link": "https://www.fca.org.uk/news/warnings/cryptolead-inc", "logo": "", "screenshot": "", "created_at": "2023-03-29T11:00:00.000000Z", "updated_at": "2023-03-29T11:00:00.000000Z", "website": "www.cryptolead-inc.com", "imposter": false, "copycat": false}, {"id": 11225, "name": "Cryptogaurantee", "short_description": "Based on our experience and/or the warnings of official regulatory bodies, this company, and/or some of its practices, were flagged as a scam/fraud.", "review": "", "fca_link": "https://www.fca.org.uk/news/warnings/cryptogaurantee", "logo": "", "screenshot": "", "created_at": "2023-03-29T11:00:00.000000Z", "updated_at": "2023-03-29T11:00:00.000000Z", "website": "www.cryptogaurantee.com", "imposter": false, "copycat": false}, {"id": 11226, "name": "Forex Ltd Zenultra", "short_description": "Based on our experience and/or the warnings of official regulatory bodies, this company, and/or some of its practices, were flagged as a scam/fraud.", "review": "", "fca_link": "https://www.fca.org.uk/news/warnings/zenultra-forex-ltd", "logo": "", "screenshot": "", "created_at": "2023-03-29T11:00:00.000000Z", "updated_at": "2023-03-29T11:00:00.000000Z", "website": "www.zenultrafxltd.com", "imposter": false, "copycat": false}, {"id": 11227, "name": "Fast Forex Lab Trade", "short_description": "Based on our experience and/or the warnings of official regulatory bodies, this company, and/or some of its practices, were flagged as a scam/fraud.", "review": "", "fca_link": "https://www.fca.org.uk/news/warnings/fast-forex-trade-lab", "logo": "", "screenshot": "", "created_at": "2023-03-29T11:00:00.000000Z", "updated_at": "2023-03-29T11:00:00.000000Z", "website": "www.fastforextradelab.com", "imposter": false, "copycat": false}, {"id": 11228, "name": "Bridge Capital Trust Uk", "short_description": "Based on our experience and/or the warnings of official regulatory bodies, this company, and/or some of its practices, were flagged as a scam/fraud.", "review": "", "fca_link": "https://www.fca.org.uk/news/warnings/bridge-trust-capital-uk", "logo": "", "screenshot": "", "created_at": "2023-03-29T11:00:00.000000Z", "updated_at": "2023-03-29T11:00:00.000000Z", "website": "www.bridgetrustcap.org", "imposter": false, "copycat": false}, {"id": 11229, "name": "Active4x", "short_description": "Based on our experience and/or the warnings of official regulatory bodies, this company, and/or some of its practices, were flagged as a scam/fraud.", "review": "", "fca_link": "https://www.fca.org.uk/news/warnings/active4x", "logo": "", "screenshot": "", "created_at": "2023-03-29T11:00:00.000000Z", "updated_at": "2023-03-29T11:00:00.000000Z", "website": "www.activ4x.com", "imposter": false, "copycat": false}], "first_page_url": "https://api.payback-ltd.com/api/blacklist?page=1", "from": 1276, "last_page": 486, "last_page_url": "https://api.payback-ltd.com/api/blacklist?page=486", "links": [{"url": "https://api.payback-ltd.com/api/blacklist?page=51", "label": "&laquo; Previous", "active": false}, {"url": "https://api.payback-ltd.com/api/blacklist?page=1", "label": "1", "active": false}, {"url": "https://api.payback-ltd.com/api/blacklist?page=2", "label": "2", "active": false}, {"url": null, "label": "...", "active": false}, {"url": "https://api.payback-ltd.com/api/blacklist?page=49", "label": "49", "active": false}, {"url": "https://api.payback-ltd.com/api/blacklist?page=50", "label": "50", "active": false}, {"url": "https://api.payback-ltd.com/api/blacklist?page=51", "label": "51", "active": false}, {"url": "https://api.payback-ltd.com/api/blacklist?page=52", "label": "52", "active": true}, {"url": "https://api.payback-ltd.com/api/blacklist?page=53", "label": "53", "active": false}, {"url": "https://api.payback-ltd.com/api/blacklist?page=54", "label": "54", "active": false}, {"url": "https://api.payback-ltd.com/api/blacklist?page=55", "label": "55", "active": false}, {"url": null, "label": "...", "active": false}, {"url": "https://api.payback-ltd.com/api/blacklist?page=485", "label": "485", "active": false}, {"url": "https://api.payback-ltd.com/api/blacklist?page=486", "label": "486", "active": false}, {"url": "https://api.payback-ltd.com/api/blacklist?page=53", "label": "Next &raquo;", "active": false}], "next_page_url": "https://api.payback-ltd.com/api/blacklist?page=53", "path": "https://api.payback-ltd.com/api/blacklist", "per_page": 25, "prev_page_url": "https://api.payback-ltd.com/api/blacklist?page=51", "to": 1300, "total": 12140}