{
  "current_page": 1,
  "data": [
    {
      "id": 203,
      "name": "Tiger Trade",
      "short_description": "Based on our experience and/or the warnings of official regulatory bodies, this company, and/or some of its practices, were flagged as a scam/fraud.",
      "review": null,
      "fca_link": null,
      "logo": null,
      "screenshot": null,
      "created_at": null,
      "updated_at": null,
      "website": "www.tiger.trade",
      "imposter": false,
      "copycat": false
    },
    {
      "id": 8805,
      "name": "Finance Pro X",
      "short_description": "Based on our experience and/or the warnings of official regulatory bodies, this company, and/or some of its practices, were flagged as a scam/fraud.",
      "review": null,
      "fca_link": null,
      "logo": "https:\\/\\/media.payback-ltd.com\\/images\\/2023\\/08\\/22\\/image1-285.png",
      "screenshot": null,
      "created_at": null,
      "updated_at": null,
      "website": "proxfinance.com",
      "imposter": false,
      "copycat": false
    },
    {
      "id": 8807,
      "name": "Profit Trade",
      "short_description": "Based on our experience and/or the warnings of official regulatory bodies, this company, and/or some of its practices, were flagged as a scam/fraud.",
      "review": null,
      "fca_link": null,
      "logo": "https://media.payback-ltd.com/images/2023/08/22/image1-286.png",
      "screenshot": null,
      "created_at": null,
      "updated_at": null,
      "website": "profit-trade.com",
      "imposter": false,
      "copycat": false
    },
    {
      "id": 8815,
      "name": "Investing Richmond",
      "short_description": "Based on our experience and/or the warnings of official regulatory bodies, this company, and/or some of its practices, were flagged as a scam/fraud.",
      "review": null,
      "fca_link": null,
      "logo": "https://media.payback-ltd.com/images/2023/08/22/image1-294.png",
      "screenshot": null,
      "created_at": null,
      "updated_at": null,
      "website": "www.richmondinvesting.com",
      "imposter": false,
      "copycat": false
    },
    {
      "id": 8824,
      "name": "Investments Serex",
      "short_description": "Based on our experience and/or the warnings of official regulatory bodies, this company, and/or some of its practices, were flagged as a scam/fraud.",
      "review": null,
      "fca_link": null,
      "logo": "https://media.payback-ltd.com/images/2023/08/22/image1-303.png",
      "screenshot": null,
      "created_at": null,
      "updated_at": null,
      "website": "www.serexinvestments.com",
      "imposter": false,
      "copycat": false
    },
    {
      "id": 8837,
      "name": "Stoxmarket",
      "short_description": "Based on our experience and/or the warnings of official regulatory bodies, this company, and/or some of its practices, were flagged as a scam/fraud.",
      "review": null,
      "fca_link": null,
      "logo": "https://media.payback-ltd.com/images/2023/08/22/image1-316.png",
      "screenshot": null,
      "created_at": null,
      "updated_at": null,
      "website": "www.stoxmarket.com",
      "imposter": false,
      "copycat": false
    },
    {
      "id": 8840,
      "name": "Swiftcfd",
      "short_description": "Based on our experience and/or the warnings of official regulatory bodies, this company, and/or some of its practices, were flagged as a scam/fraud.",
      "review": null,
      "fca_link": null,
      "logo": "https://media.payback-ltd.com/images/2023/08/22/image1-319.png",
      "screenshot": null,
      "created_at": null,
      "updated_at": null,
      "website": "www.swiftcfd.com",
      "imposter": false,
      "copycat": false
    },
    {
      "id": 8866,
      "name": "Trade Wfx",
      "short_description": "Based on our experience and/or the warnings of official regulatory bodies, this company, and/or some of its practices, were flagged as a scam/fraud.",
      "review": null,
      "fca_link": null,
      "logo": "https://media.payback-ltd.com/images/2023/08/22/image1-112.jpg",
      "screenshot": null,
      "created_at": null,
      "updated_at": null,
      "website": "www.tradewfx.com",
      "imposter": false,
      "copycat": false
    },
    {
      "id": 8868,
      "name": "Trade12",
      "short_description": "Based on our experience and/or the warnings of official regulatory bodies, this company, and/or some of its practices, were flagged as a scam/fraud.",
      "review": null,
      "fca_link": null,
      "logo": "https://media.payback-ltd.com/images/2023/08/22/image1-113.jpg",
      "screenshot": null,
      "created_at": null,
      "updated_at": null,
      "website": "www.trade12.com",
      "imposter": false,
      "copycat": false
    },
    {
      "id": 8893,
      "name": "Utrade",
      "short_description": "Based on our experience and/or the warnings of official regulatory bodies, this company, and/or some of its practices, were flagged as a scam/fraud.",
      "review": null,
      "fca_link": null,
      "logo": "https://media.payback-ltd.com/images/2023/08/22/image1-123.jpg",
      "screenshot": null,
      "created_at": null,
      "updated_at": null,
      "website": "www.utrade.online",
      "imposter": false,
      "copycat": false
    },
    {
      "id": 8899,
      "name": "Wigmarkets",
      "short_description": "Based on our experience and/or the warnings of official regulatory bodies, this company, and/or some of its practices, were flagged as a scam/fraud.",
      "review": null,
      "fca_link": null,
      "logo": "https://media.payback-ltd.com/images/2023/08/22/image1-126.jpg",
      "screenshot": null,
      "created_at": null,
      "updated_at": null,
      "website": "www.wigmarkets.com",
      "imposter": false,
      "copycat": false
    },
    {
      "id": 8924,
      "name": "Plus500",
      "short_description": "Based on our experience and/or the warnings of official regulatory bodies, this company, and/or some of its practices, were flagged as a scam/fraud.",
      "review": null,
      "fca_link": null,
      "logo": "https://media.payback-ltd.com/images/2023/08/22/image1-376.md.png",
      "screenshot": null,
      "created_at": null,
      "updated_at": null,
      "website": "www.fxplus500.co.uk",
      "imposter": false,
      "copycat": false
    },
    {
      "id": 8931,
      "name": "Btc First Fx",
      "short_description": "Based on our experience and/or the warnings of official regulatory bodies, this company, and/or some of its practices, were flagged as a scam/fraud.",
      "review": null,
      "fca_link": null,
      "logo": "https://media.payback-ltd.com/images/2023/08/22/image1-381.png",
      "screenshot": null,
      "created_at": null,
      "updated_at": null,
      "website": "www.firstbtcfx.com",
      "imposter": false,
      "copycat": false
    },
    {
      "id": 8954,
      "name": "Kodimax",
      "short_description": "Based on our experience and/or the warnings of official regulatory bodies, this company, and/or some of its practices, were flagged as a scam/fraud.",
      "review": null,
      "fca_link": null,
      "logo": "https://media.payback-ltd.com/images/2023/08/22/image1-8e3d6ce29b4851a42.png",
      "screenshot": null,
      "created_at": null,
      "updated_at": null,
      "website": "www.kodimax.net",
      "imposter": false,
      "copycat": false
    },
    {
      "id": 8961,
      "name": "Omegafx",
      "short_description": "Based on our experience and/or the warnings of official regulatory bodies, this company, and/or some of its practices, were flagged as a scam/fraud.",
      "review": null,
      "fca_link": null,
      "logo": "https://media.payback-ltd.com/images/2023/08/22/image1-15319ba59891d982bd.png",
      "screenshot": null,
      "created_at": null,
      "updated_at": null,
      "website": "www.omegafx.io",
      "imposter": false,
      "copycat": false
    },
    {
      "id": 8964,
      "name": "Markets Selected",
      "short_description": "Based on our experience and/or the warnings of official regulatory bodies, this company, and/or some of its practices, were flagged as a scam/fraud.",
      "review": null,
      "fca_link": null,
      "logo": "https://media.payback-ltd.com/images/2023/08/22/image1-18.png",
      "screenshot": null,
      "created_at": null,
      "updated_at": null,
      "website": "www.selectedmarkets.com",
      "imposter": false,
      "copycat": false
    },
    {
      "id": 8994,
      "name": "Epic Trading",
      "short_description": "Based on our experience and/or the warnings of official regulatory bodies, this company, and/or some of its practices, were flagged as a scam/fraud.",
      "review": null,
      "fca_link": null,
      "logo": "https://media.payback-ltd.com/images/2023/08/22/image1-50.png",
      "screenshot": null,
      "created_at": null,
      "updated_at": null,
      "website": "www.tradingepic.com",
      "imposter": false,
      "copycat": false
    },
    {
      "id": 8995,
      "name": "Cfd Premium",
      "short_description": "Based on our experience and/or the warnings of official regulatory bodies, this company, and/or some of its practices, were flagged as a scam/fraud.",
      "review": null,
      "fca_link": null,
      "logo": "https://media.payback-ltd.com/images/2023/08/22/image1-51c217962258f66766.png",
      "screenshot": null,
      "created_at": null,
      "updated_at": null,
      "website": "www.cfdpremium.com",
      "imposter": false,
      "copycat": false
    },
    {
      "id": 8998,
      "name": "Capital Eu",
      "short_description": "Based on our experience and/or the warnings of official regulatory bodies, this company, and/or some of its practices, were flagged as a scam/fraud.",
      "review": null,
      "fca_link": null,
      "logo": "https://media.payback-ltd.com/images/2023/08/22/image1-52.png",
      "screenshot": null,
      "created_at": null,
      "updated_at": null,
      "website": "www.eu-capital.co",
      "imposter": false,
      "copycat": false
    },
    {
      "id": 9012,
      "name": "Titantrade",
      "short_description": "Based on our experience and/or the warnings of official regulatory bodies, this company, and/or some of its practices, were flagged as a scam/fraud.",
      "review": null,
      "fca_link": null,
      "logo": "https://media.payback-ltd.com/images/2023/08/22/image1-8c8c1a31125b8a3ae.jpg",
      "screenshot": null,
      "created_at": null,
      "updated_at": null,
      "website": "www.titantrade.com",
      "imposter": false,
      "copycat": false
    },
    {
      "id": 9015,
      "name": "Trade-24",
      "short_description": "Based on our experience and/or the warnings of official regulatory bodies, this company, and/or some of its practices, were flagged as a scam/fraud.",
      "review": null,
      "fca_link": null,
      "logo": "https://media.payback-ltd.com/images/2023/08/22/image1-6190726b764e42ccde.png",
      "screenshot": null,
      "created_at": null,
      "updated_at": null,
      "website": "www.trade-24.com",
      "imposter": false,
      "copycat": false
    },
    {
      "id": 9017,
      "name": "Capitals Tradepro",
      "short_description": "Based on our experience and/or the warnings of official regulatory bodies, this company, and/or some of its practices, were flagged as a scam/fraud.",
      "review": null,
      "fca_link": null,
      "logo": "https://media.payback-ltd.com/images/2023/08/22/image1-1045a3612f219f24fd.jpg",
      "screenshot": null,
      "created_at": null,
      "updated_at": null,
      "website": "www.tradeprocapitals.com",
      "imposter": false,
      "copycat": false
    },
    {
      "id": 9033,
      "name": "Gsi Markets",
      "short_description": "Based on our experience and/or the warnings of official regulatory bodies, this company, and/or some of its practices, were flagged as a scam/fraud.",
      "review": null,
      "fca_link": null,
      "logo": "https://media.payback-ltd.com/images/2023/08/22/image1-205adc44e99b7fc239.jpg",
      "screenshot": null,
      "created_at": null,
      "updated_at": null,
      "website": "www.gsimarkets.com",
      "imposter": false,
      "copycat": false
    },
    {
      "id": 9067,
      "name": "Toptradepro",
      "short_description": "Based on our experience and/or the warnings of official regulatory bodies, this company, and/or some of its practices, were flagged as a scam/fraud.",
      "review": null,
      "fca_link": null,
      "logo": "https://media.payback-ltd.com/images/2023/08/22/image1-269cfd65e98e1c7d73.jpg",
      "screenshot": null,
      "created_at": null,
      "updated_at": null,
      "website": "www.toptradepro.com",
      "imposter": false,
      "copycat": false
    },
    {
      "id": 9068,
      "name": "Tradospot",
      "short_description": "Based on our experience and/or the warnings of official regulatory bodies, this company, and/or some of its practices, were flagged as a scam/fraud.",
      "review": null,
      "fca_link": null,
      "logo": "https://media.payback-ltd.com/images/2023/08/22/image1-98.png",
      "screenshot": null,
      "created_at": null,
      "updated_at": null,
      "website": "www.tradospot.com",
      "imposter": false,
      "copycat": false
    }
  ],
  "first_page_url": "https://api.payback-ltd.com/api/blacklist?page=1",
  "from": 1,
  "last_page": 486,
  "last_page_url": "https://api.payback-ltd.com/api/blacklist?page=486",
  "links": [
    { "url": null, "label": "&laquo; Previous", "active": false },
    {
      "url": "https://api.payback-ltd.com/api/blacklist?page=1",
      "label": "1",
      "active": true
    },
    {
      "url": "https://api.payback-ltd.com/api/blacklist?page=2",
      "label": "2",
      "active": false
    },
    {
      "url": "https://api.payback-ltd.com/api/blacklist?page=3",
      "label": "3",
      "active": false
    },
    {
      "url": "https://api.payback-ltd.com/api/blacklist?page=4",
      "label": "4",
      "active": false
    },
    {
      "url": "https://api.payback-ltd.com/api/blacklist?page=5",
      "label": "5",
      "active": false
    },
    {
      "url": "https://api.payback-ltd.com/api/blacklist?page=6",
      "label": "6",
      "active": false
    },
    {
      "url": "https://api.payback-ltd.com/api/blacklist?page=7",
      "label": "7",
      "active": false
    },
    {
      "url": "https://api.payback-ltd.com/api/blacklist?page=8",
      "label": "8",
      "active": false
    },
    {
      "url": "https://api.payback-ltd.com/api/blacklist?page=9",
      "label": "9",
      "active": false
    },
    {
      "url": "https://api.payback-ltd.com/api/blacklist?page=10",
      "label": "10",
      "active": false
    },
    { "url": null, "label": "...", "active": false },
    {
      "url": "https://api.payback-ltd.com/api/blacklist?page=485",
      "label": "485",
      "active": false
    },
    {
      "url": "https://api.payback-ltd.com/api/blacklist?page=486",
      "label": "486",
      "active": false
    },
    {
      "url": "https://api.payback-ltd.com/api/blacklist?page=2",
      "label": "Next &raquo;",
      "active": false
    }
  ],
  "next_page_url": "https://api.payback-ltd.com/api/blacklist?page=2",
  "path": "https://api.payback-ltd.com/api/blacklist",
  "per_page": 25,
  "prev_page_url": null,
  "to": 25,
  "total": 12140
}
