{"current_page": 48, "data": [{"id": 11105, "name": "Financial Limited Services Tsh", "short_description": "Based on our experience and/or the warnings of official regulatory bodies, this company, and/or some of its practices, were flagged as a scam/fraud.", "review": "", "fca_link": "https://www.fca.org.uk/news/warnings/tsh-financial-services-limited-clone-fca-authorised-appointed-representative", "logo": "", "screenshot": "", "created_at": "2023-04-20T11:00:00.000000Z", "updated_at": "2023-04-20T11:00:00.000000Z", "website": "www.tshtrades.org/, https://thomasspence.info/, LinkedIn: https://www.linkedin.com/company/tsh-financial-services-limited/, Facebook: https://m.facebook.com/TSH-Financial-Services-Limited-732426897503502/, Instagram: https://instagram.com/tshfinancials?igshid=YmMyMTA2M2Y=", "imposter": false, "copycat": false}, {"id": 11106, "name": "Legacytrade", "short_description": "Based on our experience and/or the warnings of official regulatory bodies, this company, and/or some of its practices, were flagged as a scam/fraud.", "review": "", "fca_link": "https://www.fca.org.uk/news/warnings/legacytradetop", "logo": "", "screenshot": "", "created_at": "2023-04-20T11:00:00.000000Z", "updated_at": "2023-04-20T11:00:00.000000Z", "website": "www.legacytrade.top", "imposter": false, "copycat": false}, {"id": 11107, "name": "Inventabio", "short_description": "Based on our experience and/or the warnings of official regulatory bodies, this company, and/or some of its practices, were flagged as a scam/fraud.", "review": "", "fca_link": "https://www.fca.org.uk/news/warnings/inventabio", "logo": "", "screenshot": "", "created_at": "2023-04-20T11:00:00.000000Z", "updated_at": "2023-04-20T11:00:00.000000Z", "website": "https://inventabio.org", "imposter": false, "copycat": false}, {"id": 11108, "name": "Credit Hospital The", "short_description": "Based on our experience and/or the warnings of official regulatory bodies, this company, and/or some of its practices, were flagged as a scam/fraud.", "review": "", "fca_link": "https://www.fca.org.uk/news/warnings/credit-hospital", "logo": "", "screenshot": "", "created_at": "2023-04-20T11:00:00.000000Z", "updated_at": "2023-04-20T11:00:00.000000Z", "website": "https://thecredithospital.co.uk", "imposter": false, "copycat": false}, {"id": 11109, "name": "Finance Palmer", "short_description": "Based on our experience and/or the warnings of official regulatory bodies, this company, and/or some of its practices, were flagged as a scam/fraud.", "review": "", "fca_link": "https://www.fca.org.uk/news/warnings/palmer-finance", "logo": "", "screenshot": "", "created_at": "2023-04-20T11:00:00.000000Z", "updated_at": "2023-04-20T11:00:00.000000Z", "website": "palmerfinancecompany.com.", "imposter": false, "copycat": false}, {"id": 11110, "name": "Aleph Finance Group Plc", "short_description": "Based on our experience and/or the warnings of official regulatory bodies, this company, and/or some of its practices, were flagged as a scam/fraud.", "review": "", "fca_link": "https://www.fca.org.uk/news/warnings/aleph-finance-group-plc-clone-fca-authorised-firm", "logo": "", "screenshot": "", "created_at": "2023-04-20T11:00:00.000000Z", "updated_at": "2023-04-20T11:00:00.000000Z", "website": "http://www.aleph.finance", "imposter": false, "copycat": false}, {"id": 11111, "name": "hrstrustfxoption", "short_description": "Based on our experience and/or the warnings of official regulatory bodies, this company, and/or some of its practices, were flagged as a scam/fraud.", "review": "", "fca_link": "https://www.fca.org.uk/news/warnings/24hrstrustfxoption", "logo": "", "screenshot": "", "created_at": "2023-04-19T11:00:00.000000Z", "updated_at": "2023-04-19T11:00:00.000000Z", "website": "www.24hrstrustfxoption.com", "imposter": false, "copycat": false}, {"id": 11112, "name": "Co Hampden Plc", "short_description": "Based on our experience and/or the warnings of official regulatory bodies, this company, and/or some of its practices, were flagged as a scam/fraud.", "review": "", "fca_link": "https://www.fca.org.uk/news/warnings/hampden-co-plc-clone-fca-authorised-firm", "logo": "", "screenshot": "", "created_at": "2023-04-19T11:00:00.000000Z", "updated_at": "2023-04-19T11:00:00.000000Z", "website": "https://hampdenandcobk.com/", "imposter": false, "copycat": false}, {"id": 11113, "name": "Capital Cowen Group", "short_description": "Based on our experience and/or the warnings of official regulatory bodies, this company, and/or some of its practices, were flagged as a scam/fraud.", "review": "", "fca_link": "https://www.fca.org.uk/news/warnings/cowen-capital-group", "logo": "", "screenshot": "", "created_at": "2023-04-19T11:00:00.000000Z", "updated_at": "2023-05-09T11:00:00.000000Z", "website": "www.cowencapitalgroup.com, www.cowencapitalgrowth.com, www.cowencapital.com, www.cowencapitalgrp.com", "imposter": false, "copycat": false}, {"id": 11114, "name": "Fx Rally", "short_description": "Based on our experience and/or the warnings of official regulatory bodies, this company, and/or some of its practices, were flagged as a scam/fraud.", "review": "", "fca_link": "https://www.fca.org.uk/news/warnings/fx-rally", "logo": "", "screenshot": "", "created_at": "2023-04-19T11:00:00.000000Z", "updated_at": "2023-04-19T11:00:00.000000Z", "website": "https://fxrally.co/", "imposter": false, "copycat": false}, {"id": 11115, "name": "Limited Purchasing Uk Vehicle", "short_description": "Based on our experience and/or the warnings of official regulatory bodies, this company, and/or some of its practices, were flagged as a scam/fraud.", "review": "", "fca_link": "https://www.fca.org.uk/news/warnings/vehicle-purchasing-uk-limited-https-wwwvehiclepurchasingcouk-clone-fca-authorised-firm", "logo": "", "screenshot": "", "created_at": "2023-04-18T11:00:00.000000Z", "updated_at": "2023-04-18T11:00:00.000000Z", "website": "https://www.vehiclepurchasing.co.uk", "imposter": false, "copycat": false}, {"id": 11116, "name": "Expertfxstrade Forex", "short_description": "Based on our experience and/or the warnings of official regulatory bodies, this company, and/or some of its practices, were flagged as a scam/fraud.", "review": "", "fca_link": "https://www.fca.org.uk/news/warnings/forex-expertfxstrade", "logo": "", "screenshot": "", "created_at": "2023-04-17T11:00:00.000000Z", "updated_at": "2023-04-17T11:00:00.000000Z", "website": "www.forexexpertfxstrade.com", "imposter": false, "copycat": false}, {"id": 11117, "name": "Forexfgs", "short_description": "Based on our experience and/or the warnings of official regulatory bodies, this company, and/or some of its practices, were flagged as a scam/fraud.", "review": "", "fca_link": "https://www.fca.org.uk/news/warnings/forexfgs", "logo": "", "screenshot": "", "created_at": "2023-04-17T11:00:00.000000Z", "updated_at": "2023-04-17T11:00:00.000000Z", "website": "www.forexfgs.com", "imposter": false, "copycat": false}, {"id": 11118, "name": "Arktecmarkets", "short_description": "Based on our experience and/or the warnings of official regulatory bodies, this company, and/or some of its practices, were flagged as a scam/fraud.", "review": "", "fca_link": "https://www.fca.org.uk/news/warnings/arktecmarkets", "logo": "", "screenshot": "", "created_at": "2023-04-17T11:00:00.000000Z", "updated_at": "2023-04-17T11:00:00.000000Z", "website": "www.arktecmarkets.com", "imposter": false, "copycat": false}, {"id": 11119, "name": "Ftx Fx Limited Titan", "short_description": "Based on our experience and/or the warnings of official regulatory bodies, this company, and/or some of its practices, were flagged as a scam/fraud.", "review": "", "fca_link": "https://www.fca.org.uk/news/warnings/titan-fx-limited-titan-ftx", "logo": "", "screenshot": "", "created_at": "2023-04-17T11:00:00.000000Z", "updated_at": "2023-04-17T11:00:00.000000Z", "website": "https://titanftx.net/", "imposter": false, "copycat": false}, {"id": 11120, "name": "Assets Genius", "short_description": "Based on our experience and/or the warnings of official regulatory bodies, this company, and/or some of its practices, were flagged as a scam/fraud.", "review": "", "fca_link": "https://www.fca.org.uk/news/warnings/assets-genius", "logo": "", "screenshot": "", "created_at": "2023-04-14T11:00:00.000000Z", "updated_at": "2023-04-14T11:00:00.000000Z", "website": "www.assetsgeniusvip.com, www.assets-geniusvip.com", "imposter": false, "copycat": false}, {"id": 11121, "name": "Acent Signal", "short_description": "Based on our experience and/or the warnings of official regulatory bodies, this company, and/or some of its practices, were flagged as a scam/fraud.", "review": "", "fca_link": "https://www.fca.org.uk/news/warnings/acent-signal", "logo": "", "screenshot": "", "created_at": "2023-04-14T11:00:00.000000Z", "updated_at": "2023-04-14T11:00:00.000000Z", "website": "https://acentsignal.live", "imposter": false, "copycat": false}, {"id": 11122, "name": " Fx Saxo", "short_description": "Based on our experience and/or the warnings of official regulatory bodies, this company, and/or some of its practices, were flagged as a scam/fraud.", "review": "", "fca_link": "https://www.fca.org.uk/news/warnings/saxo-24-fx", "logo": "", "screenshot": "", "created_at": "2023-04-14T11:00:00.000000Z", "updated_at": "2023-04-14T11:00:00.000000Z", "website": "www.saxo-24fx.com", "imposter": false, "copycat": false}, {"id": 11123, "name": "Diamond Inc Management Wealth", "short_description": "Based on our experience and/or the warnings of official regulatory bodies, this company, and/or some of its practices, were flagged as a scam/fraud.", "review": "", "fca_link": "https://www.fca.org.uk/news/warnings/diamond-wealth-management-inc", "logo": "", "screenshot": "", "created_at": "2023-04-14T11:00:00.000000Z", "updated_at": "2023-05-25T11:00:00.000000Z", "website": "www.diamondwealthmgtinc.com", "imposter": false, "copycat": false}, {"id": 11124, "name": " Bawerk Bti Investment Trading", "short_description": "Based on our experience and/or the warnings of official regulatory bodies, this company, and/or some of its practices, were flagged as a scam/fraud.", "review": "", "fca_link": "https://www.fca.org.uk/news/warnings/bti-bawerk-trading-investment", "logo": "", "screenshot": "", "created_at": "2023-04-14T11:00:00.000000Z", "updated_at": "2023-05-18T11:00:00.000000Z", "website": "www.bti-ic.com, www.bti-ic.net", "imposter": false, "copycat": false}, {"id": 11125, "name": "One Trade Zero", "short_description": "Based on our experience and/or the warnings of official regulatory bodies, this company, and/or some of its practices, were flagged as a scam/fraud.", "review": "", "fca_link": "https://www.fca.org.uk/news/warnings/one-zero-trade", "logo": "", "screenshot": "", "created_at": "2023-04-14T11:00:00.000000Z", "updated_at": "2023-04-14T11:00:00.000000Z", "website": "https://onezerotrade.com/", "imposter": false, "copycat": false}, {"id": 11126, "name": "Advisors Gradepropips Grandpropips", "short_description": "Based on our experience and/or the warnings of official regulatory bodies, this company, and/or some of its practices, were flagged as a scam/fraud.", "review": "", "fca_link": "https://www.fca.org.uk/news/warnings/grandpropips-advisors-gradepropipsnet", "logo": "", "screenshot": "", "created_at": "2023-04-14T11:00:00.000000Z", "updated_at": "2023-04-14T11:00:00.000000Z", "website": "www.gradepropips.net", "imposter": false, "copycat": false}, {"id": 11127, "name": "Mf-Securities", "short_description": "Based on our experience and/or the warnings of official regulatory bodies, this company, and/or some of its practices, were flagged as a scam/fraud.", "review": "", "fca_link": "https://www.fca.org.uk/news/warnings/mf-securities", "logo": "", "screenshot": "", "created_at": "2023-04-14T11:00:00.000000Z", "updated_at": "2023-04-14T11:00:00.000000Z", "website": "www.mf-securities.com", "imposter": false, "copycat": false}, {"id": 11128, "name": "Limited Primeware Primewaretrade Primewaretrades Trades Trading", "short_description": "Based on our experience and/or the warnings of official regulatory bodies, this company, and/or some of its practices, were flagged as a scam/fraud.", "review": "", "fca_link": "https://www.fca.org.uk/news/warnings/primewaretrades-primeware-trades-primeware-trading-limited-primewaretradecom", "logo": "", "screenshot": "", "created_at": "2023-04-14T11:00:00.000000Z", "updated_at": "2023-04-14T11:00:00.000000Z", "website": "www.primewaretrade.com", "imposter": false, "copycat": false}, {"id": 11129, "name": "Finance Onetech", "short_description": "Based on our experience and/or the warnings of official regulatory bodies, this company, and/or some of its practices, were flagged as a scam/fraud.", "review": "", "fca_link": "https://www.fca.org.uk/news/warnings/onetech-finance", "logo": "", "screenshot": "", "created_at": "2023-04-13T11:00:00.000000Z", "updated_at": "2023-04-13T11:00:00.000000Z", "website": "www.onetechfinance.com", "imposter": false, "copycat": false}], "first_page_url": "https://api.payback-ltd.com/api/blacklist?page=1", "from": 1176, "last_page": 486, "last_page_url": "https://api.payback-ltd.com/api/blacklist?page=486", "links": [{"url": "https://api.payback-ltd.com/api/blacklist?page=47", "label": "&laquo; Previous", "active": false}, {"url": "https://api.payback-ltd.com/api/blacklist?page=1", "label": "1", "active": false}, {"url": "https://api.payback-ltd.com/api/blacklist?page=2", "label": "2", "active": false}, {"url": null, "label": "...", "active": false}, {"url": "https://api.payback-ltd.com/api/blacklist?page=45", "label": "45", "active": false}, {"url": "https://api.payback-ltd.com/api/blacklist?page=46", "label": "46", "active": false}, {"url": "https://api.payback-ltd.com/api/blacklist?page=47", "label": "47", "active": false}, {"url": "https://api.payback-ltd.com/api/blacklist?page=48", "label": "48", "active": true}, {"url": "https://api.payback-ltd.com/api/blacklist?page=49", "label": "49", "active": false}, {"url": "https://api.payback-ltd.com/api/blacklist?page=50", "label": "50", "active": false}, {"url": "https://api.payback-ltd.com/api/blacklist?page=51", "label": "51", "active": false}, {"url": null, "label": "...", "active": false}, {"url": "https://api.payback-ltd.com/api/blacklist?page=485", "label": "485", "active": false}, {"url": "https://api.payback-ltd.com/api/blacklist?page=486", "label": "486", "active": false}, {"url": "https://api.payback-ltd.com/api/blacklist?page=49", "label": "Next &raquo;", "active": false}], "next_page_url": "https://api.payback-ltd.com/api/blacklist?page=49", "path": "https://api.payback-ltd.com/api/blacklist", "per_page": 25, "prev_page_url": "https://api.payback-ltd.com/api/blacklist?page=47", "to": 1200, "total": 12140}