{"current_page": 44, "data": [{"id": 11005, "name": "Reclaim Right", "short_description": "Based on our experience and/or the warnings of official regulatory bodies, this company, and/or some of its practices, were flagged as a scam/fraud.", "review": "", "fca_link": "https://www.fca.org.uk/news/warnings/reclaim-right", "logo": "", "screenshot": "", "created_at": "2023-05-18T11:00:00.000000Z", "updated_at": "2023-05-18T11:00:00.000000Z", "website": "https://reclaimright.com/", "imposter": false, "copycat": false}, {"id": 11006, "name": "Cryptolecs", "short_description": "Based on our experience and/or the warnings of official regulatory bodies, this company, and/or some of its practices, were flagged as a scam/fraud.", "review": "", "fca_link": "https://www.fca.org.uk/news/warnings/cryptolecs", "logo": "", "screenshot": "", "created_at": "2023-05-17T11:00:00.000000Z", "updated_at": "2023-05-17T11:00:00.000000Z", "website": "https://cryptolecs.com/", "imposter": false, "copycat": false}, {"id": 11007, "name": "Robertson Rx", "short_description": "Based on our experience and/or the warnings of official regulatory bodies, this company, and/or some of its practices, were flagged as a scam/fraud.", "review": "", "fca_link": "https://www.fca.org.uk/news/warnings/robertson-rx", "logo": "", "screenshot": "", "created_at": "2023-05-17T11:00:00.000000Z", "updated_at": "2023-05-18T11:00:00.000000Z", "website": "https://www.robertsonrx.com/", "imposter": false, "copycat": false}, {"id": 11008, "name": "Capital Fx Mint", "short_description": "Based on our experience and/or the warnings of official regulatory bodies, this company, and/or some of its practices, were flagged as a scam/fraud.", "review": "", "fca_link": "https://www.fca.org.uk/news/warnings/mint-capital-fx", "logo": "", "screenshot": "", "created_at": "2023-05-17T11:00:00.000000Z", "updated_at": "2023-05-17T11:00:00.000000Z", "website": "https://mintcapitalfx.site", "imposter": false, "copycat": false}, {"id": 11009, "name": "Claimlostfund", "short_description": "Based on our experience and/or the warnings of official regulatory bodies, this company, and/or some of its practices, were flagged as a scam/fraud.", "review": "", "fca_link": "https://www.fca.org.uk/news/warnings/claimlostfund-claimlostfundcom", "logo": "", "screenshot": "", "created_at": "2023-05-17T11:00:00.000000Z", "updated_at": "2023-05-17T11:00:00.000000Z", "website": "https://www.claimlostfund.com/", "imposter": false, "copycat": false}, {"id": 11010, "name": "Apocalypse Wealth", "short_description": "Based on our experience and/or the warnings of official regulatory bodies, this company, and/or some of its practices, were flagged as a scam/fraud.", "review": "", "fca_link": "https://www.fca.org.uk/news/warnings/apocalypse-wealth-clone-fca-authorised-firm", "logo": "", "screenshot": "", "created_at": "2023-05-17T11:00:00.000000Z", "updated_at": "2023-05-17T11:00:00.000000Z", "website": "https://apocalypse.buzz/index.html", "imposter": false, "copycat": false}, {"id": 11011, "name": "Al-Pha Bank", "short_description": "Based on our experience and/or the warnings of official regulatory bodies, this company, and/or some of its practices, were flagged as a scam/fraud.", "review": "", "fca_link": "https://www.fca.org.uk/news/warnings/al-pha-bank-clone-fca-authorised-firm", "logo": "", "screenshot": "", "created_at": "2023-05-17T11:00:00.000000Z", "updated_at": "2023-06-02T11:00:00.000000Z", "website": "https://al-phabank.com", "imposter": false, "copycat": false}, {"id": 11012, "name": "Pro Tradesalgo", "short_description": "Based on our experience and/or the warnings of official regulatory bodies, this company, and/or some of its practices, were flagged as a scam/fraud.", "review": "", "fca_link": "https://www.fca.org.uk/news/warnings/tradesalgo-pro", "logo": "", "screenshot": "", "created_at": "2023-05-16T11:00:00.000000Z", "updated_at": "2023-05-16T11:00:00.000000Z", "website": "https://tradesalgopro.com/", "imposter": false, "copycat": false}, {"id": 11013, "name": "Teamtrustfx", "short_description": "Based on our experience and/or the warnings of official regulatory bodies, this company, and/or some of its practices, were flagged as a scam/fraud.", "review": "", "fca_link": "https://www.fca.org.uk/news/warnings/teamtrustfx", "logo": "", "screenshot": "", "created_at": "2023-05-16T11:00:00.000000Z", "updated_at": "2023-05-16T11:00:00.000000Z", "website": "www.teamtrustfx.com", "imposter": false, "copycat": false}, {"id": 11014, "name": "Forexprudent", "short_description": "Based on our experience and/or the warnings of official regulatory bodies, this company, and/or some of its practices, were flagged as a scam/fraud.", "review": "", "fca_link": "https://www.fca.org.uk/news/warnings/forexprudent", "logo": "", "screenshot": "", "created_at": "2023-05-15T11:00:00.000000Z", "updated_at": "2023-05-15T11:00:00.000000Z", "website": "https://forexprudent.com", "imposter": false, "copycat": false}, {"id": 11015, "name": "Digitalcryptotrades Ltd", "short_description": "Based on our experience and/or the warnings of official regulatory bodies, this company, and/or some of its practices, were flagged as a scam/fraud.", "review": "", "fca_link": "https://www.fca.org.uk/news/warnings/digitalcryptotrades-ltd", "logo": "", "screenshot": "", "created_at": "2023-05-15T11:00:00.000000Z", "updated_at": "2023-05-15T11:00:00.000000Z", "website": "www.digitalcryptotrades.com", "imposter": false, "copycat": false}, {"id": 11016, "name": "Global Goodfellow Llc Management", "short_description": "Based on our experience and/or the warnings of official regulatory bodies, this company, and/or some of its practices, were flagged as a scam/fraud.", "review": "", "fca_link": "https://www.fca.org.uk/news/warnings/goodfellow-global-management-llc", "logo": "", "screenshot": "", "created_at": "2023-05-15T11:00:00.000000Z", "updated_at": "2023-05-15T11:00:00.000000Z", "website": "www.goodfellowglobalmanagementllc.com", "imposter": false, "copycat": false}, {"id": 11017, "name": "Orcfx", "short_description": "Based on our experience and/or the warnings of official regulatory bodies, this company, and/or some of its practices, were flagged as a scam/fraud.", "review": "", "fca_link": "https://www.fca.org.uk/news/warnings/orcfx", "logo": "", "screenshot": "", "created_at": "2023-05-12T11:00:00.000000Z", "updated_at": "2023-05-12T11:00:00.000000Z", "website": "https://orcfx.com", "imposter": false, "copycat": false}, {"id": 11018, "name": "Bank Vott", "short_description": "Based on our experience and/or the warnings of official regulatory bodies, this company, and/or some of its practices, were flagged as a scam/fraud.", "review": "", "fca_link": "https://www.fca.org.uk/news/warnings/vott-bank", "logo": "", "screenshot": "", "created_at": "2023-05-12T11:00:00.000000Z", "updated_at": "2023-05-12T11:00:00.000000Z", "website": "https://vottbank.com", "imposter": false, "copycat": false}, {"id": 11019, "name": "Cloudfxcoin", "short_description": "Based on our experience and/or the warnings of official regulatory bodies, this company, and/or some of its practices, were flagged as a scam/fraud.", "review": "", "fca_link": "https://www.fca.org.uk/news/warnings/cloudfxcoin", "logo": "", "screenshot": "", "created_at": "2023-05-12T11:00:00.000000Z", "updated_at": "2023-05-12T11:00:00.000000Z", "website": "www.cloudfxcoin.com", "imposter": false, "copycat": false}, {"id": 11020, "name": "Dan Legg Teamfxtrading", "short_description": "Based on our experience and/or the warnings of official regulatory bodies, this company, and/or some of its practices, were flagged as a scam/fraud.", "review": "", "fca_link": "https://www.fca.org.uk/news/warnings/dan-legg-teamfxtradingcouk", "logo": "", "screenshot": "", "created_at": "2023-05-12T11:00:00.000000Z", "updated_at": "2023-05-15T11:00:00.000000Z", "website": "https://www.teamfxtrading.co.uk/", "imposter": false, "copycat": false}, {"id": 11021, "name": "topliveminingfx", "short_description": "Based on our experience and/or the warnings of official regulatory bodies, this company, and/or some of its practices, were flagged as a scam/fraud.", "review": "", "fca_link": "https://www.fca.org.uk/news/warnings/24topliveminingfx", "logo": "", "screenshot": "", "created_at": "2023-05-12T11:00:00.000000Z", "updated_at": "2023-05-12T11:00:00.000000Z", "website": "www.24topliveminingfx.online", "imposter": false, "copycat": false}, {"id": 11022, "name": " Fx Power", "short_description": "Based on our experience and/or the warnings of official regulatory bodies, this company, and/or some of its practices, were flagged as a scam/fraud.", "review": "", "fca_link": "https://www.fca.org.uk/news/warnings/power-2-fx", "logo": "", "screenshot": "", "created_at": "2023-05-12T11:00:00.000000Z", "updated_at": "2023-05-12T11:00:00.000000Z", "website": "www.power2fx.com", "imposter": false, "copycat": false}, {"id": 11023, "name": "Fogfxlt", "short_description": "Based on our experience and/or the warnings of official regulatory bodies, this company, and/or some of its practices, were flagged as a scam/fraud.", "review": "", "fca_link": "https://www.fca.org.uk/news/warnings/fogfxlttrade", "logo": "", "screenshot": "", "created_at": "2023-05-12T11:00:00.000000Z", "updated_at": "2023-05-12T11:00:00.000000Z", "website": "www.fogfxlt.trade", "imposter": false, "copycat": false}, {"id": 11024, "name": "Pns Trendfx", "short_description": "Based on our experience and/or the warnings of official regulatory bodies, this company, and/or some of its practices, were flagged as a scam/fraud.", "review": "", "fca_link": "https://www.fca.org.uk/news/warnings/trendfx-pns", "logo": "", "screenshot": "", "created_at": "2023-05-12T11:00:00.000000Z", "updated_at": "2023-05-12T11:00:00.000000Z", "website": "www.trendfxpns.com", "imposter": false, "copycat": false}, {"id": 11025, "name": "Cryptfxmining", "short_description": "Based on our experience and/or the warnings of official regulatory bodies, this company, and/or some of its practices, were flagged as a scam/fraud.", "review": "", "fca_link": "https://www.fca.org.uk/news/warnings/cryptfxmining", "logo": "", "screenshot": "", "created_at": "2023-05-12T11:00:00.000000Z", "updated_at": "2023-05-12T11:00:00.000000Z", "website": "www.crypfxminning.org", "imposter": false, "copycat": false}, {"id": 11026, "name": "Fx Live Option Top Topliveoptionfx", "short_description": "Based on our experience and/or the warnings of official regulatory bodies, this company, and/or some of its practices, were flagged as a scam/fraud.", "review": "", "fca_link": "https://www.fca.org.uk/news/warnings/top-live-option-fx-topliveoptionfxonline", "logo": "", "screenshot": "", "created_at": "2023-05-12T11:00:00.000000Z", "updated_at": "2023-05-12T11:00:00.000000Z", "website": "www.topliveoptionfx.online", "imposter": false, "copycat": false}, {"id": 11027, "name": "Crypto Exchange Mega", "short_description": "Based on our experience and/or the warnings of official regulatory bodies, this company, and/or some of its practices, were flagged as a scam/fraud.", "review": "", "fca_link": "https://www.fca.org.uk/news/warnings/mega-crypto-exchange", "logo": "", "screenshot": "", "created_at": "2023-05-12T11:00:00.000000Z", "updated_at": "2023-05-12T11:00:00.000000Z", "website": "www.megacryptoexchange.online", "imposter": false, "copycat": false}, {"id": 11028, "name": "Bowerstone Capital", "short_description": "Based on our experience and/or the warnings of official regulatory bodies, this company, and/or some of its practices, were flagged as a scam/fraud.", "review": "", "fca_link": "https://www.fca.org.uk/news/warnings/bowerstone-capital", "logo": "", "screenshot": "", "created_at": "2023-05-12T11:00:00.000000Z", "updated_at": "2023-06-02T11:00:00.000000Z", "website": "", "imposter": false, "copycat": false}, {"id": 11029, "name": "Cryptoceltic", "short_description": "Based on our experience and/or the warnings of official regulatory bodies, this company, and/or some of its practices, were flagged as a scam/fraud.", "review": "", "fca_link": "https://www.fca.org.uk/news/warnings/cryptoceltic", "logo": "", "screenshot": "", "created_at": "2023-05-11T11:00:00.000000Z", "updated_at": "2023-05-11T11:00:00.000000Z", "website": "www.cryptoceltic.com", "imposter": false, "copycat": false}], "first_page_url": "https://api.payback-ltd.com/api/blacklist?page=1", "from": 1076, "last_page": 486, "last_page_url": "https://api.payback-ltd.com/api/blacklist?page=486", "links": [{"url": "https://api.payback-ltd.com/api/blacklist?page=43", "label": "&laquo; Previous", "active": false}, {"url": "https://api.payback-ltd.com/api/blacklist?page=1", "label": "1", "active": false}, {"url": "https://api.payback-ltd.com/api/blacklist?page=2", "label": "2", "active": false}, {"url": null, "label": "...", "active": false}, {"url": "https://api.payback-ltd.com/api/blacklist?page=41", "label": "41", "active": false}, {"url": "https://api.payback-ltd.com/api/blacklist?page=42", "label": "42", "active": false}, {"url": "https://api.payback-ltd.com/api/blacklist?page=43", "label": "43", "active": false}, {"url": "https://api.payback-ltd.com/api/blacklist?page=44", "label": "44", "active": true}, {"url": "https://api.payback-ltd.com/api/blacklist?page=45", "label": "45", "active": false}, {"url": "https://api.payback-ltd.com/api/blacklist?page=46", "label": "46", "active": false}, {"url": "https://api.payback-ltd.com/api/blacklist?page=47", "label": "47", "active": false}, {"url": null, "label": "...", "active": false}, {"url": "https://api.payback-ltd.com/api/blacklist?page=485", "label": "485", "active": false}, {"url": "https://api.payback-ltd.com/api/blacklist?page=486", "label": "486", "active": false}, {"url": "https://api.payback-ltd.com/api/blacklist?page=45", "label": "Next &raquo;", "active": false}], "next_page_url": "https://api.payback-ltd.com/api/blacklist?page=45", "path": "https://api.payback-ltd.com/api/blacklist", "per_page": 25, "prev_page_url": "https://api.payback-ltd.com/api/blacklist?page=43", "to": 1100, "total": 12140}