{"current_page": 7, "data": [{"id": 152, "name": "Recoverycharter", "short_description": "Thanks to the efforts of our legal team and/or the imposters & copycats` inability to continue their disingenuous\u00a0practices, their websites were removed.", "review": "", "fca_link": null, "logo": "", "screenshot": "", "created_at": null, "updated_at": null, "website": "recoverycharter.com", "imposter": false, "copycat": true}, {"id": 153, "name": "Swanchargeback", "short_description": "Thanks to the efforts of our legal team and/or the imposters & copycats` inability to continue their disingenuous\u00a0practices, their websites were removed.", "review": "", "fca_link": null, "logo": "", "screenshot": "", "created_at": null, "updated_at": null, "website": "swanchargeback.com", "imposter": false, "copycat": true}, {"id": 154, "name": "Eliterecoveryassist", "short_description": "Thanks to the efforts of our legal team and/or the imposters & copycats` inability to continue their disingenuous\u00a0practices, their websites were removed.", "review": "", "fca_link": null, "logo": "", "screenshot": "", "created_at": null, "updated_at": null, "website": "eliterecoveryassist.com", "imposter": false, "copycat": true}, {"id": 155, "name": "Legalpayback", "short_description": "Thanks to the efforts of our legal team and/or the imposters & copycats` inability to continue their disingenuous\u00a0practices, their websites were removed.", "review": "", "fca_link": null, "logo": "", "screenshot": "", "created_at": null, "updated_at": null, "website": "legalpayback.com", "imposter": false, "copycat": true}, {"id": 156, "name": "Moneybackglobal", "short_description": "Thanks to the efforts of our legal team and/or the imposters & copycats` inability to continue their disingenuous\u00a0practices, their websites were removed.", "review": "", "fca_link": null, "logo": "", "screenshot": "", "created_at": null, "updated_at": null, "website": "moneybackglobal.com", "imposter": false, "copycat": true}, {"id": 157, "name": "Mywealthrecovery", "short_description": "Thanks to the efforts of our legal team and/or the imposters & copycats` inability to continue their disingenuous\u00a0practices, their websites were removed.", "review": "", "fca_link": null, "logo": "", "screenshot": "", "created_at": null, "updated_at": null, "website": "mywealthrecovery.com", "imposter": false, "copycat": true}, {"id": 158, "name": "Paybackfunds", "short_description": "Thanks to the efforts of our legal team and/or the imposters & copycats` inability to continue their disingenuous\u00a0practices, their websites were removed.", "review": "", "fca_link": null, "logo": "", "screenshot": "", "created_at": null, "updated_at": null, "website": "paybackfunds.com", "imposter": false, "copycat": true}, {"id": 159, "name": "Global Payback", "short_description": "Thanks to the efforts of our legal team and/or the imposters & copycats` inability to continue their disingenuous\u00a0practices, their websites were removed.", "review": "", "fca_link": null, "logo": "", "screenshot": "", "created_at": null, "updated_at": null, "website": "payback-global.com", "imposter": false, "copycat": true}, {"id": 160, "name": "Ltd Payback", "short_description": "Thanks to the efforts of our legal team and/or the imposters & copycats` inability to continue their disingenuous\u00a0practices, their websites were removed.", "review": "", "fca_link": null, "logo": "", "screenshot": "", "created_at": null, "updated_at": null, "website": "payback-ltd.online", "imposter": false, "copycat": true}, {"id": 161, "name": "Payeetrust", "short_description": "Thanks to the efforts of our legal team and/or the imposters & copycats` inability to continue their disingenuous\u00a0practices, their websites were removed.", "review": "", "fca_link": null, "logo": "", "screenshot": "", "created_at": null, "updated_at": null, "website": "payeetrust.com", "imposter": false, "copycat": true}, {"id": 162, "name": "Paymeback", "short_description": "Thanks to the efforts of our legal team and/or the imposters & copycats` inability to continue their disingenuous\u00a0practices, their websites were removed.", "review": "", "fca_link": null, "logo": "", "screenshot": "", "created_at": null, "updated_at": null, "website": "paymeback.support", "imposter": false, "copycat": true}, {"id": 163, "name": "Gtx", "short_description": "Thanks to the efforts of our legal team and/or the imposters & copycats` inability to continue their disingenuous\u00a0practices, their websites were removed.", "review": "", "fca_link": null, "logo": "", "screenshot": "", "created_at": null, "updated_at": null, "website": "gtx.services", "imposter": false, "copycat": true}, {"id": 164, "name": "Iiguard", "short_description": "Thanks to the efforts of our legal team and/or the imposters & copycats` inability to continue their disingenuous\u00a0practices, their websites were removed.", "review": "", "fca_link": null, "logo": "", "screenshot": "", "created_at": null, "updated_at": null, "website": "iiguard.com", "imposter": false, "copycat": true}, {"id": 165, "name": "Moneypayback", "short_description": "Thanks to the efforts of our legal team and/or the imposters & copycats` inability to continue their disingenuous\u00a0practices, their websites were removed.", "review": "", "fca_link": null, "logo": "", "screenshot": "", "created_at": null, "updated_at": null, "website": "moneypayback.net", "imposter": false, "copycat": true}, {"id": 166, "name": "Funds Payback", "short_description": "Thanks to the efforts of our legal team and/or the imposters & copycats` inability to continue their disingenuous\u00a0practices, their websites were removed.", "review": "", "fca_link": null, "logo": "", "screenshot": "", "created_at": null, "updated_at": null, "website": "payback-funds.com", "imposter": false, "copycat": true}, {"id": 167, "name": "Paybackint", "short_description": "Thanks to the efforts of our legal team and/or the imposters & copycats` inability to continue their disingenuous\u00a0practices, their websites were removed.", "review": "", "fca_link": null, "logo": "", "screenshot": "", "created_at": null, "updated_at": null, "website": "paybackint.com", "imposter": false, "copycat": true}, {"id": 168, "name": "Llc Payback", "short_description": "Thanks to the efforts of our legal team and/or the imposters & copycats` inability to continue their disingenuous\u00a0practices, their websites were removed.", "review": "", "fca_link": null, "logo": "", "screenshot": "", "created_at": null, "updated_at": null, "website": "payback-llc.com", "imposter": false, "copycat": true}, {"id": 169, "name": "Ltd Payback", "short_description": "Thanks to the efforts of our legal team and/or the imposters & copycats` inability to continue their disingenuous\u00a0practices, their websites were removed.", "review": "", "fca_link": null, "logo": "", "screenshot": "", "created_at": null, "updated_at": null, "website": "payback-ltd.eu", "imposter": false, "copycat": true}, {"id": 170, "name": "Ltd Payback", "short_description": "Thanks to the efforts of our legal team and/or the imposters & copycats` inability to continue their disingenuous\u00a0practices, their websites were removed.", "review": "", "fca_link": null, "logo": "", "screenshot": "", "created_at": null, "updated_at": null, "website": "payback-ltd.net", "imposter": false, "copycat": true}, {"id": 171, "name": "Paybackltd", "short_description": "Thanks to the efforts of our legal team and/or the imposters & copycats` inability to continue their disingenuous\u00a0practices, their websites were removed.", "review": "", "fca_link": null, "logo": "", "screenshot": "", "created_at": null, "updated_at": null, "website": "paybackltd.uk", "imposter": false, "copycat": true}, {"id": 172, "name": "Paybackmoney", "short_description": "Thanks to the efforts of our legal team and/or the imposters & copycats` inability to continue their disingenuous\u00a0practices, their websites were removed.", "review": "", "fca_link": null, "logo": "", "screenshot": "", "created_at": null, "updated_at": null, "website": "paybackmoney.org", "imposter": false, "copycat": true}, {"id": 173, "name": "Money Payback", "short_description": "Thanks to the efforts of our legal team and/or the imposters & copycats` inability to continue their disingenuous\u00a0practices, their websites were removed.", "review": "", "fca_link": null, "logo": "", "screenshot": "", "created_at": null, "updated_at": null, "website": "payback-money.org", "imposter": false, "copycat": true}, {"id": 174, "name": "Moneybacknow Your", "short_description": "Thanks to the efforts of our legal team and/or the imposters & copycats` inability to continue their disingenuous\u00a0practices, their websites were removed.", "review": "", "fca_link": null, "logo": "", "screenshot": "", "created_at": null, "updated_at": null, "website": "yourmoneybacknow.com", "imposter": false, "copycat": true}, {"id": 175, "name": "Recuperatefunds", "short_description": "Thanks to the efforts of our legal team and/or the imposters & copycats` inability to continue their disingenuous\u00a0practices, their websites were removed.", "review": "", "fca_link": null, "logo": "", "screenshot": "", "created_at": null, "updated_at": null, "website": "recuperatefunds.com", "imposter": false, "copycat": true}, {"id": 176, "name": "Aemilius Cupero", "short_description": "Thanks to the efforts of our legal team and/or the imposters & copycats` inability to continue their disingenuous\u00a0practices, their websites were removed.", "review": "", "fca_link": null, "logo": "", "screenshot": "", "created_at": null, "updated_at": null, "website": "aemilius-cupero.net", "imposter": false, "copycat": true}], "first_page_url": "https://api.payback-ltd.com/api/blacklist/copycats-imposters?page=1", "from": 151, "last_page": 9, "last_page_url": "https://api.payback-ltd.com/api/blacklist/copycats-imposters?page=9", "links": [{"url": "https://api.payback-ltd.com/api/blacklist/copycats-imposters?page=6", "label": "&laquo; Previous", "active": false}, {"url": "https://api.payback-ltd.com/api/blacklist/copycats-imposters?page=1", "label": "1", "active": false}, {"url": "https://api.payback-ltd.com/api/blacklist/copycats-imposters?page=2", "label": "2", "active": false}, {"url": "https://api.payback-ltd.com/api/blacklist/copycats-imposters?page=3", "label": "3", "active": false}, {"url": "https://api.payback-ltd.com/api/blacklist/copycats-imposters?page=4", "label": "4", "active": false}, {"url": "https://api.payback-ltd.com/api/blacklist/copycats-imposters?page=5", "label": "5", "active": false}, {"url": "https://api.payback-ltd.com/api/blacklist/copycats-imposters?page=6", "label": "6", "active": false}, {"url": "https://api.payback-ltd.com/api/blacklist/copycats-imposters?page=7", "label": "7", "active": true}, {"url": "https://api.payback-ltd.com/api/blacklist/copycats-imposters?page=8", "label": "8", "active": false}, {"url": "https://api.payback-ltd.com/api/blacklist/copycats-imposters?page=9", "label": "9", "active": false}, {"url": "https://api.payback-ltd.com/api/blacklist/copycats-imposters?page=8", "label": "Next &raquo;", "active": false}], "next_page_url": "https://api.payback-ltd.com/api/blacklist/copycats-imposters?page=8", "path": "https://api.payback-ltd.com/api/blacklist/copycats-imposters", "per_page": 25, "prev_page_url": "https://api.payback-ltd.com/api/blacklist/copycats-imposters?page=6", "to": 175, "total": 203}