{
  "current_page": 2,
  "data": [
    {
      "id": 26,
      "name": "Firm Pb",
      "short_description": "A copy-and-paste version of our own website, that of pb-firm should be avoided at all costs. Clone sites like this exist for one reason only: to convince victims that they\u2019re the real thing in order to scam them out of more money. Here at Payback, we\u2019re in the process of taking legal action against a number of sites, such as this one, to get them taken down and protect people from suffering at the hands of con artists.",
      "review": "<p>A copy-and-paste version of our own website, that of pb-firm should be avoided at all costs. Clone sites like this exist for one reason only: to convince victims that they\u2019re the real thing in order to scam them out of more money. Here at Payback, we\u2019re in the process of taking legal action against a number of sites, such as this one, to get them taken down and protect people from suffering at the hands of con artists.</p>\n<p>Always check carefully to make sure that the site you\u2019re visiting is the one it purports to be: a quick look at the address bar is one way to avoid scammers.</p>\n<br/>\n<p><b>More Information</b></p>\n<br/>\n<p>Contact details</p>\n<p>Contact form + chat</p>\n<p>No phone numbers/email/address</p>",
      "fca_link": null,
      "logo": "https://media.payback-ltd.com/images/2023/09/19/payback-ltd.us.png",
      "screenshot": "https://media.payback-ltd.com/images/2023/09/20/87.png",
      "created_at": null,
      "updated_at": null,
      "website": "pb-firm.com",
      "imposter": true,
      "copycat": false
    },
    {
      "id": 27,
      "name": "International Payback",
      "short_description": "This site has copied closely the services, content, and text of the Payback site: even its logo closely resembles our own. Always be extremely wary when dealing with a site that has seemingly copied that of a legitimate, trustworthy concern, just in case a scam is underway. Proceed with great caution.",
      "review": "<p>This site has copied closely the services, content, and text of the Payback site: even its logo closely resembles our own. Always be extremely wary when dealing with a site that has seemingly copied that of a legitimate, trustworthy concern, just in case a scam is underway. Proceed with great caution.</p>\n<p>To help avoid being conned, be sure to check plenty of reviews from third-party websites to get an accurate idea of the type of service you can expect and, crucially, to discover if the company is legit and reliable.</p>\n<br/>\n<p><b>More Information</b></p>\n<br/>\n<p>Contact details</p>\n<p>United States</p>\n<p>1167 US Highway 19 N</p>\n<p>Clearwater, FL 33764</p>\n<p>877.634.cbld</p>\n<p>info@paybackintl.com</p>",
      "fca_link": null,
      "logo": "https://media.payback-ltd.com/images/2023/09/20/Paybackintl.com.png",
      "screenshot": "https://media.payback-ltd.com/images/2023/09/20/8844.png",
      "created_at": null,
      "updated_at": null,
      "website": "Paybackintl.com",
      "imposter": false,
      "copycat": true
    },
    {
      "id": 28,
      "name": "Deutchland Payback",
      "short_description": "These scammers have tried to be smart by copying our site but making it appear, through the website address, that it\u2019s our German division. Be assured, payback-deutchland.com has no affiliation with us whatsoever and is a scam operating to get its hands on the personal details and finances of potential victims.",
      "review": "<p>These scammers have tried to be smart by copying our site but making it appear, through the website address, that it\u2019s our German division. Be assured, payback-deutchland.com has no affiliation with us whatsoever and is a scam operating to get its hands on the personal details and finances of potential victims.</p>\n<p>Here at Payback, we\u2019re currently pursuing legal action to get imposter sites like this one and many others taken down to protect people from falling victim to a scam. Carefully checking the address bar of a site is an important step in steering clear of duplicate, criminal outfits posing as legitimate concerns.</p>\n<br/>\n<p><b>More Information</b></p>\n<br/>\n<p>Contact details - </p>\n<p>Phone numbers- </p>\n<p>+19292070100</p>\n<p>IL +972779995160</p>\n<p>AU +61341089933</p>\n<p>DK +4578742074</p>\n<p>Copied funds recovery\u2019s email - </p>\n<p>Address - INC LLC 8 The Green Suite 19901-3618 #13256 Dover DE</p>",
      "fca_link": null,
      "logo": "https://media.payback-ltd.com/images/2023/09/20/logo-3.png",
      "screenshot": "https://media.payback-ltd.com/images/2023/09/20/857.png",
      "created_at": null,
      "updated_at": null,
      "website": "payback-deutchland.com",
      "imposter": true,
      "copycat": false
    },
    {
      "id": 29,
      "name": "Moneyrea Recovery",
      "short_description": "This site looks so like the Payback website that it might nearly have you fooled - it even uses the same colors and font style as our own in a bid to make visitors believe it\u2019s the real thing. Be aware it\u2019s certainly not: moneyrea-recovery.com should be avoided at all costs.",
      "review": "<p>This site looks so like the Payback website that it might nearly have you fooled - it even uses the same colors and font style as our own in a bid to make visitors believe it\u2019s the real thing. Be aware it\u2019s certainly not: moneyrea-recovery.com should be avoided at all costs.</p>\n<p>Those choosing to use such a site will find that not only will they not get assistance in getting back their originally scammed funds, but they will likely be even more out of pocket. We\u2019re currently taking legal action to get such clone sites taken down.</p>\n<br/>\n<p><b>More Information</b></p>\n<br/>\n<p>They have different logo - </p>\n<p>Contact details - (copied our address, different phone numbers and email )</p>\n<p>Hilazon 5, Ramat Gan,  , 5252269 (our address)</p>\n<p>Email - enquiries@moneyrea-recovery.com</p>\n<p>Phone numbers - </p>\n<p>+972-777408749</p>\n<p>+1-718-473-3943</p>\n<p>+61-282-105-236</p>\n<p>+46-812-410-614</p>\n<br/>\n<p>This site owner is also the owner of this domain - Motivasitech.org  (they copy all the site again - same changes as here )</p>",
      "fca_link": null,
      "logo": "https://media.payback-ltd.com/images/2023/09/20/moneyrea-recovery.com.png",
      "screenshot": "https://media.payback-ltd.com/images/2023/09/20/__65.png",
      "created_at": null,
      "updated_at": null,
      "website": "moneyrea-recovery.com",
      "imposter": false,
      "copycat": true
    },
    {
      "id": 30,
      "name": "Eufradef",
      "short_description": "The name of this site may sound legit, but be very wary: it\u2019s one of many websites that have popped up recently, purporting to provide the same services as we do here at Payback. A quick look at online reviews for eufradef.com reveals that there is a significant chance that this operation may be a fraud.",
      "review": "<p>The name of this site may sound legit, but be very wary: it\u2019s one of many websites that have popped up recently, purporting to provide the same services as we do here at Payback. A quick look at online reviews for eufradef.com reveals that there is a significant chance that this operation may be a fraud.</p>\n<p>For those who have already suffered at the hands of a scammer, avoiding a further con is vital, which is why it\u2019s so important to steer clear of sites that may not be trustworthy.</p>\n<br/>\n<p><b>More Information</b></p>\n<br/>\n<p>Contact details - </p>\n<p>They have 2 option for contact - </p>\n<p>For Existing Clients: +32 2 8881282 if you click on the phone number link it lead to this phone - tel:+441527386591. Email - info@eufradef.com </p>\n<p>New Clients: +32 2 8881282 The same phone number but this time the phone link really lead to the same number</p>\n<p>They have a contact forms on a few pages but one of them</p>",
      "fca_link": null,
      "logo": "https://media.payback-ltd.com/images/2023/09/20/eufradef.com.png",
      "screenshot": "https://media.payback-ltd.com/images/2023/09/20/21.png",
      "created_at": null,
      "updated_at": null,
      "website": "eufradef.com",
      "imposter": false,
      "copycat": true
    },
    {
      "id": 31,
      "name": "Test1",
      "short_description": "Sometimes, scammers are so brazen it\u2019s almost unbelievable. As is the case with this criminal site, which clones our own. A quick look at the address bar should raise suspicion: the address of the site is test1.redco.ge. And if you have a look at the home page\u2019s tab, it\u2019s listed as McDuck - and we\u2019re fairly sure that this Disney character doesn\u2019t have a side hustle in chargeback services.",
      "review": "<p>Sometimes, scammers are so brazen it\u2019s almost unbelievable. As is the case with this criminal site, which clones our own. A quick look at the address bar should raise suspicion: the address of the site is test1.redco.ge. And if you have a look at the home page\u2019s tab, it\u2019s listed as McDuck - and we\u2019re fairly sure that this Disney character doesn\u2019t have a side hustle in chargeback services.</p>\n<p>Avoid this clone site at all costs. Here at Payback, we\u2019re in the process of taking legal action against the owners to get it closed down.</p>\n<br/>\n<p><b>More Information</b></p>\n<img width=\"100%\" src=\"https://media.payback-ltd.com/images/2023/09/20/Screenshot-2023-09-20-at-19.44.00.png\"/>\n<br/>\n<p>When you click on the contact link it leads to this form - </p>\n<img width=\"100%\" src=\"https://media.payback-ltd.com/images/2023/09/20/Screenshot-2023-09-20-at-19.45.10.png\"/>\n<br/>\n<p>They use our contact details (beside the AU number - maybe it is our old AU number?)</p>\n<img width=\"100%\" src=\"https://media.payback-ltd.com/images/2023/09/20/Screenshot-2023-09-20-at-19.46.29.png\"/>",
      "fca_link": null,
      "logo": "https://media.payback-ltd.com/images/2023/09/19/payback-ltd.us.png",
      "screenshot": "https://media.payback-ltd.com/images/2023/09/20/874.png",
      "created_at": null,
      "updated_at": null,
      "website": "test1.redco.ge",
      "imposter": true,
      "copycat": false
    },
    {
      "id": 32,
      "name": "Advisor Fin",
      "short_description": "This is another site that has almost completely duplicated the Payback website, simply changing the contact details so that when you get in touch, you\u2019ll be speaking with the scammers rather than our own representative. A look at the address bar reveals the true identity of the site: it\u2019s fin-advisor.net, and it\u2019s this logo that appears in the top left corner, appearing deceptively like our own.",
      "review": "<p>This is another site that has almost completely duplicated the Payback website, simply changing the contact details so that when you get in touch, you\u2019ll be speaking with the scammers rather than our own representative. A look at the address bar reveals the true identity of the site: it\u2019s fin-advisor.net, and it\u2019s this logo that appears in the top left corner, appearing deceptively like our own.</p>\n<p>Steer clear of duplicate sites like this one at all costs to avoid being scammed out of further cash, and never divulge personal or financial details.</p>\n<br/>\n<p><b>More Information</b></p>\n<br/>\n<p>Contact details - </p>\n<p>Tel: +31630413731, WhatsApp: +31647413487</p>\n<p>Location</p>\n<p>Scheveningseweg 52 2517 KW The Hague </p>\n<p>support@fin-advisor.net</p>\n<p>Contact form</p>",
      "fca_link": null,
      "logo": "https://media.payback-ltd.com/images/2023/09/20/fin-advisor.net.png",
      "screenshot": "https://media.payback-ltd.com/images/2023/09/20/231.png",
      "created_at": null,
      "updated_at": null,
      "website": "www.fin-advisor.net",
      "imposter": false,
      "copycat": true
    },
    {
      "id": 33,
      "name": "Payback Uk",
      "short_description": "This duplicate site has almost entirely lifted the whole of our site and pasted it into its own, simply changing the contact details to its own and adding a logo (that looks very much like Payback\u2019s) to the top left-hand corner of the home page.",
      "review": "<p>This duplicate site has almost entirely lifted the whole of our site and pasted it into its own, simply changing the contact details to its own and adding a logo (that looks very much like Payback\u2019s) to the top left-hand corner of the home page.</p>\n<p>Although the addition of \u2018UK\u2019 in uk-payback.com address makes it appear as if this site is affiliated with our own, please be assured it has nothing to do with us, and divulging personal, financial, or other sensitive information to this outfit could well lead to the loss of further funds.</p>\n<br/>\n<p><b>More Information</b></p>\n<br/>\n<p>Contact details - </p>\n<p>They have a contact form </p>\n<p>Address - 21 Park Royal Rd, London NW10 7LQ</p>\n<p>Email - support@uk-payback.com</p>\n<p>They don`t have phone numbers</p>\n<p>The chat button was not pressed</p>",
      "fca_link": null,
      "logo": "https://media.payback-ltd.com/images/2023/09/20/fin-advisor.net-1.png",
      "screenshot": "https://media.payback-ltd.com/images/2023/09/20/8746.png",
      "created_at": null,
      "updated_at": null,
      "website": "uk-payback.com",
      "imposter": false,
      "copycat": true
    },
    {
      "id": 34,
      "name": "Avo",
      "short_description": "Another site that looks almost identical to our own here at Payback, this company should be steered well clear of. The address of the site - http://206.81.30.60/index.php/forex-scams - is a major clue that all isn\u2019t as it seems with Avo.",
      "review": "<p>Another site that looks almost identical to our own here at Payback, this company should be steered well clear of. The address of the site - http://206.81.30.60/index.php/forex-scams - is a major clue that all isn\u2019t as it seems with Avo.</p>\n<p>This imposter company is almost certainly a scam and, as such, is very unlikely to be able to assist you if you\u2019ve suffered a scam, no matter how convincing its site may appear. It\u2019s vital to only ever deal with reliable, trustworthy, and legit companies online, especially when divulging personal, financial, and other sensitive information.</p>\n<br/>\n<p><b>More Information</b></p>\n<br/>\n<p>Contact details - </p>\n<p>Address -OTC-Markets , 125 Old Broad St, London EC2N 1AR, UK</p>\n<p>Email - support@otc-markets.online</p>\n<p>Phone number - +44 138 071 3791</p>",
      "fca_link": null,
      "logo": "https://media.payback-ltd.com/images/2023/09/22/avo_logo.png",
      "screenshot": "https://media.payback-ltd.com/images/2023/09/21/547.png",
      "created_at": null,
      "updated_at": null,
      "website": "http://206.81.30.60/index.php/forex-scams",
      "imposter": false,
      "copycat": true
    },
    {
      "id": 35,
      "name": "Motivasitech",
      "short_description": "A clone site masquerading as our own motivasitech.org is a criminal outfit that you should avoid at all costs. The crooks have simply copied and pasted the entirety of the Payback site, simply adding their own logo and changing the contact details so that, if you get in touch, you\u2019ll be speaking with the scammers rather than one of our representatives.",
      "review": "<p>A clone site masquerading as our own motivasitech.org is a criminal outfit that you should avoid at all costs. The crooks have simply copied and pasted the entirety of the Payback site, simply adding their own logo and changing the contact details so that, if you get in touch, you\u2019ll be speaking with the scammers rather than one of our representatives.</p>\n<p>We\u2019re in the process of taking legal action to get such clone sites shut down and removed, but in the meantime, stay vigilant about such websites to avoid getting scammed further.</p>\n<br/>\n<p><b>More Information</b></p>\n<br/>\n<p>Contact details - (copied our address, different phone numbers and email )</p>\n<p>Hilazon 5, Ramat Gan,  , 5252269 (our address)</p>\n<p>Email - enquiries@moneyrea-recovery.com</p>\n<p>Phone numbers-</p>\n<p>+972-777408749</p>\n<p>+1-718-473-3943</p>\n<p>+61-282-105-236</p>\n<p>+46-812-410-614</p>\n<p>This site owner is also the owner of this domain - https://moneyrea-recovery.com/ (they copy all the site again - same changes as here )</p>",
      "fca_link": null,
      "logo": "https://media.payback-ltd.com/images/2023/09/21/motivasitech.org.png",
      "screenshot": "https://media.payback-ltd.com/images/2023/09/21/__65.png",
      "created_at": null,
      "updated_at": null,
      "website": "motivasitech.org",
      "imposter": false,
      "copycat": true
    },
    {
      "id": 36,
      "name": "Payback Time",
      "short_description": "A clone site like this one simply duplicates the entirety of a legitimate, trustworthy website. Payback-time.com is masquerading as our own Payback site in order to con those who have already suffered a scam into seeking assistance. Doing so, however, will not only result in disappointment but is likely to lead to a further con, with the scammers out to harvest personal, financial, or other sensitive information from their victims.",
      "review": "<p>A clone site like this one simply duplicates the entirety of a legitimate, trustworthy website. Payback-time.com is masquerading as our own Payback site in order to con those who have already suffered a scam into seeking assistance. Doing so, however, will not only result in disappointment but is likely to lead to a further con, with the scammers out to harvest personal, financial, or other sensitive information from their victims.</p>\n<p>It\u2019s important to stay vigilant and avoid this site and other cloned websites like the plague to stay safe from scammers.</p>\n<br/>\n<p><b>More Information</b></p>\n<br/>\n<p>Contact details - </p>\n<br/>\n<p>Copy our address - Hilazon 5, Ramat Gan,  , 5252269</p>\n<p>Email- support@payback-time.com</p>\n<p>Phone number +1 903 751 5250</p>\n<p>They have a contact form and their own chat</p>\n<img src=\"https://media.payback-ltd.com/images/2023/09/21/Screenshot-2023-09-20-at-21.15.53.png\"/>",
      "fca_link": null,
      "logo": "https://media.payback-ltd.com/images/2023/09/19/payback-ltd.us.png",
      "screenshot": "https://media.payback-ltd.com/images/2023/09/21/417.png",
      "created_at": null,
      "updated_at": null,
      "website": "payback-time.com",
      "imposter": true,
      "copycat": false
    },
    {
      "id": 37,
      "name": "Ltd Tradeback",
      "short_description": "Thanks to the efforts of our legal team and/or the imposters & copycats` inability to continue their disingenuous\u00a0practices, their websites were removed.",
      "review": "",
      "fca_link": null,
      "logo": "https://media.payback-ltd.com/images/2023/09/26/tradeback-ltd.com.png",
      "screenshot": "https://media.payback-ltd.com/images/2023/09/25/9.png",
      "created_at": null,
      "updated_at": null,
      "website": "tradeback-ltd.com",
      "imposter": false,
      "copycat": true
    },
    {
      "id": 38,
      "name": "Back Me Money",
      "short_description": "Thanks to the efforts of our legal team and/or the imposters & copycats` inability to continue their disingenuous\u00a0practices, their websites were removed.",
      "review": "",
      "fca_link": null,
      "logo": "https://media.payback-ltd.com/images/2023/09/26/Money-back.me.png",
      "screenshot": "https://media.payback-ltd.com/images/2023/09/26/223.png",
      "created_at": null,
      "updated_at": null,
      "website": "money-back.me",
      "imposter": true,
      "copycat": false
    },
    {
      "id": 39,
      "name": "Consultants Recovery",
      "short_description": "Thanks to the efforts of our legal team and/or the imposters & copycats` inability to continue their disingenuous\u00a0practices, their websites were removed.",
      "review": "",
      "fca_link": null,
      "logo": "https://media.payback-ltd.com/images/2023/09/19/payback-ltd.us.png",
      "screenshot": "https://media.payback-ltd.com/images/2023/09/26/6555-1.png",
      "created_at": null,
      "updated_at": null,
      "website": "recovery-consultants.org",
      "imposter": true,
      "copycat": false
    },
    {
      "id": 40,
      "name": "Back Funds Pay",
      "short_description": "Thanks to the efforts of our legal team and/or the imposters & copycats` inability to continue their disingenuous\u00a0practices, their websites were removed.",
      "review": "",
      "fca_link": null,
      "logo": "https://media.payback-ltd.com/images/2023/09/26/paybackfunds.com.png",
      "screenshot": "https://media.payback-ltd.com/images/2023/09/26/665.png",
      "created_at": null,
      "updated_at": null,
      "website": "paybackfunds.com",
      "imposter": false,
      "copycat": true
    },
    {
      "id": 42,
      "name": "Consult Ingit",
      "short_description": "Thanks to the efforts of our legal team and/or the imposters & copycats` inability to continue their disingenuous\u00a0practices, their websites were removed.",
      "review": "",
      "fca_link": null,
      "logo": "https://media.payback-ltd.com/images/2023/09/26/ref1.consultingit.support.png",
      "screenshot": "https://media.payback-ltd.com/images/2023/09/26/741.png",
      "created_at": null,
      "updated_at": null,
      "website": "ref1.consultingit.support",
      "imposter": false,
      "copycat": true
    },
    {
      "id": 43,
      "name": "Advocates Payback",
      "short_description": "Thanks to the efforts of our legal team and/or the imposters & copycats` inability to continue their disingenuous\u00a0practices, their websites were removed.",
      "review": "",
      "fca_link": null,
      "logo": "https://media.payback-ltd.com/images/2023/09/19/payback-ltd.us.png",
      "screenshot": "https://media.payback-ltd.com/images/2023/09/26/543.png",
      "created_at": null,
      "updated_at": null,
      "website": "paybackadvocates.com",
      "imposter": true,
      "copycat": false
    },
    {
      "id": 44,
      "name": "Check Payback",
      "short_description": "Thanks to the efforts of our legal team and/or the imposters & copycats` inability to continue their disingenuous\u00a0practices, their websites were removed.",
      "review": "",
      "fca_link": null,
      "logo": "",
      "screenshot": "",
      "created_at": null,
      "updated_at": null,
      "website": "payback-check.com",
      "imposter": false,
      "copycat": true
    },
    {
      "id": 45,
      "name": "Finance Traiding",
      "short_description": "Thanks to the efforts of our legal team and/or the imposters & copycats` inability to continue their disingenuous\u00a0practices, their websites were removed.",
      "review": "",
      "fca_link": null,
      "logo": "",
      "screenshot": "",
      "created_at": null,
      "updated_at": null,
      "website": "www.finance-traiding.site",
      "imposter": false,
      "copycat": true
    },
    {
      "id": 46,
      "name": "Recommended",
      "short_description": "Thanks to the efforts of our legal team and/or the imposters & copycats` inability to continue their disingenuous\u00a0practices, their websites were removed.",
      "review": "",
      "fca_link": null,
      "logo": "",
      "screenshot": "",
      "created_at": null,
      "updated_at": null,
      "website": "recommended.fun/5Gr9SB",
      "imposter": false,
      "copycat": true
    },
    {
      "id": 47,
      "name": "Avoinvesting",
      "short_description": "Thanks to the efforts of our legal team and/or the imposters & copycats` inability to continue their disingenuous\u00a0practices, their websites were removed.",
      "review": "",
      "fca_link": null,
      "logo": "",
      "screenshot": "",
      "created_at": null,
      "updated_at": null,
      "website": "avoinvesting.com/forex-scams",
      "imposter": false,
      "copycat": true
    },
    {
      "id": 48,
      "name": "Mail",
      "short_description": "Thanks to the efforts of our legal team and/or the imposters & copycats` inability to continue their disingenuous\u00a0practices, their websites were removed.",
      "review": "",
      "fca_link": null,
      "logo": "",
      "screenshot": "",
      "created_at": null,
      "updated_at": null,
      "website": "mail.payback-check.com",
      "imposter": false,
      "copycat": true
    },
    {
      "id": 49,
      "name": "Moneyrea",
      "short_description": "Thanks to the efforts of our legal team and/or the imposters & copycats` inability to continue their disingenuous\u00a0practices, their websites were removed.",
      "review": "",
      "fca_link": null,
      "logo": "",
      "screenshot": "",
      "created_at": null,
      "updated_at": null,
      "website": "moneyrea.web.app",
      "imposter": false,
      "copycat": true
    },
    {
      "id": 50,
      "name": "Paybackltd",
      "short_description": "Thanks to the efforts of our legal team and/or the imposters & copycats` inability to continue their disingenuous\u00a0practices, their websites were removed.",
      "review": "",
      "fca_link": null,
      "logo": "",
      "screenshot": "",
      "created_at": null,
      "updated_at": null,
      "website": "paybackltd.web.app",
      "imposter": false,
      "copycat": true
    },
    {
      "id": 51,
      "name": "Reportfraud",
      "short_description": "Thanks to the efforts of our legal team and/or the imposters & copycats` inability to continue their disingenuous\u00a0practices, their websites were removed.",
      "review": "",
      "fca_link": null,
      "logo": "",
      "screenshot": "",
      "created_at": null,
      "updated_at": null,
      "website": "reportfraud.online",
      "imposter": false,
      "copycat": true
    }
  ],
  "first_page_url": "https://api.payback-ltd.com/api/blacklist/copycats-imposters?page=1",
  "from": 26,
  "last_page": 9,
  "last_page_url": "https://api.payback-ltd.com/api/blacklist/copycats-imposters?page=9",
  "links": [
    {
      "url": "https://api.payback-ltd.com/api/blacklist/copycats-imposters?page=1",
      "label": "&laquo; Previous",
      "active": false
    },
    {
      "url": "https://api.payback-ltd.com/api/blacklist/copycats-imposters?page=1",
      "label": "1",
      "active": false
    },
    {
      "url": "https://api.payback-ltd.com/api/blacklist/copycats-imposters?page=2",
      "label": "2",
      "active": true
    },
    {
      "url": "https://api.payback-ltd.com/api/blacklist/copycats-imposters?page=3",
      "label": "3",
      "active": false
    },
    {
      "url": "https://api.payback-ltd.com/api/blacklist/copycats-imposters?page=4",
      "label": "4",
      "active": false
    },
    {
      "url": "https://api.payback-ltd.com/api/blacklist/copycats-imposters?page=5",
      "label": "5",
      "active": false
    },
    {
      "url": "https://api.payback-ltd.com/api/blacklist/copycats-imposters?page=6",
      "label": "6",
      "active": false
    },
    {
      "url": "https://api.payback-ltd.com/api/blacklist/copycats-imposters?page=7",
      "label": "7",
      "active": false
    },
    {
      "url": "https://api.payback-ltd.com/api/blacklist/copycats-imposters?page=8",
      "label": "8",
      "active": false
    },
    {
      "url": "https://api.payback-ltd.com/api/blacklist/copycats-imposters?page=9",
      "label": "9",
      "active": false
    },
    {
      "url": "https://api.payback-ltd.com/api/blacklist/copycats-imposters?page=3",
      "label": "Next &raquo;",
      "active": false
    }
  ],
  "next_page_url": "https://api.payback-ltd.com/api/blacklist/copycats-imposters?page=3",
  "path": "https://api.payback-ltd.com/api/blacklist/copycats-imposters",
  "per_page": 25,
  "prev_page_url": "https://api.payback-ltd.com/api/blacklist/copycats-imposters?page=1",
  "to": 50,
  "total": 203
}
