{"current_page": 4, "data": [{"id": 77, "name": "Claimfundsback", "short_description": "Thanks to the efforts of our legal team and/or the imposters & copycats` inability to continue their disingenuous\u00a0practices, their websites were removed.", "review": "", "fca_link": null, "logo": "", "screenshot": "", "created_at": null, "updated_at": null, "website": "claimfundsback.com", "imposter": false, "copycat": true}, {"id": 78, "name": "Getmypayback", "short_description": "Thanks to the efforts of our legal team and/or the imposters & copycats` inability to continue their disingenuous\u00a0practices, their websites were removed.", "review": "", "fca_link": null, "logo": "", "screenshot": "", "created_at": null, "updated_at": null, "website": "getmypayback.com", "imposter": false, "copycat": true}, {"id": 79, "name": "Authorityconsulting", "short_description": "Thanks to the efforts of our legal team and/or the imposters & copycats` inability to continue their disingenuous\u00a0practices, their websites were removed.", "review": "", "fca_link": null, "logo": "", "screenshot": "", "created_at": null, "updated_at": null, "website": "authorityconsulting.org", "imposter": false, "copycat": true}, {"id": 80, "name": "Assetsrepo", "short_description": "Thanks to the efforts of our legal team and/or the imposters & copycats` inability to continue their disingenuous\u00a0practices, their websites were removed.", "review": "", "fca_link": null, "logo": "", "screenshot": "", "created_at": null, "updated_at": null, "website": "assetsrepo.com", "imposter": false, "copycat": true}, {"id": 81, "name": "Diqiu", "short_description": "Thanks to the efforts of our legal team and/or the imposters & copycats` inability to continue their disingenuous\u00a0practices, their websites were removed.", "review": "", "fca_link": null, "logo": "", "screenshot": "", "created_at": null, "updated_at": null, "website": "diqiu.site", "imposter": false, "copycat": true}, {"id": 82, "name": "Swiftrecoup", "short_description": "Thanks to the efforts of our legal team and/or the imposters & copycats` inability to continue their disingenuous\u00a0practices, their websites were removed.", "review": "", "fca_link": null, "logo": "", "screenshot": "", "created_at": null, "updated_at": null, "website": "swiftrecoup.com", "imposter": false, "copycat": true}, {"id": 83, "name": "Pilot Track", "short_description": "Thanks to the efforts of our legal team and/or the imposters & copycats` inability to continue their disingenuous\u00a0practices, their websites were removed.", "review": "", "fca_link": null, "logo": "", "screenshot": "", "created_at": null, "updated_at": null, "website": "track-pilot.com", "imposter": false, "copycat": true}, {"id": 84, "name": "Ltd Payback", "short_description": "Thanks to the efforts of our legal team and/or the imposters & copycats` inability to continue their disingenuous\u00a0practices, their websites were removed.", "review": "", "fca_link": null, "logo": "", "screenshot": "", "created_at": null, "updated_at": null, "website": "payback-ltd.report", "imposter": false, "copycat": true}, {"id": 85, "name": "Back Pay", "short_description": "Thanks to the efforts of our legal team and/or the imposters & copycats` inability to continue their disingenuous\u00a0practices, their websites were removed.", "review": "", "fca_link": null, "logo": "", "screenshot": "", "created_at": null, "updated_at": null, "website": "pay-back.org", "imposter": false, "copycat": true}, {"id": 86, "name": "Paigecubbin", "short_description": "Thanks to the efforts of our legal team and/or the imposters & copycats` inability to continue their disingenuous\u00a0practices, their websites were removed.", "review": "", "fca_link": null, "logo": "", "screenshot": "", "created_at": null, "updated_at": null, "website": "paigecubbin.com", "imposter": false, "copycat": true}, {"id": 87, "name": "Investandback", "short_description": "Thanks to the efforts of our legal team and/or the imposters & copycats` inability to continue their disingenuous\u00a0practices, their websites were removed.", "review": "", "fca_link": null, "logo": "", "screenshot": "", "created_at": null, "updated_at": null, "website": "investandback.com", "imposter": false, "copycat": true}, {"id": 88, "name": "Ltd Paybackglobal", "short_description": "Thanks to the efforts of our legal team and/or the imposters & copycats` inability to continue their disingenuous\u00a0practices, their websites were removed.", "review": "", "fca_link": null, "logo": "", "screenshot": "", "created_at": null, "updated_at": null, "website": "paybackglobal-ltd.com", "imposter": false, "copycat": true}, {"id": 89, "name": "Financial Recoveryagency", "short_description": "Thanks to the efforts of our legal team and/or the imposters & copycats` inability to continue their disingenuous\u00a0practices, their websites were removed.", "review": "", "fca_link": null, "logo": "", "screenshot": "", "created_at": null, "updated_at": null, "website": "financialrecoveryagency.com", "imposter": false, "copycat": true}, {"id": 90, "name": "Recoverieptyltd", "short_description": "Thanks to the efforts of our legal team and/or the imposters & copycats` inability to continue their disingenuous\u00a0practices, their websites were removed.", "review": "", "fca_link": null, "logo": "", "screenshot": "", "created_at": null, "updated_at": null, "website": "recoverieptyltd.com", "imposter": false, "copycat": true}, {"id": 91, "name": "Swiftrecovery", "short_description": "Thanks to the efforts of our legal team and/or the imposters & copycats` inability to continue their disingenuous\u00a0practices, their websites were removed.", "review": "", "fca_link": null, "logo": "", "screenshot": "", "created_at": null, "updated_at": null, "website": "swiftrecovery.tech", "imposter": false, "copycat": true}, {"id": 92, "name": "Moneybackservice", "short_description": "Thanks to the efforts of our legal team and/or the imposters & copycats` inability to continue their disingenuous\u00a0practices, their websites were removed.", "review": "", "fca_link": null, "logo": "", "screenshot": "", "created_at": null, "updated_at": null, "website": "moneybackservice.org", "imposter": false, "copycat": true}, {"id": 93, "name": "Asbt", "short_description": "Thanks to the efforts of our legal team and/or the imposters & copycats` inability to continue their disingenuous\u00a0practices, their websites were removed.", "review": "", "fca_link": null, "logo": "", "screenshot": "", "created_at": null, "updated_at": null, "website": "asbt.com.br", "imposter": false, "copycat": true}, {"id": 94, "name": "Seadusrecovery", "short_description": "Thanks to the efforts of our legal team and/or the imposters & copycats` inability to continue their disingenuous\u00a0practices, their websites were removed.", "review": "", "fca_link": null, "logo": "", "screenshot": "", "created_at": null, "updated_at": null, "website": "seadusrecovery.com", "imposter": false, "copycat": true}, {"id": 95, "name": "Expertreclaim", "short_description": "Thanks to the efforts of our legal team and/or the imposters & copycats` inability to continue their disingenuous\u00a0practices, their websites were removed.", "review": "", "fca_link": null, "logo": "", "screenshot": "", "created_at": null, "updated_at": null, "website": "expertreclaim.tech", "imposter": false, "copycat": true}, {"id": 96, "name": "Viczonehelp", "short_description": "Thanks to the efforts of our legal team and/or the imposters & copycats` inability to continue their disingenuous\u00a0practices, their websites were removed.", "review": "", "fca_link": null, "logo": "", "screenshot": "", "created_at": null, "updated_at": null, "website": "viczonehelp.tech", "imposter": false, "copycat": true}, {"id": 97, "name": "Reportfraud", "short_description": "Thanks to the efforts of our legal team and/or the imposters & copycats` inability to continue their disingenuous\u00a0practices, their websites were removed.", "review": "", "fca_link": null, "logo": "", "screenshot": "", "created_at": null, "updated_at": null, "website": "reportfraud.online", "imposter": false, "copycat": true}, {"id": 98, "name": "Recoverfunds", "short_description": "Thanks to the efforts of our legal team and/or the imposters & copycats` inability to continue their disingenuous\u00a0practices, their websites were removed.", "review": "", "fca_link": null, "logo": "", "screenshot": "", "created_at": null, "updated_at": null, "website": "recoverfunds.live", "imposter": false, "copycat": true}, {"id": 99, "name": "Quadrecoup", "short_description": "Thanks to the efforts of our legal team and/or the imposters & copycats` inability to continue their disingenuous\u00a0practices, their websites were removed.", "review": "", "fca_link": null, "logo": "", "screenshot": "", "created_at": null, "updated_at": null, "website": "quadrecoup.tech", "imposter": false, "copycat": true}, {"id": 100, "name": "Premiumrecovery", "short_description": "Thanks to the efforts of our legal team and/or the imposters & copycats` inability to continue their disingenuous\u00a0practices, their websites were removed.", "review": "", "fca_link": null, "logo": "", "screenshot": "", "created_at": null, "updated_at": null, "website": "premiumrecovery.org", "imposter": false, "copycat": true}, {"id": 101, "name": "Paybackmay", "short_description": "Thanks to the efforts of our legal team and/or the imposters & copycats` inability to continue their disingenuous\u00a0practices, their websites were removed.", "review": "", "fca_link": null, "logo": "", "screenshot": "", "created_at": null, "updated_at": null, "website": "paybackmay.com", "imposter": false, "copycat": true}], "first_page_url": "https://api.payback-ltd.com/api/blacklist/copycats-imposters?page=1", "from": 76, "last_page": 9, "last_page_url": "https://api.payback-ltd.com/api/blacklist/copycats-imposters?page=9", "links": [{"url": "https://api.payback-ltd.com/api/blacklist/copycats-imposters?page=3", "label": "&laquo; Previous", "active": false}, {"url": "https://api.payback-ltd.com/api/blacklist/copycats-imposters?page=1", "label": "1", "active": false}, {"url": "https://api.payback-ltd.com/api/blacklist/copycats-imposters?page=2", "label": "2", "active": false}, {"url": "https://api.payback-ltd.com/api/blacklist/copycats-imposters?page=3", "label": "3", "active": false}, {"url": "https://api.payback-ltd.com/api/blacklist/copycats-imposters?page=4", "label": "4", "active": true}, {"url": "https://api.payback-ltd.com/api/blacklist/copycats-imposters?page=5", "label": "5", "active": false}, {"url": "https://api.payback-ltd.com/api/blacklist/copycats-imposters?page=6", "label": "6", "active": false}, {"url": "https://api.payback-ltd.com/api/blacklist/copycats-imposters?page=7", "label": "7", "active": false}, {"url": "https://api.payback-ltd.com/api/blacklist/copycats-imposters?page=8", "label": "8", "active": false}, {"url": "https://api.payback-ltd.com/api/blacklist/copycats-imposters?page=9", "label": "9", "active": false}, {"url": "https://api.payback-ltd.com/api/blacklist/copycats-imposters?page=5", "label": "Next &raquo;", "active": false}], "next_page_url": "https://api.payback-ltd.com/api/blacklist/copycats-imposters?page=5", "path": "https://api.payback-ltd.com/api/blacklist/copycats-imposters", "per_page": 25, "prev_page_url": "https://api.payback-ltd.com/api/blacklist/copycats-imposters?page=3", "to": 100, "total": 203}