{"current_page": 3, "data": [{"id": 52, "name": "Counterinter", "short_description": "Thanks to the efforts of our legal team and/or the imposters & copycats` inability to continue their disingenuous\u00a0practices, their websites were removed.", "review": "", "fca_link": null, "logo": "", "screenshot": "", "created_at": null, "updated_at": null, "website": "counterinter.com/recovery", "imposter": false, "copycat": true}, {"id": 53, "name": "Fraud Recuperation", "short_description": "Thanks to the efforts of our legal team and/or the imposters & copycats` inability to continue their disingenuous\u00a0practices, their websites were removed.", "review": "", "fca_link": null, "logo": "", "screenshot": "", "created_at": null, "updated_at": null, "website": "fraud-recuperation.org", "imposter": false, "copycat": true}, {"id": 54, "name": "Payback", "short_description": "Thanks to the efforts of our legal team and/or the imposters & copycats` inability to continue their disingenuous\u00a0practices, their websites were removed.", "review": "", "fca_link": null, "logo": "", "screenshot": "", "created_at": null, "updated_at": null, "website": "payback.doumandji.ca", "imposter": false, "copycat": true}, {"id": 55, "name": "Paybackinc", "short_description": "Thanks to the efforts of our legal team and/or the imposters & copycats` inability to continue their disingenuous\u00a0practices, their websites were removed.", "review": "", "fca_link": null, "logo": "", "screenshot": "", "created_at": null, "updated_at": null, "website": "paybackinc.online", "imposter": false, "copycat": true}, {"id": 56, "name": "Paybackltd", "short_description": "Thanks to the efforts of our legal team and/or the imposters & copycats` inability to continue their disingenuous\u00a0practices, their websites were removed.", "review": "", "fca_link": null, "logo": "", "screenshot": "", "created_at": null, "updated_at": null, "website": "www.paybackltd.co.uk", "imposter": false, "copycat": true}, {"id": 57, "name": "Recovery Tau", "short_description": "Thanks to the efforts of our legal team and/or the imposters & copycats` inability to continue their disingenuous\u00a0practices, their websites were removed.", "review": "", "fca_link": null, "logo": "", "screenshot": "", "created_at": null, "updated_at": null, "website": "recovery-tau.vercel.app", "imposter": false, "copycat": true}, {"id": 58, "name": "Payback The", "short_description": "Thanks to the efforts of our legal team and/or the imposters & copycats` inability to continue their disingenuous\u00a0practices, their websites were removed.", "review": "", "fca_link": null, "logo": "", "screenshot": "", "created_at": null, "updated_at": null, "website": "the-payback.com/payback", "imposter": false, "copycat": true}, {"id": 59, "name": "Inter Uri", "short_description": "Thanks to the efforts of our legal team and/or the imposters & copycats` inability to continue their disingenuous\u00a0practices, their websites were removed.", "review": "", "fca_link": null, "logo": "", "screenshot": "", "created_at": null, "updated_at": null, "website": "uri-inter.com", "imposter": false, "copycat": true}, {"id": 60, "name": "Llcs Payback", "short_description": "Thanks to the efforts of our legal team and/or the imposters & copycats` inability to continue their disingenuous\u00a0practices, their websites were removed.", "review": "", "fca_link": null, "logo": "", "screenshot": "", "created_at": null, "updated_at": null, "website": "payback-llcs.com", "imposter": false, "copycat": true}, {"id": 61, "name": "Paybackfast", "short_description": "Thanks to the efforts of our legal team and/or the imposters & copycats` inability to continue their disingenuous\u00a0practices, their websites were removed.", "review": "", "fca_link": null, "logo": "", "screenshot": "", "created_at": null, "updated_at": null, "website": "paybackfast.com", "imposter": false, "copycat": true}, {"id": 62, "name": "Fce Payback", "short_description": "Thanks to the efforts of our legal team and/or the imposters & copycats` inability to continue their disingenuous\u00a0practices, their websites were removed.", "review": "", "fca_link": null, "logo": "", "screenshot": "", "created_at": null, "updated_at": null, "website": "fce-payback.com", "imposter": false, "copycat": true}, {"id": 63, "name": "Matter Offers That", "short_description": "Thanks to the efforts of our legal team and/or the imposters & copycats` inability to continue their disingenuous\u00a0practices, their websites were removed.", "review": "", "fca_link": null, "logo": "", "screenshot": "", "created_at": null, "updated_at": null, "website": "offers-that-matter.click/forex-scams", "imposter": false, "copycat": true}, {"id": 64, "name": "Autopmr", "short_description": "Thanks to the efforts of our legal team and/or the imposters & copycats` inability to continue their disingenuous\u00a0practices, their websites were removed.", "review": "", "fca_link": null, "logo": "", "screenshot": "", "created_at": null, "updated_at": null, "website": "autopmr.info", "imposter": false, "copycat": true}, {"id": 65, "name": "Capitalpayback", "short_description": "Thanks to the efforts of our legal team and/or the imposters & copycats` inability to continue their disingenuous\u00a0practices, their websites were removed.", "review": "", "fca_link": null, "logo": "", "screenshot": "", "created_at": null, "updated_at": null, "website": "capitalpayback.com", "imposter": false, "copycat": true}, {"id": 66, "name": "Phillips Schmidt", "short_description": "Thanks to the efforts of our legal team and/or the imposters & copycats` inability to continue their disingenuous\u00a0practices, their websites were removed.", "review": "", "fca_link": null, "logo": "", "screenshot": "", "created_at": null, "updated_at": null, "website": "phillips-schmidt.com", "imposter": false, "copycat": true}, {"id": 67, "name": "Phillipsschmidt", "short_description": "Thanks to the efforts of our legal team and/or the imposters & copycats` inability to continue their disingenuous\u00a0practices, their websites were removed.", "review": "", "fca_link": null, "logo": "", "screenshot": "", "created_at": null, "updated_at": null, "website": "phillipsschmidt.uk", "imposter": false, "copycat": true}, {"id": 68, "name": "Bl Fin", "short_description": "Thanks to the efforts of our legal team and/or the imposters & copycats` inability to continue their disingenuous\u00a0practices, their websites were removed.", "review": "", "fca_link": null, "logo": "", "screenshot": "", "created_at": null, "updated_at": null, "website": "fin-bl.com", "imposter": false, "copycat": true}, {"id": 69, "name": "Ciphertrace", "short_description": "Thanks to the efforts of our legal team and/or the imposters & copycats` inability to continue their disingenuous\u00a0practices, their websites were removed.", "review": "", "fca_link": null, "logo": "", "screenshot": "", "created_at": null, "updated_at": null, "website": "ciphertrace.pro", "imposter": false, "copycat": true}, {"id": 70, "name": "Cyberinvstg", "short_description": "Thanks to the efforts of our legal team and/or the imposters & copycats` inability to continue their disingenuous\u00a0practices, their websites were removed.", "review": "", "fca_link": null, "logo": "", "screenshot": "", "created_at": null, "updated_at": null, "website": "cyberinvstg.com", "imposter": false, "copycat": true}, {"id": 71, "name": "Btfinance", "short_description": "Thanks to the efforts of our legal team and/or the imposters & copycats` inability to continue their disingenuous\u00a0practices, their websites were removed.", "review": "", "fca_link": null, "logo": "", "screenshot": "", "created_at": null, "updated_at": null, "website": "btfinance.org", "imposter": false, "copycat": true}, {"id": 72, "name": "Recoverycentreltd", "short_description": "Thanks to the efforts of our legal team and/or the imposters & copycats` inability to continue their disingenuous\u00a0practices, their websites were removed.", "review": "", "fca_link": null, "logo": "", "screenshot": "", "created_at": null, "updated_at": null, "website": "recoverycentreltd.com", "imposter": false, "copycat": true}, {"id": 73, "name": "Claimback", "short_description": "Thanks to the efforts of our legal team and/or the imposters & copycats` inability to continue their disingenuous\u00a0practices, their websites were removed.", "review": "", "fca_link": null, "logo": "", "screenshot": "", "created_at": null, "updated_at": null, "website": "claimback.online", "imposter": false, "copycat": true}, {"id": 74, "name": "Adoyleforensic Ltd", "short_description": "Thanks to the efforts of our legal team and/or the imposters & copycats` inability to continue their disingenuous\u00a0practices, their websites were removed.", "review": "", "fca_link": null, "logo": "", "screenshot": "", "created_at": null, "updated_at": null, "website": "adoyleforensic-ltd.com", "imposter": false, "copycat": true}, {"id": 75, "name": "Betahawkshaw", "short_description": "Thanks to the efforts of our legal team and/or the imposters & copycats` inability to continue their disingenuous\u00a0practices, their websites were removed.", "review": "", "fca_link": null, "logo": "", "screenshot": "", "created_at": null, "updated_at": null, "website": "betahawkshaw.com", "imposter": false, "copycat": true}, {"id": 76, "name": "Assets Back", "short_description": "Thanks to the efforts of our legal team and/or the imposters & copycats` inability to continue their disingenuous\u00a0practices, their websites were removed.", "review": "", "fca_link": null, "logo": "", "screenshot": "", "created_at": null, "updated_at": null, "website": "assets-back.com", "imposter": false, "copycat": true}], "first_page_url": "https://api.payback-ltd.com/api/blacklist/copycats-imposters?page=1", "from": 51, "last_page": 9, "last_page_url": "https://api.payback-ltd.com/api/blacklist/copycats-imposters?page=9", "links": [{"url": "https://api.payback-ltd.com/api/blacklist/copycats-imposters?page=2", "label": "&laquo; Previous", "active": false}, {"url": "https://api.payback-ltd.com/api/blacklist/copycats-imposters?page=1", "label": "1", "active": false}, {"url": "https://api.payback-ltd.com/api/blacklist/copycats-imposters?page=2", "label": "2", "active": false}, {"url": "https://api.payback-ltd.com/api/blacklist/copycats-imposters?page=3", "label": "3", "active": true}, {"url": "https://api.payback-ltd.com/api/blacklist/copycats-imposters?page=4", "label": "4", "active": false}, {"url": "https://api.payback-ltd.com/api/blacklist/copycats-imposters?page=5", "label": "5", "active": false}, {"url": "https://api.payback-ltd.com/api/blacklist/copycats-imposters?page=6", "label": "6", "active": false}, {"url": "https://api.payback-ltd.com/api/blacklist/copycats-imposters?page=7", "label": "7", "active": false}, {"url": "https://api.payback-ltd.com/api/blacklist/copycats-imposters?page=8", "label": "8", "active": false}, {"url": "https://api.payback-ltd.com/api/blacklist/copycats-imposters?page=9", "label": "9", "active": false}, {"url": "https://api.payback-ltd.com/api/blacklist/copycats-imposters?page=4", "label": "Next &raquo;", "active": false}], "next_page_url": "https://api.payback-ltd.com/api/blacklist/copycats-imposters?page=4", "path": "https://api.payback-ltd.com/api/blacklist/copycats-imposters", "per_page": 25, "prev_page_url": "https://api.payback-ltd.com/api/blacklist/copycats-imposters?page=2", "to": 75, "total": 203}