{"current_page": 8, "data": [{"id": 177, "name": "Payback", "short_description": "Thanks to the efforts of our legal team and/or the imposters & copycats` inability to continue their disingenuous\u00a0practices, their websites were removed.", "review": "", "fca_link": null, "logo": "", "screenshot": "", "created_at": null, "updated_at": null, "website": "payback.world", "imposter": false, "copycat": true}, {"id": 178, "name": "Blockchain Refunddesk", "short_description": "Thanks to the efforts of our legal team and/or the imposters & copycats` inability to continue their disingenuous\u00a0practices, their websites were removed.", "review": "", "fca_link": null, "logo": "", "screenshot": "", "created_at": null, "updated_at": null, "website": "blockchain-refunddesk.com", "imposter": false, "copycat": true}, {"id": 179, "name": "Compliance Defii", "short_description": "Thanks to the efforts of our legal team and/or the imposters & copycats` inability to continue their disingenuous\u00a0practices, their websites were removed.", "review": "", "fca_link": null, "logo": "", "screenshot": "", "created_at": null, "updated_at": null, "website": "defii-compliance.com", "imposter": false, "copycat": true}, {"id": 180, "name": "Blockchain Finance", "short_description": "Thanks to the efforts of our legal team and/or the imposters & copycats` inability to continue their disingenuous\u00a0practices, their websites were removed.", "review": "", "fca_link": null, "logo": "", "screenshot": "", "created_at": null, "updated_at": null, "website": "finance-blockchain.com", "imposter": false, "copycat": true}, {"id": 181, "name": "Ltd Payback", "short_description": "Thanks to the efforts of our legal team and/or the imposters & copycats` inability to continue their disingenuous\u00a0practices, their websites were removed.", "review": "", "fca_link": null, "logo": "", "screenshot": "", "created_at": null, "updated_at": null, "website": "www.payback-ltd.online", "imposter": false, "copycat": true}, {"id": 182, "name": "Financialdep", "short_description": "Thanks to the efforts of our legal team and/or the imposters & copycats` inability to continue their disingenuous\u00a0practices, their websites were removed.", "review": "", "fca_link": null, "logo": "", "screenshot": "", "created_at": null, "updated_at": null, "website": "www.financialdep.org", "imposter": false, "copycat": true}, {"id": 183, "name": "Ltd Payback", "short_description": "Thanks to the efforts of our legal team and/or the imposters & copycats` inability to continue their disingenuous\u00a0practices, their websites were removed.", "review": "", "fca_link": null, "logo": "", "screenshot": "", "created_at": null, "updated_at": null, "website": "www.payback-ltd.cc", "imposter": false, "copycat": true}, {"id": 184, "name": "Ltd Payback", "short_description": "Thanks to the efforts of our legal team and/or the imposters & copycats` inability to continue their disingenuous\u00a0practices, their websites were removed.", "review": "", "fca_link": null, "logo": "", "screenshot": "", "created_at": null, "updated_at": null, "website": "payback-ltd.co.uk", "imposter": false, "copycat": true}, {"id": 185, "name": "Estban", "short_description": "Thanks to the efforts of our legal team and/or the imposters & copycats` inability to continue their disingenuous\u00a0practices, their websites were removed.", "review": "", "fca_link": null, "logo": "", "screenshot": "", "created_at": null, "updated_at": null, "website": "estban.ee", "imposter": false, "copycat": true}, {"id": 186, "name": "Nses", "short_description": "Thanks to the efforts of our legal team and/or the imposters & copycats` inability to continue their disingenuous\u00a0practices, their websites were removed.", "review": "", "fca_link": null, "logo": "", "screenshot": "", "created_at": null, "updated_at": null, "website": "nses.nipponsteel.com", "imposter": false, "copycat": true}, {"id": 187, "name": "Shad", "short_description": "Thanks to the efforts of our legal team and/or the imposters & copycats` inability to continue their disingenuous\u00a0practices, their websites were removed.", "review": "", "fca_link": null, "logo": "", "screenshot": "", "created_at": null, "updated_at": null, "website": "shad.co.uk", "imposter": false, "copycat": true}, {"id": 188, "name": "Crypto Ukrecover", "short_description": "Thanks to the efforts of our legal team and/or the imposters & copycats` inability to continue their disingenuous\u00a0practices, their websites were removed.", "review": "", "fca_link": null, "logo": "", "screenshot": "", "created_at": null, "updated_at": null, "website": "ukrecovercrypto.com", "imposter": false, "copycat": true}, {"id": 189, "name": "Datascience Society", "short_description": "Thanks to the efforts of our legal team and/or the imposters & copycats` inability to continue their disingenuous\u00a0practices, their websites were removed.", "review": "", "fca_link": null, "logo": "", "screenshot": "", "created_at": null, "updated_at": null, "website": "datasciencesociety.net", "imposter": false, "copycat": true}, {"id": 190, "name": "Netkings", "short_description": "Thanks to the efforts of our legal team and/or the imposters & copycats` inability to continue their disingenuous\u00a0practices, their websites were removed.", "review": "", "fca_link": null, "logo": "", "screenshot": "", "created_at": null, "updated_at": null, "website": "netkings.com.ng", "imposter": false, "copycat": true}, {"id": 191, "name": "Earoomnyc Russiant", "short_description": "Thanks to the efforts of our legal team and/or the imposters & copycats` inability to continue their disingenuous\u00a0practices, their websites were removed.", "review": "", "fca_link": null, "logo": "", "screenshot": "", "created_at": null, "updated_at": null, "website": "russiantearoomnyc.com", "imposter": false, "copycat": true}, {"id": 192, "name": "Financial Fundrecovery", "short_description": "Thanks to the efforts of our legal team and/or the imposters & copycats` inability to continue their disingenuous\u00a0practices, their websites were removed.", "review": "", "fca_link": null, "logo": "", "screenshot": "", "created_at": null, "updated_at": null, "website": "financialfundrecovery.com", "imposter": false, "copycat": true}, {"id": 193, "name": "Ltd Payback", "short_description": "Thanks to the efforts of our legal team and/or the imposters & copycats` inability to continue their disingenuous\u00a0practices, their websites were removed.", "review": "", "fca_link": null, "logo": "", "screenshot": "", "created_at": null, "updated_at": null, "website": "payback-ltd.co", "imposter": false, "copycat": true}, {"id": 194, "name": "Ltd Payback", "short_description": "Thanks to the efforts of our legal team and/or the imposters & copycats` inability to continue their disingenuous\u00a0practices, their websites were removed.", "review": "", "fca_link": null, "logo": "", "screenshot": "", "created_at": null, "updated_at": null, "website": "payback-ltd.org", "imposter": false, "copycat": true}, {"id": 195, "name": "Ltd Payback", "short_description": "Thanks to the efforts of our legal team and/or the imposters & copycats` inability to continue their disingenuous\u00a0practices, their websites were removed.", "review": "", "fca_link": null, "logo": "", "screenshot": "", "created_at": null, "updated_at": null, "website": "payback-ltd.uk", "imposter": false, "copycat": true}, {"id": 196, "name": "Ofstolenfunds Recovery", "short_description": "Thanks to the efforts of our legal team and/or the imposters & copycats` inability to continue their disingenuous\u00a0practices, their websites were removed.", "review": "", "fca_link": null, "logo": "", "screenshot": "", "created_at": null, "updated_at": null, "website": "recoveryofstolenfunds.com", "imposter": false, "copycat": true}, {"id": 197, "name": "Theglobalpayback", "short_description": "Thanks to the efforts of our legal team and/or the imposters & copycats` inability to continue their disingenuous\u00a0practices, their websites were removed.", "review": "", "fca_link": null, "logo": "", "screenshot": "", "created_at": null, "updated_at": null, "website": "theglobalpayback.com", "imposter": false, "copycat": true}, {"id": 198, "name": "Royalrecoveryexpert", "short_description": "Thanks to the efforts of our legal team and/or the imposters & copycats` inability to continue their disingenuous\u00a0practices, their websites were removed.", "review": "", "fca_link": null, "logo": "", "screenshot": "", "created_at": null, "updated_at": null, "website": "royalrecoveryexpert.com", "imposter": false, "copycat": true}, {"id": 199, "name": "Capitalpayback", "short_description": "Thanks to the efforts of our legal team and/or the imposters & copycats` inability to continue their disingenuous\u00a0practices, their websites were removed.", "review": "", "fca_link": null, "logo": "", "screenshot": "", "created_at": null, "updated_at": null, "website": "capitalpayback.com", "imposter": false, "copycat": true}, {"id": 200, "name": "Crypptocom", "short_description": "Thanks to the efforts of our legal team and/or the imposters & copycats` inability to continue their disingenuous\u00a0practices, their websites were removed.", "review": "", "fca_link": null, "logo": "", "screenshot": "", "created_at": null, "updated_at": null, "website": "crypptocom.de", "imposter": false, "copycat": true}, {"id": 201, "name": "Livenow Mintjustape", "short_description": "Thanks to the efforts of our legal team and/or the imposters & copycats` inability to continue their disingenuous\u00a0practices, their websites were removed.", "review": "", "fca_link": null, "logo": "", "screenshot": "", "created_at": null, "updated_at": null, "website": "livenow-mintjustape.co", "imposter": false, "copycat": true}], "first_page_url": "https://api.payback-ltd.com/api/blacklist/copycats-imposters?page=1", "from": 176, "last_page": 9, "last_page_url": "https://api.payback-ltd.com/api/blacklist/copycats-imposters?page=9", "links": [{"url": "https://api.payback-ltd.com/api/blacklist/copycats-imposters?page=7", "label": "&laquo; Previous", "active": false}, {"url": "https://api.payback-ltd.com/api/blacklist/copycats-imposters?page=1", "label": "1", "active": false}, {"url": "https://api.payback-ltd.com/api/blacklist/copycats-imposters?page=2", "label": "2", "active": false}, {"url": "https://api.payback-ltd.com/api/blacklist/copycats-imposters?page=3", "label": "3", "active": false}, {"url": "https://api.payback-ltd.com/api/blacklist/copycats-imposters?page=4", "label": "4", "active": false}, {"url": "https://api.payback-ltd.com/api/blacklist/copycats-imposters?page=5", "label": "5", "active": false}, {"url": "https://api.payback-ltd.com/api/blacklist/copycats-imposters?page=6", "label": "6", "active": false}, {"url": "https://api.payback-ltd.com/api/blacklist/copycats-imposters?page=7", "label": "7", "active": false}, {"url": "https://api.payback-ltd.com/api/blacklist/copycats-imposters?page=8", "label": "8", "active": true}, {"url": "https://api.payback-ltd.com/api/blacklist/copycats-imposters?page=9", "label": "9", "active": false}, {"url": "https://api.payback-ltd.com/api/blacklist/copycats-imposters?page=9", "label": "Next &raquo;", "active": false}], "next_page_url": "https://api.payback-ltd.com/api/blacklist/copycats-imposters?page=9", "path": "https://api.payback-ltd.com/api/blacklist/copycats-imposters", "per_page": 25, "prev_page_url": "https://api.payback-ltd.com/api/blacklist/copycats-imposters?page=7", "to": 200, "total": 203}